test/pipeline_tb.log
VCD info: dumpfile pipeline_tb.vcd opened for output.
A	B	C
-	-	-
0	0	0                   0
1	0	0                   2
1	1	0                   5
2	1	0                  12
2	2	1                  15
3	2	1                  22
3	3	2                  25
4	3	2                  32
4	4	3                  35
5	4	3                  42
5	5	4                  45
6	5	4                  52
6	6	5                  55
