adds_hazard.vcd
$date
	Sat Nov 14 18:48:31 2015
$end
$version
	Icarus Verilog
$end
$timescale
	1s
$end
$scope module cpu_tb $end
$var reg 1 ! clk $end
$var reg 1 " reset $end
$scope module cpu $end
$var wire 32 # alu_s [31:0] $end
$var wire 32 $ alu_t [31:0] $end
$var wire 2 % aluctrl_s [1:0] $end
$var wire 2 & aluctrl_t [1:0] $end
$var wire 4 ' aluop [3:0] $end
$var wire 1 ( clk $end
$var wire 32 ) data_t [31:0] $end
$var wire 5 * dst_rd [4:0] $end
$var wire 5 + dst_rs [4:0] $end
$var wire 5 , dst_rt [4:0] $end
$var wire 2 - ex_aluop [1:0] $end
$var wire 1 . ex_aluovf $end
$var wire 32 / ex_alures [31:0] $end
$var wire 1 0 ex_alusrc $end
$var wire 1 1 ex_aluz $end
$var wire 32 2 ex_data_rs [31:0] $end
$var wire 32 3 ex_data_rt [31:0] $end
$var wire 32 4 ex_imm [31:0] $end
$var wire 1 5 ex_isbranch $end
$var wire 1 6 ex_isjump $end
$var wire 1 7 ex_memread $end
$var wire 1 8 ex_memtoreg $end
$var wire 1 9 ex_memwrite $end
$var wire 32 : ex_pc_branch [31:0] $end
$var wire 32 ; ex_pc_jump [31:0] $end
$var wire 32 < ex_pc_next [31:0] $end
$var wire 1 = ex_regdst $end
$var wire 1 > ex_regwrite $end
$var wire 5 ? ex_wreg [4:0] $end
$var wire 2 @ id_aluop [1:0] $end
$var wire 1 A id_alusrc $end
$var wire 32 B id_data_rs [31:0] $end
$var wire 32 C id_data_rt [31:0] $end
$var wire 32 D id_imm [31:0] $end
$var wire 32 E id_instr [31:0] $end
$var wire 1 F id_isbranch $end
$var wire 1 G id_isjump $end
$var wire 1 H id_memread $end
$var wire 1 I id_memtoreg $end
$var wire 1 J id_memwrite $end
$var wire 32 K id_pc_jump [31:0] $end
$var wire 32 L id_pc_next [31:0] $end
$var wire 1 M id_regdst $end
$var wire 1 N id_regwrite $end
$var wire 32 O if_instr [31:0] $end
$var wire 32 P if_pc_next [31:0] $end
$var wire 1 Q mem_aluovf $end
$var wire 32 R mem_alures [31:0] $end
$var wire 1 S mem_aluz $end
$var wire 32 T mem_data_rt [31:0] $end
$var wire 1 U mem_isbranch $end
$var wire 32 V mem_memout [31:0] $end
$var wire 1 W mem_memread $end
$var wire 1 X mem_memtoreg $end
$var wire 1 Y mem_memwrite $end
$var wire 32 Z mem_pc_branch [31:0] $end
$var wire 1 [ mem_regwrite $end
$var wire 5 \ mem_wreg [4:0] $end
$var wire 32 ] pc_in [31:0] $end
$var wire 32 ^ pc_interm [31:0] $end
$var wire 32 _ pc_out [31:0] $end
$var wire 1 ` pc_take_branch $end
$var wire 1 a reset $end
$var wire 32 b wb_alures [31:0] $end
$var wire 32 c wb_memout [31:0] $end
$var wire 1 d wb_memtoreg $end
$var wire 1 e wb_regwrite $end
$var wire 32 f wb_wdata [31:0] $end
$var wire 5 g wb_wreg [4:0] $end
$var reg 1 h ex_mem_we $end
$var reg 1 i id_ex_we $end
$var reg 1 j if_id_we $end
$var reg 1 k mem_wb_we $end
$var reg 1 l pc_we $end
$scope module fwdcontrol $end
$var wire 5 m mem_dst [4:0] $end
$var wire 1 [ mem_rw $end
$var wire 5 n rs [4:0] $end
$var wire 5 o rt [4:0] $end
$var wire 5 p wb_dst [4:0] $end
$var wire 1 e wb_rw $end
$var reg 2 q ctrl_s [1:0] $end
$var reg 2 r ctrl_t [1:0] $end
$upscope $end
$scope module pc_jmux $end
$var wire 64 s in_data [63:0] $end
$var wire 1 6 select $end
$var reg 32 t out_data [31:0] $end
$upscope $end
$scope module pc_bmux $end
$var wire 64 u in_data [63:0] $end
$var wire 1 ` select $end
$var reg 32 v out_data [31:0] $end
$upscope $end
$scope module pc $end
$var wire 1 ( clk $end
$var wire 32 w in [31:0] $end
$var wire 1 a reset $end
$var wire 1 x we $end
$var reg 32 y out [31:0] $end
$upscope $end
$scope module imem $end
$var wire 32 z addr [31:0] $end
$var wire 1 ( clk $end
$var wire 3 { index [2:0] $end
$var wire 1 | memread $end
$var wire 1 } memwrite $end
$var wire 1 a reset $end
$var wire 32 ~ wdata [31:0] $end
$var reg 32 !" rdata [31:0] $end
$upscope $end
$scope module if_id $end
$var wire 1 ( clk $end
$var wire 64 "" in [63:0] $end
$var wire 1 #" reset $end
$var wire 1 $" we $end
$var reg 64 %" out [63:0] $end
$upscope $end
$scope module control $end
$var wire 6 &" funct [5:0] $end
$var wire 6 '" opcode [5:0] $end
$var reg 2 (" aluop [1:0] $end
$var reg 1 )" alusrc $end
$var reg 1 *" isbranch $end
$var reg 1 +" isjump $end
$var reg 1 ," memread $end
$var reg 1 -" memtoreg $end
$var reg 1 ." memwrite $end
$var reg 1 /" regdst $end
$var reg 1 0" regwrite $end
$upscope $end
$scope module regfile $end
$var wire 1 ( clk $end
$var wire 1 e regwrite $end
$var wire 1 a reset $end
$var wire 5 1" rreg1 [4:0] $end
$var wire 5 2" rreg2 [4:0] $end
$var wire 33 3" wdata [32:0] $end
$var wire 5 4" wreg [4:0] $end
$var integer 32 5" i [31:0] $end
$var reg 32 6" rdata1 [31:0] $end
$var reg 32 7" rdata2 [31:0] $end
$upscope $end
$scope module id_ex $end
$var wire 1 ( clk $end
$var wire 185 8" in [184:0] $end
$var wire 1 9" reset $end
$var wire 1 :" we $end
$var reg 185 ;" out [184:0] $end
$upscope $end
$scope module alucontrol $end
$var wire 2 <" aluop_in [1:0] $end
$var wire 6 =" funct [5:0] $end
$var reg 4 >" aluop_out [3:0] $end
$upscope $end
$scope module t_mux $end
$var wire 64 ?" in_data [63:0] $end
$var wire 1 0 select $end
$var reg 32 @" out_data [31:0] $end
$upscope $end
$scope module alu_s_mux $end
$var wire 96 A" in_data [95:0] $end
$var wire 2 B" select [1:0] $end
$var reg 32 C" out_data [31:0] $end
$upscope $end
$scope module alu_t_mux $end
$var wire 96 D" in_data [95:0] $end
$var wire 2 E" select [1:0] $end
$var reg 32 F" out_data [31:0] $end
$upscope $end
$scope module alu $end
$var wire 4 G" aluop [3:0] $end
$var wire 32 H" s [31:0] $end
$var wire 5 I" shamt [4:0] $end
$var wire 32 J" t [31:0] $end
$var reg 32 K" out [31:0] $end
$var reg 1 L" overflow $end
$var reg 1 M" zero $end
$upscope $end
$scope module dst_mux $end
$var wire 10 N" in_data [9:0] $end
$var wire 1 = select $end
$var reg 5 O" out_data [4:0] $end
$upscope $end
$scope module ex_mem $end
$var wire 1 ( clk $end
$var wire 108 P" in [107:0] $end
$var wire 1 Q" reset $end
$var wire 1 R" we $end
$var reg 108 S" out [107:0] $end
$upscope $end
$scope module dmem $end
$var wire 32 T" addr [31:0] $end
$var wire 1 ( clk $end
$var wire 3 U" index [2:0] $end
$var wire 1 W memread $end
$var wire 1 Y memwrite $end
$var wire 1 a reset $end
$var wire 32 V" wdata [31:0] $end
$var reg 32 W" rdata [31:0] $end
$upscope $end
$scope module mem_wb $end
$var wire 1 ( clk $end
$var wire 71 X" in [70:0] $end
$var wire 1 a reset $end
$var wire 1 Y" we $end
$var reg 71 Z" out [70:0] $end
$upscope $end
$scope module wb_mux $end
$var wire 64 [" in_data [63:0] $end
$var wire 1 d select $end
$var reg 32 \" out_data [31:0] $end
$upscope $end
$upscope $end
$upscope $end
$enddefinitions $end
#0
$dumpvars
b0 \"
b0 ["
b0 Z"
1Y"
b0 X"
b0 W"
b0 V"
b0 U"
b0 T"
b0 S"
1R"
1Q"
b1000000000000000000000000000000000000000000000000000000000000000000000 P"
b0 O"
b0 N"
1M"
0L"
b0 K"
b0 J"
b0 I"
b0 H"
b10 G"
b0 F"
b0 E"
b0 D"
b0 C"
b0 B"
b0 A"
b0 @"
b0 ?"
b10 >"
b0 ="
b0 <"
b0 ;"
1:"
19"
b10000110000000000000000000000000000000000000000000000000000000000000000000000000000000000000000000000000000000000000000000000000000000000000000000000000000000000000000000000000000000000 8"
b0 7"
b0 6"
bx 5"
b0 4"
b0 3"
b0 2"
b0 1"
10"
1/"
0."
0-"
0,"
0+"
0*"
0)"
b10 ("
b0 '"
b0 &"
b0 %"
1$"
1#"
b100xxxxxxxxxxxxxxxxxxxxxxxxxxxxxxxx ""
bx !"
b0 ~
0}
1|
b0 {
b0 z
b0 y
1x
b100 w
b100 v
b100 u
b100 t
b100 s
b0 r
b0 q
b0 p
b0 o
b0 n
b0 m
1l
1k
1j
1i
1h
b0 g
b0 f
0e
0d
b0 c
b0 b
1a
0`
b0 _
b100 ^
b100 ]
b0 \
0[
b0 Z
0Y
0X
0W
b0 V
0U
b0 T
0S
b0 R
0Q
b100 P
bx O
1N
1M
b0 L
b0 K
0J
0I
0H
0G
0F
b0 E
b0 D
b0 C
b0 B
0A
b10 @
b0 ?
0>
0=
b0 <
b0 ;
b0 :
09
08
07
06
05
b0 4
b0 3
b0 2
11
00
b0 /
0.
b0 -
b0 ,
b0 +
b0 *
b0 )
0(
b10 '
b0 &
b0 %
b0 $
b0 #
1"
0!
$end
#5
b100000 5"
1!
1(
#10
0!
0(
#15
b100000000010000000000000000001 !"
b10000100000000010000000000000000001 ""
b100000000010000000000000000001 O
0#"
09"
0Q"
0"
0a
b100000 5"
1!
1(
#20
0!
0(
#25
b1000 v
b1000 ]
b1000 w
1)"
1A
b0 ("
b0 @
0/"
0M
b1000010000100000000100000 !"
b1000010000100000000100000 O
b1000 t
b1000 u
b1000 ^
b100 >"
b100 '
b100 G"
b1 D
b1000000000000000000100 K
b1000 '"
b1 &"
b1000 2"
b1 {
b1000 s
b100000000001000010000100000000100000 ""
b1000 P
b100000000010000000000000000001 E
b10000000100000000000000000000000000000010000000000000000000000000000000000000000000000000000000000000000000000000000000000000000000000000100000000001000000000000000000100010000000000000 8"
b100 L
b10 -
b10 <"
1=
b100000000000000000000000000000000000001000000000000000000000000000000000000000000000000000000000000000000000 P"
1>
1S
b100 y
b100 _
b100 z
b10000100000000010000000000000000001 %"
b10000110000000000000000000000000000000000000000000000000000000000000000000000000000000000000000000000000000000000000000000000000000000000000000000000000000000000000000000000000000000000 ;"
b1000000000000000000000000000000000000000000000000000000000000000000000 S"
1!
1(
#30
0!
0(
#35
0M"
01
b1 K"
b1 /
b1 F"
b1 $
b1 J"
b1100 v
b1100 ]
b1100 w
0)"
0A
b10 ("
b10 @
1/"
1M
b1 @"
b1 D"
b1 )
b10 >"
b10 '
b10 G"
b1000 O"
b1000 ?
b1100 t
b1100 u
b1100 ^
b1 ="
b100000000100000 D
b100001000010000000010000000 K
b0 '"
b100000 &"
b1000 1"
b10000000000000000000000000000000000000000000000000000000000000000000000 X"
1[
b1000 N"
b1000 ,
b1000 o
b1000000000000000000100 ;
b100000000000000000000000000000000 ?"
b1 4
b100000000000000000000000000000000100000000000000000000000000000000000010000000000000000000000000000000001000 P"
b1000 :
b100 <
10
b0 -
b0 <"
0=
b1000010000100000000100000 E
b10000110000000000000000000000000000000100000000000000000000000000000000000000000000000000000000000000000000000000000000000010000000010000000000100001000010000000010000000010000100001000 8"
b1000 L
b10 {
b100000000000000000010000000000000000000000000000001100 s
b110000000001000010000100000000100000 ""
b1100 P
b100000000000000000000000000000000000001000000000000000000000000000000000000000000000000000000000000000000000 S"
b10000000100000000000000000000000000000010000000000000000000000000000000000000000000000000000000000000000000000000000000000000000000000000100000000001000000000000000000100010000000000000 ;"
b100000000001000010000100000000100000 %"
b1000 y
b1000 _
b1000 z
1!
1(
#40
0!
0(
#45
b10000 v
b10000 ]
b10000 w
b10 K"
b10 /
b10000 t
b10000 ^
b0 @"
b0 )
b1 C"
b1 #
b1 H"
b100000 ="
b10 r
b10 &
b10 E"
b10 q
b10 %
b10 B"
b11 {
b1000000000001000010000100000000100000 ""
b10000 P
b10000110000000000000000000000000000000110000000000000000000000000000000000000000000000000000000000000000000000000000000000010000000010000000000100001000010000000010000000010000100001000 8"
b1100 L
b1000 +
b1000 n
b100001000 N"
b1000 *
b10000100001000000001000000000000000000000000000000000010000 s
b100001000010000000010000000 ;
b10000000010000000000000000000000000000000000000 ?"
b100000000100000 4
b100000000000000000001000000001000100000000000000000000000000000000000100000000000000000000000000000000001000 P"
b10000000010001000 :
b1000 <
00
b10 -
b10 <"
1=
b1000 \
b1000 m
b10000000000000000000000000000000000000000000000000000000000000000101000 X"
b10000000000000000000000000000000000000000000000000000000000000000 D"
b10000000000000000000000000000000000000000000000000000000000000000 A"
b1 R
b1 T"
0S
b100000000000000000000000000000010000 u
b1000 Z
1e
b1100 y
b1100 _
b1100 z
b110000000001000010000100000000100000 %"
b10000110000000000000000000000000000000100000000000000000000000000000000000000000000000000000000000000000000000000000000000010000000010000000000100001000010000000010000000010000100001000 ;"
b100000000000000000000000000000000100000000000000000000000000000000000010000000000000000000000000000000001000 S"
b10000000000000000000000000000000000000000000000000000000000000000000000 Z"
1!
1(
#50
0!
0(
#55
b100 K"
b100 /
b10100 v
b10100 ]
b10100 w
b1 \"
b1 3"
b1 f
b10 F"
b10 $
b10 J"
b10 C"
b10 #
b10 H"
b0 !"
b0 O
b10100 t
b10100 ^
b10 r
b10 &
b10 E"
b10 q
b10 %
b10 B"
b1000 g
b1000 p
b1000 4"
b1 ["
b1 b
b10000000000000000000000000000000000000000000000000000000000000001001000 X"
b100000000000000000000000000000000100000000000000000000000000000000 D"
b100000000000000000000000000000000100000000000000000000000000000000 A"
b10 R
b10 T"
b1000000001000100000000000000000000000000000010100 u
b10000000010001000 Z
b100000000000000000001000000001000110000000000000000000000000000000001000000000000000000000000000000000001000 P"
b10000000010001100 :
b1100 <
b10000110000000000000000000000000000001000000000000000000000000000000000000000000000000000000000000000000000000000000000000010000000010000000000100001000010000000010000000010000100001000 8"
b10000 L
b100 {
b10000100001000000001000000000000000000000000000000000010100 s
b1010000000000000000000000000000000000 ""
b10100 P
b10000000000000000000000000000000000000000000000000000000000000000101000 Z"
b100000000000000000001000000001000100000000000000000000000000000000000100000000000000000000000000000000001000 S"
b10000110000000000000000000000000000000110000000000000000000000000000000000000000000000000000000000000000000000000000000000010000000010000000000100001000010000000010000000010000100001000 ;"
b1000000000001000010000100000000100000 %"
b10000 y
b10000 _
b10000 z
1!
1(
#60
0!
0(
#65
b11000 v
b11000 ]
b11000 w
b1000 K"
b1000 /
b11000 t
b11000 ^
b100 F"
b100 $
b100 J"
b100 C"
b100 #
b100 H"
b10 \"
b10 3"
b10 f
b0 7"
b0 C
b0 6"
b0 B
b0 D
b0 K
b0 &"
b0 1"
b0 2"
b1 U"
b101 {
b10000100001000000001000000000000000000000000000000000011000 s
b1100000000000000000000000000000000000 ""
b11000 P
b0 E
b10000110000000000000000000000000000001010000000000000000000000000000000000000000000000000000000000000000000000000000000000000000000000000000000000000000000000000000000000000000000000000 8"
b10100 L
b100000000000000000001000000001001000000000000000000000000000000000010000000000000000000000000000000000001000 P"
b10000000010010000 :
b10000 <
b10000000000000000000000000000000000000000000000000000000000000010001000 X"
b1000000000000000000000000000000001000000000000000000000000000000000 D"
b1000000000000000000000000000000001000000000000000000000000000000000 A"
b100 R
b100 T"
b1000000001000110000000000000000000000000000011000 u
b10000000010001100 Z
b10 ["
b10 b
b10100 y
b10100 _
b10100 z
b1010000000000000000000000000000000000 %"
b10000110000000000000000000000000000001000000000000000000000000000000000000000000000000000000000000000000000000000000000000010000000010000000000100001000010000000010000000010000100001000 ;"
b100000000000000000001000000001000110000000000000000000000000000000001000000000000000000000000000000000001000 S"
b10000000000000000000000000000000000000000000000000000000000000001001000 Z"
1!
1(
#70
0!
0(
#75
1M"
11
b0 K"
b0 /
b11100 v
b11100 ]
b11100 w
b100 >"
b100 '
b100 G"
b100 \"
b100 3"
b100 f
b0 F"
b0 $
b0 J"
b0 C"
b0 #
b0 H"
b0 O"
b0 ?
b11100 t
b11100 ^
b10 U"
b0 r
b0 &
b0 E"
b0 q
b0 %
b0 B"
b0 ="
b100 ["
b100 b
b10000000000000000000000000000000000000000000000000000000000000100001000 X"
b10000000000000000000000000000000010000000000000000000000000000000000 D"
b10000000000000000000000000000000010000000000000000000000000000000000 A"
b1000 R
b1000 T"
b1000000001001000000000000000000000000000000011100 u
b10000000010010000 Z
b0 +
b0 n
b0 *
b0 N"
b0 ,
b0 o
b0 ;
b0 ?"
b0 4
b100000000000000000000000000000001010001000000000000000000000000000000000000000000000000000000000000000000000 P"
b10100 :
b10100 <
b10000110000000000000000000000000000001100000000000000000000000000000000000000000000000000000000000000000000000000000000000000000000000000000000000000000000000000000000000000000000000000 8"
b11000 L
b110 {
b11100 s
b1110000000000000000000000000000000000 ""
b11100 P
b10000000000000000000000000000000000000000000000000000000000000010001000 Z"
b100000000000000000001000000001001000000000000000000000000000000000010000000000000000000000000000000000001000 S"
b10000110000000000000000000000000000001010000000000000000000000000000000000000000000000000000000000000000000000000000000000000000000000000000000000000000000000000000000000000000000000000 ;"
b1100000000000000000000000000000000000 %"
b11000 y
b11000 _
b11000 z
1!
1(
#80
0!
0(
#85
b100000 v
b100000 ]
b100000 w
b100000 t
b100000 ^
b1000 \"
b1000 3"
b1000 f
b0 U"
b111 {
b100000 s
b10000000000000000000000000000000000000 ""
b100000 P
b10000110000000000000000000000000000001110000000000000000000000000000000000000000000000000000000000000000000000000000000000000000000000000000000000000000000000000000000000000000000000000 8"
b11100 L
b100000000000000000000000000000001100001000000000000000000000000000000000000000000000000000000000000000000000 P"
b11000 :
b11000 <
b0 \
b0 m
b10000000000000000000000000000000000000000000000000000000000000000000000 X"
b100000000000000000000000000000000000 D"
b100000000000000000000000000000000000 A"
b0 R
b0 T"
1S
b1010000000000000000000000000000100000 u
b10100 Z
b1000 ["
b1000 b
b11100 y
b11100 _
b11100 z
b1110000000000000000000000000000000000 %"
b10000110000000000000000000000000000001100000000000000000000000000000000000000000000000000000000000000000000000000000000000000000000000000000000000000000000000000000000000000000000000000 ;"
b100000000000000000000000000000001010001000000000000000000000000000000000000000000000000000000000000000000000 S"
b10000000000000000000000000000000000000000000000000000000000000100001000 Z"
1!
1(
#90
0!
0(
#95
b100100 v
b100100 ]
b100100 w
b0 \"
b0 D"
b0 A"
b0 3"
b0 f
b100000000010000000000000000001 !"
b100000000010000000000000000001 O
b100100 t
b100100 ^
b0 g
b0 p
b0 4"
b0 ["
b0 b
b1100000000000000000000000000000100100 u
b11000 Z
b100000000000000000000000000000001110001000000000000000000000000000000000000000000000000000000000000000000000 P"
b11100 :
b11100 <
b10000110000000000000000000000000000010000000000000000000000000000000000000000000000000000000000000000000000000000000000000000000000000000000000000000000000000000000000000000000000000000 8"
b100000 L
b0 {
b100100 s
b10010000100000000010000000000000000001 ""
b100100 P
b10000000000000000000000000000000000000000000000000000000000000000000000 Z"
b100000000000000000000000000000001100001000000000000000000000000000000000000000000000000000000000000000000000 S"
b10000110000000000000000000000000000001110000000000000000000000000000000000000000000000000000000000000000000000000000000000000000000000000000000000000000000000000000000000000000000000000 ;"
b10000000000000000000000000000000000000 %"
b100000 y
b100000 _
b100000 z
1!
1(
#100
0!
0(
#105
b101000 v
b101000 ]
b101000 w
1)"
1A
b0 ("
b0 @
0/"
0M
b1000 7"
b1000 C
b1000010000100000000100000 !"
b1000010000100000000100000 O
b101000 t
b101000 ^
b1 D
b1000000000000000000100 K
b1000 '"
b1 &"
b1000 2"
b1 {
b101000 s
b10100000000001000010000100000000100000 ""
b101000 P
b100000000010000000000000000001 E
b10000000100000000000000000000000000010010000000000000000000000000000000000000000000000000000000000000010000000000000000000000000000000000100000000001000000000000000000100010000000000000 8"
b100100 L
b100000000000000000000000000000010000001000000000000000000000000000000000000000000000000000000000000000000000 P"
b100000 :
b100000 <
b1110000000000000000000000000000101000 u
b11100 Z
b100100 y
b100100 _
b100100 z
b10010000100000000010000000000000000001 %"
b10000110000000000000000000000000000010000000000000000000000000000000000000000000000000000000000000000000000000000000000000000000000000000000000000000000000000000000000000000000000000000 ;"
b100000000000000000000000000000001110001000000000000000000000000000000000000000000000000000000000000000000000 S"
1!
1(
#110
0!
0(
#115
0M"
01
b1 K"
b1 /
b1 F"
b1 $
b1 J"
b101100 v
b101100 ]
b101100 w
0)"
0A
b10 ("
b10 @
1/"
1M
b1000 6"
b1000 B
b1 @"
b1 D"
b1 )
b10 >"
b10 '
b10 G"
b1000 O"
b1000 ?
b101100 t
b101100 ^
b1 ="
b100000000100000 D
b100001000010000000010000000 K
b0 '"
b100000 &"
b1000 1"
b10000000000000000000000000000000101100 u
b100000 Z
b1000 N"
b1000 ,
b1000 o
b1000000000000000000100 ;
b1 4
b100000000000000000000000000001000 ?"
b1000 3
b100000000000000000000000000000010100000000000000000000000000000000000010000000000000000000000000000100001000 P"
b101000 :
b100100 <
10
b0 -
b0 <"
0=
b1000010000100000000100000 E
b10000110000000000000000000000000000010100000000000000000000000000000001000000000000000000000000000000010000000000000000000010000000010000000000100001000010000000010000000010000100001000 8"
b101000 L
b10 {
b100000000000000000010000000000000000000000000000101100 s
b10110000000001000010000100000000100000 ""
b101100 P
b100000000000000000000000000000010000001000000000000000000000000000000000000000000000000000000000000000000000 S"
b10000000100000000000000000000000000010010000000000000000000000000000000000000000000000000000000000000010000000000000000000000000000000000100000000001000000000000000000100010000000000000 ;"
b10100000000001000010000100000000100000 %"
b101000 y
b101000 _
b101000 z
1!
1(
#120
0!
0(
#125
b110000 v
b110000 ]
b110000 w
b10 K"
b10 /
b110000 t
b110000 ^
b1000 @"
b1000 )
b1 C"
b1 #
b1 H"
b100000 ="
b10 r
b10 &
b10 E"
b10 q
b10 %
b10 B"
b11 {
b11000000000001000010000100000000100000 ""
b110000 P
b10000110000000000000000000000000000010110000000000000000000000000000001000000000000000000000000000000010000000000000000000010000000010000000000100001000010000000010000000010000100001000 8"
b101100 L
b1000 +
b1000 n
b100001000 N"
b1000 *
b10000100001000000001000000000000000000000000000000000110000 s
b100001000010000000010000000 ;
b10000000010000000000000000000000000000000001000 ?"
b100000000100000 4
b1000 2
b100000000000000000001000000001010100000000000000000000000000000000000100000000000000000000000000000100001000 P"
b10000000010101000 :
b101000 <
00
b10 -
b10 <"
1=
b1000 \
b1000 m
b1000 T
b1000 V"
b10000000000000000000000000000000000000000000000000000000000000000101000 X"
b10000000000000000000000000000000000000000000000000000000000001000 D"
b10000000000000000000000000000000000000000000000000000000000001000 A"
b1 R
b1 T"
0S
b10100000000000000000000000000000110000 u
b101000 Z
b101100 y
b101100 _
b101100 z
b10110000000001000010000100000000100000 %"
b10000110000000000000000000000000000010100000000000000000000000000000001000000000000000000000000000000010000000000000000000010000000010000000000100001000010000000010000000010000100001000 ;"
b100000000000000000000000000000010100000000000000000000000000000000000010000000000000000000000000000100001000 S"
1!
1(
#130
0!
0(
#135
b100 K"
b100 /
b110100 v
b110100 ]
b110100 w
b1 \"
b1 3"
b1 f
b10 F"
b10 $
b10 J"
b10 C"
b10 #
b10 H"
b0 !"
b0 O
b110100 t
b110100 ^
b10 r
b10 &
b10 E"
b10 q
b10 %
b10 B"
b1000 g
b1000 p
b1000 4"
b1 ["
b1 b
b10000000000000000000000000000000000000000000000000000000000000001001000 X"
b100000000000000000000000000000000100000000000000000000000000001000 D"
b100000000000000000000000000000000100000000000000000000000000001000 A"
b10 R
b10 T"
b1000000001010100000000000000000000000000000110100 u
b10000000010101000 Z
b100000000000000000001000000001010110000000000000000000000000000000001000000000000000000000000000000100001000 P"
b10000000010101100 :
b101100 <
b10000110000000000000000000000000000011000000000000000000000000000000001000000000000000000000000000000010000000000000000000010000000010000000000100001000010000000010000000010000100001000 8"
b110000 L
b100 {
b10000100001000000001000000000000000000000000000000000110100 s
b11010000000000000000000000000000000000 ""
b110100 P
b10000000000000000000000000000000000000000000000000000000000000000101000 Z"
b100000000000000000001000000001010100000000000000000000000000000000000100000000000000000000000000000100001000 S"
b10000110000000000000000000000000000010110000000000000000000000000000001000000000000000000000000000000010000000000000000000010000000010000000000100001000010000000010000000010000100001000 ;"
b11000000000001000010000100000000100000 %"
b110000 y
b110000 _
b110000 z
1!
1(
#140
0!
0(
#145
b111000 v
b111000 ]
b111000 w
b1000 K"
b1000 /
b111000 t
b111000 ^
b100 F"
b100 $
b100 J"
b100 C"
b100 #
b100 H"
b10 \"
b10 3"
b10 f
b0 7"
b0 C
b0 6"
b0 B
b0 D
b0 K
b0 &"
b0 1"
b0 2"
b1 U"
b101 {
b10000100001000000001000000000000000000000000000000000111000 s
b11100000000000000000000000000000000000 ""
b111000 P
b0 E
b10000110000000000000000000000000000011010000000000000000000000000000000000000000000000000000000000000000000000000000000000000000000000000000000000000000000000000000000000000000000000000 8"
b110100 L
b100000000000000000001000000001011000000000000000000000000000000000010000000000000000000000000000000100001000 P"
b10000000010110000 :
b110000 <
b10000000000000000000000000000000000000000000000000000000000000010001000 X"
b1000000000000000000000000000000001000000000000000000000000000001000 D"
b1000000000000000000000000000000001000000000000000000000000000001000 A"
b100 R
b100 T"
b1000000001010110000000000000000000000000000111000 u
b10000000010101100 Z
b10 ["
b10 b
b110100 y
b110100 _
b110100 z
b11010000000000000000000000000000000000 %"
b10000110000000000000000000000000000011000000000000000000000000000000001000000000000000000000000000000010000000000000000000010000000010000000000100001000010000000010000000010000100001000 ;"
b100000000000000000001000000001010110000000000000000000000000000000001000000000000000000000000000000100001000 S"
b10000000000000000000000000000000000000000000000000000000000000001001000 Z"
1!
1(
#150
0!
0(
#155
1M"
11
b0 K"
b0 /
b111100 v
b111100 ]
b111100 w
b100 >"
b100 '
b100 G"
b100 \"
b100 3"
b100 f
b0 F"
b0 $
b0 J"
b0 O"
b0 ?
b0 @"
b0 )
b0 C"
b0 #
b0 H"
b111100 t
b111100 ^
b10 U"
b0 r
b0 &
b0 E"
b0 q
b0 %
b0 B"
b0 ="
b100 ["
b100 b
b10000000000000000000000000000000000000000000000000000000000000100001000 X"
b10000000000000000000000000000000010000000000000000000000000000000000 D"
b1000 R
b1000 T"
b1000000001011000000000000000000000000000000111100 u
b10000000010110000 Z
b0 +
b0 n
b0 *
b0 N"
b0 ,
b0 o
b0 ;
b0 4
b0 ?"
b0 3
b10000000000000000000000000000000010000000000000000000000000000000000 A"
b0 2
b100000000000000000000000000000011010001000000000000000000000000000000000000000000000000000000000000000000000 P"
b110100 :
b110100 <
b10000110000000000000000000000000000011100000000000000000000000000000000000000000000000000000000000000000000000000000000000000000000000000000000000000000000000000000000000000000000000000 8"
b111000 L
b110 {
b111100 s
b11110000000000000000000000000000000000 ""
b111100 P
b10000000000000000000000000000000000000000000000000000000000000010001000 Z"
b100000000000000000001000000001011000000000000000000000000000000000010000000000000000000000000000000100001000 S"
b10000110000000000000000000000000000011010000000000000000000000000000000000000000000000000000000000000000000000000000000000000000000000000000000000000000000000000000000000000000000000000 ;"
b11100000000000000000000000000000000000 %"
b111000 y
b111000 _
b111000 z
1!
1(
#160
0!
0(
#165
b1000000 v
b1000000 ]
b1000000 w
b1000000 t
b1000000 ^
b1000 \"
b1000 3"
b1000 f
b0 U"
b111 {
b1000000 s
b100000000000000000000000000000000000000 ""
b1000000 P
b10000110000000000000000000000000000011110000000000000000000000000000000000000000000000000000000000000000000000000000000000000000000000000000000000000000000000000000000000000000000000000 8"
b111100 L
b100000000000000000000000000000011100001000000000000000000000000000000000000000000000000000000000000000000000 P"
b111000 :
b111000 <
b0 \
b0 m
b0 T
b0 V"
b10000000000000000000000000000000000000000000000000000000000000000000000 X"
b100000000000000000000000000000000000 D"
b100000000000000000000000000000000000 A"
b0 R
b0 T"
1S
b11010000000000000000000000000001000000 u
b110100 Z
b1000 ["
b1000 b
b111100 y
b111100 _
b111100 z
b11110000000000000000000000000000000000 %"
b10000110000000000000000000000000000011100000000000000000000000000000000000000000000000000000000000000000000000000000000000000000000000000000000000000000000000000000000000000000000000000 ;"
b100000000000000000000000000000011010001000000000000000000000000000000000000000000000000000000000000000000000 S"
b10000000000000000000000000000000000000000000000000000000000000100001000 Z"
1!
1(
#170
0!
0(
#175
b1000100 v
b1000100 ]
b1000100 w
b0 \"
b0 D"
b0 A"
b0 3"
b0 f
b100000000010000000000000000001 !"
b100000000010000000000000000001 O
b1000100 t
b1000100 ^
b0 g
b0 p
b0 4"
b0 ["
b0 b
b11100000000000000000000000000001000100 u
b111000 Z
b100000000000000000000000000000011110001000000000000000000000000000000000000000000000000000000000000000000000 P"
b111100 :
b111100 <
b10000110000000000000000000000000000100000000000000000000000000000000000000000000000000000000000000000000000000000000000000000000000000000000000000000000000000000000000000000000000000000 8"
b1000000 L
b0 {
b1000100 s
b100010000100000000010000000000000000001 ""
b1000100 P
b10000000000000000000000000000000000000000000000000000000000000000000000 Z"
b100000000000000000000000000000011100001000000000000000000000000000000000000000000000000000000000000000000000 S"
b10000110000000000000000000000000000011110000000000000000000000000000000000000000000000000000000000000000000000000000000000000000000000000000000000000000000000000000000000000000000000000 ;"
b100000000000000000000000000000000000000 %"
b1000000 y
b1000000 _
b1000000 z
1!
1(
#180
0!
0(
