traces/adds_hazards.vcd
$date
	Mon Nov 16 20:07:10 2015
$end
$version
	Icarus Verilog
$end
$timescale
	1s
$end
$scope module cpu_tb $end
$var reg 1 ! clk $end
$var reg 1 " reset $end
$scope module cpu $end
$var wire 32 # alu_s [31:0] $end
$var wire 32 $ alu_t [31:0] $end
$var wire 2 % aluctrl_s [1:0] $end
$var wire 2 & aluctrl_t [1:0] $end
$var wire 4 ' aluop [3:0] $end
$var wire 1 ( clk $end
$var wire 32 ) data_t [31:0] $end
$var wire 5 * dst_rd [4:0] $end
$var wire 5 + dst_rs [4:0] $end
$var wire 5 , dst_rt [4:0] $end
$var wire 1 - ex_aluop $end
$var wire 1 . ex_aluovf $end
$var wire 32 / ex_alures [31:0] $end
$var wire 1 0 ex_alusrc $end
$var wire 1 1 ex_aluz $end
$var wire 32 2 ex_data_rs [31:0] $end
$var wire 32 3 ex_data_rt [31:0] $end
$var wire 32 4 ex_imm [31:0] $end
$var wire 1 5 ex_isbranch $end
$var wire 1 6 ex_isjump $end
$var wire 1 7 ex_memread $end
$var wire 1 8 ex_memtoreg $end
$var wire 1 9 ex_memwrite $end
$var wire 6 : ex_opcode [5:0] $end
$var wire 32 ; ex_pc_branch [31:0] $end
$var wire 32 < ex_pc_jump [31:0] $end
$var wire 32 = ex_pc_next [31:0] $end
$var wire 1 > ex_regdst $end
$var wire 1 ? ex_regwrite $end
$var wire 5 @ ex_wreg [4:0] $end
$var wire 1 A id_aluop $end
$var wire 1 B id_alusrc $end
$var wire 32 C id_data_rs [31:0] $end
$var wire 32 D id_data_rt [31:0] $end
$var wire 32 E id_imm [31:0] $end
$var wire 32 F id_instr [31:0] $end
$var wire 1 G id_isbranch $end
$var wire 1 H id_isjump $end
$var wire 1 I id_memread $end
$var wire 1 J id_memtoreg $end
$var wire 1 K id_memwrite $end
$var wire 32 L id_pc_jump [31:0] $end
$var wire 32 M id_pc_next [31:0] $end
$var wire 1 N id_regdst $end
$var wire 1 O id_regwrite $end
$var wire 32 P if_instr [31:0] $end
$var wire 32 Q if_pc_next [31:0] $end
$var wire 1 R mem_aluovf $end
$var wire 32 S mem_alures [31:0] $end
$var wire 1 T mem_aluz $end
$var wire 32 U mem_data_rt [31:0] $end
$var wire 1 V mem_isbranch $end
$var wire 32 W mem_memout [31:0] $end
$var wire 1 X mem_memread $end
$var wire 1 Y mem_memtoreg $end
$var wire 1 Z mem_memwrite $end
$var wire 32 [ mem_pc_branch [31:0] $end
$var wire 1 \ mem_regwrite $end
$var wire 32 ] mem_wdata [31:0] $end
$var wire 5 ^ mem_wreg [4:0] $end
$var wire 32 _ pc_in [31:0] $end
$var wire 32 ` pc_interm [31:0] $end
$var wire 32 a pc_out [31:0] $end
$var wire 1 b pc_take_branch $end
$var wire 1 c reset $end
$var wire 1 d wb_regwrite $end
$var wire 32 e wb_wdata [31:0] $end
$var wire 5 f wb_wreg [4:0] $end
$var reg 1 g ex_mem_we $end
$var reg 1 h id_ex_we $end
$var reg 1 i if_id_we $end
$var reg 1 j mem_wb_we $end
$var reg 1 k pc_we $end
$scope module fwdcontrol $end
$var wire 5 l ex_dst [4:0] $end
$var wire 1 m ex_rw $end
$var wire 5 n mem_dst [4:0] $end
$var wire 1 \ mem_rw $end
$var wire 5 o rs [4:0] $end
$var wire 5 p rt [4:0] $end
$var wire 5 q wb_dst [4:0] $end
$var wire 1 d wb_rw $end
$var reg 2 r ctrl_s [1:0] $end
$var reg 2 s ctrl_t [1:0] $end
$upscope $end
$scope module pc_jmux $end
$var wire 64 t in_data [63:0] $end
$var wire 1 6 select $end
$var reg 32 u out_data [31:0] $end
$upscope $end
$scope module pc_bmux $end
$var wire 64 v in_data [63:0] $end
$var wire 1 b select $end
$var reg 32 w out_data [31:0] $end
$upscope $end
$scope module pc $end
$var wire 1 ( clk $end
$var wire 32 x in [31:0] $end
$var wire 1 c reset $end
$var wire 1 y we $end
$var reg 32 z out [31:0] $end
$upscope $end
$scope module imem $end
$var wire 32 { addr [31:0] $end
$var wire 1 ( clk $end
$var wire 5 | index [4:0] $end
$var wire 1 } memread $end
$var wire 1 ~ memwrite $end
$var wire 1 c reset $end
$var wire 32 !" wdata [31:0] $end
$var reg 32 "" rdata [31:0] $end
$upscope $end
$scope module if_id $end
$var wire 1 ( clk $end
$var wire 64 #" in [63:0] $end
$var wire 1 $" reset $end
$var wire 1 %" we $end
$var reg 64 &" out [63:0] $end
$upscope $end
$scope module control $end
$var wire 6 '" funct [5:0] $end
$var wire 6 (" opcode [5:0] $end
$var reg 1 )" aluop $end
$var reg 1 *" alusrc $end
$var reg 1 +" isbranch $end
$var reg 1 ," isjump $end
$var reg 1 -" memread $end
$var reg 1 ." memtoreg $end
$var reg 1 /" memwrite $end
$var reg 1 0" regdst $end
$var reg 1 1" regwrite $end
$upscope $end
$scope module regfile $end
$var wire 1 ( clk $end
$var wire 1 d regwrite $end
$var wire 1 c reset $end
$var wire 5 2" rreg1 [4:0] $end
$var wire 5 3" rreg2 [4:0] $end
$var wire 33 4" wdata [32:0] $end
$var wire 5 5" wreg [4:0] $end
$var integer 32 6" i [31:0] $end
$var reg 32 7" rdata1 [31:0] $end
$var reg 32 8" rdata2 [31:0] $end
$upscope $end
$scope module alu_s_mux $end
$var wire 96 9" in_data [95:0] $end
$var wire 2 :" select [1:0] $end
$var reg 32 ;" out_data [31:0] $end
$upscope $end
$scope module alu_t_mux $end
$var wire 96 <" in_data [95:0] $end
$var wire 2 =" select [1:0] $end
$var reg 32 >" out_data [31:0] $end
$upscope $end
$scope module id_ex $end
$var wire 1 ( clk $end
$var wire 190 ?" in [189:0] $end
$var wire 1 @" reset $end
$var wire 1 A" we $end
$var reg 190 B" out [189:0] $end
$upscope $end
$scope module alucontrol $end
$var wire 1 - aluop_in $end
$var wire 6 C" funct [5:0] $end
$var wire 6 D" opcode [5:0] $end
$var reg 4 E" aluop_out [3:0] $end
$upscope $end
$scope module t_mux $end
$var wire 64 F" in_data [63:0] $end
$var wire 1 0 select $end
$var reg 32 G" out_data [31:0] $end
$upscope $end
$scope module alu $end
$var wire 4 H" aluop [3:0] $end
$var wire 32 I" s [31:0] $end
$var wire 5 J" shamt [4:0] $end
$var wire 32 K" t [31:0] $end
$var reg 32 L" out [31:0] $end
$var reg 1 M" overflow $end
$var reg 64 N" tmp [63:0] $end
$var reg 1 O" zero $end
$upscope $end
$scope module dst_mux $end
$var wire 10 P" in_data [9:0] $end
$var wire 1 > select $end
$var reg 5 Q" out_data [4:0] $end
$upscope $end
$scope module ex_mem $end
$var wire 1 ( clk $end
$var wire 110 R" in [109:0] $end
$var wire 1 S" reset $end
$var wire 1 T" we $end
$var reg 110 U" out [109:0] $end
$upscope $end
$scope module dmem $end
$var wire 32 V" addr [31:0] $end
$var wire 1 ( clk $end
$var wire 5 W" index [4:0] $end
$var wire 1 X memread $end
$var wire 1 Z memwrite $end
$var wire 1 c reset $end
$var wire 32 X" wdata [31:0] $end
$var reg 32 Y" rdata [31:0] $end
$upscope $end
$scope module mem_mux $end
$var wire 64 Z" in_data [63:0] $end
$var wire 1 Y select $end
$var reg 32 [" out_data [31:0] $end
$upscope $end
$scope module mem_wb $end
$var wire 1 ( clk $end
$var wire 38 \" in [37:0] $end
$var wire 1 c reset $end
$var wire 1 ]" we $end
$var reg 38 ^" out [37:0] $end
$upscope $end
$upscope $end
$upscope $end
$enddefinitions $end
#0
$dumpvars
b0 ^"
1]"
b0 \"
b0 ["
b0 Z"
b0 Y"
b0 X"
b0 W"
b0 V"
b0 U"
1T"
1S"
b0 R"
b0 Q"
b0 P"
0O"
b0 N"
0M"
b0 L"
b0 K"
b0 J"
b0 I"
b0 H"
b0 G"
b0 F"
b0 E"
b0 D"
b0 C"
b0 B"
1A"
1@"
b1000000000000000000000000000000000000000000000000000000000000000000000000000000000000000000000000000000000000000000000000000000000000000000000000000000000000000000000000000000000000000000000 ?"
b0 >"
b0 ="
b0 <"
b0 ;"
b0 :"
b0 9"
b0 8"
b0 7"
bx 6"
b0 5"
b0 4"
b0 3"
b0 2"
11"
00"
0/"
0."
0-"
0,"
0+"
0*"
0)"
b0 ("
b0 '"
b0 &"
1%"
1$"
b100xxxxxxxxxxxxxxxxxxxxxxxxxxxxxxxx #"
bx ""
b0 !"
0~
1}
b0 |
b0 {
b0 z
1y
b100 x
b100 w
b100 v
b100 u
b100 t
b0 s
b0 r
b0 q
b0 p
b0 o
b0 n
0m
b0 l
1k
1j
1i
1h
1g
b0 f
b0 e
0d
1c
0b
b0 a
b100 `
b100 _
b0 ^
b0 ]
0\
b0 [
0Z
0Y
0X
b0 W
0V
b0 U
0T
b0 S
0R
b100 Q
bx P
1O
0N
b0 M
b0 L
0K
0J
0I
0H
0G
b0 F
b0 E
b0 D
b0 C
0B
0A
b0 @
0?
0>
b0 =
b0 <
b0 ;
b0 :
09
08
07
06
05
b0 4
b0 3
b0 2
01
00
b0 /
0.
0-
b0 ,
b0 +
b0 *
b0 )
0(
b0 '
b0 &
b0 %
b0 $
b0 #
1"
0!
$end
#5
b100000 6"
1!
1(
#10
0!
0(
#15
b100000000010000000000000000001 ""
b10000100000000010000000000000000001 #"
b100000000010000000000000000001 P
0$"
0@"
0S"
0"
0c
b100000 6"
1!
1(
#20
0!
0(
#25
b1000 w
b1000 _
b1000 x
1*"
1B
10"
1N
b1000010000100000000100000 ""
b1000010000100000000100000 P
b1000 u
b1000 v
b1000 `
b1 E
b1000000000000000000100 L
b1000 ("
b1 '"
b1000 3"
b1000 p
1m
b1 |
b1000 t
b100000000001000010000100000000100000 #"
b1000 Q
b100000000010000000000000000001 F
b1000010100000000000000000000000000000010000000000000000000000000000000000000000000000000000000000000000000000000000000000000000000000000100100000000000001000000000000000000100010000000000000 ?"
b100 M
b100000000000000000000000000000000000000000000000000000000000000000000000000000000000000000000000000000000000 R"
1?
b100 z
b100 a
b100 {
b10000100000000010000000000000000001 &"
b1000000000000000000000000000000000000000000000000000000000000000000000000000000000000000000000000000000000000000000000000000000000000000000000000000000000000000000000000000000000000000000000 B"
1!
1(
#30
0!
0(
#35
b100000000000000000000000000000000 <"
b100000000000000000000000000000000 9"
b1 L"
b1 /
b1100 w
b1100 _
b1100 x
0*"
0B
00"
0N
b10 E"
b10 '
b10 H"
b1 G"
b1 )
b1 K"
b1100 u
b1100 v
b1100 `
b10000000000000000000000000000000000000 \"
1\
b1 C"
b100000000100000 E
b100001000010000000010000000 L
b0 ("
b100000 '"
b1000 2"
b1000 o
b1000 P"
b1000 ,
b1000000000000000000100 <
b1000 :
b1000 D"
b100000000000000000000000000000000 F"
b1 4
b100000000000000000000000000000000100000000000000000000000000000000000010000000000000000000000000000000000000 R"
b1000 ;
b100 =
10
1>
b1000010000100000000100000 F
b1000000000000000000000000000000000000100000000000000000000000000000000000000000000000000000000000000000000000000000000000010000000010000000000000000100001000010000000010000000010000100001000 ?"
b1000 M
b10 |
b100000000000000000010000000000000000000000000000001100 t
b110000000001000010000100000000100000 #"
b1100 Q
b100000000000000000000000000000000000000000000000000000000000000000000000000000000000000000000000000000000000 U"
b1000010100000000000000000000000000000010000000000000000000000000000000000000000000000000000000000000000000000000000000000000000000000000100100000000000001000000000000000000100010000000000000 B"
b100000000001000010000100000000100000 &"
b1000 z
b1000 a
b1000 {
1!
1(
#40
0!
0(
#45
b0 >"
b0 $
b0 ;"
b0 #
b10000 w
b10000 _
b10000 x
b0 L"
b0 /
b10000000000000000000000000000000000000000000000000000000000000000 <"
b10000000000000000000000000000000000000000000000000000000000000000 9"
b1 s
b1 &
b1 ="
b1 r
b1 %
b1 :"
b1 ["
b10000000000000000000000000000000100000 \"
b1 ]
b10000 u
b10000 `
b0 G"
b0 )
b0 K"
b1000 Q"
b1000 @
b1000 l
b100000 C"
b1 Z"
b1 S
b1 V"
b100000000000000000000000000000010000 v
b1000 [
b11 |
b1000000000001000010000100000000100000 #"
b10000 Q
b1000000000000000000000000000000000000110000000000000000000000000000000000000000000000000000000000000000000000000000000000010000000010000000000000000100001000010000000010000000010000100001000 ?"
b1100 M
b1000 +
b100001000 P"
b1000 *
b10000100001000000001000000000000000000000000000000000010000 t
b100001000010000000010000000 <
b0 :
b0 D"
b10000000010000000000000000000000000000000000000 F"
b100000000100000 4
b100000000000000000001000000001000100000000000000000000000000000000000000000000000000000000000000000000001000 R"
b10000000010001000 ;
b1000 =
00
0>
1d
b1100 z
b1100 a
b1100 {
b110000000001000010000100000000100000 &"
b1000000000000000000000000000000000000100000000000000000000000000000000000000000000000000000000000000000000000000000000000010000000010000000000000000100001000010000000010000000010000100001000 B"
b100000000000000000000000000000000100000000000000000000000000000000000010000000000000000000000000000000000000 U"
b10000000000000000000000000000000000000 ^"
1!
1(
#50
0!
0(
#55
b10100 w
b10100 _
b10100 x
b0 <"
b0 9"
b0 ["
b0 ]
b0 ""
b0 P
b10100 u
b10100 `
b1 s
b1 &
b1 ="
b1 r
b1 %
b1 :"
b10000000000000000000000000000000001000 \"
b1000 ^
b1000 n
b0 Z"
b0 S
b0 V"
b1000000001000100000000000000000000000000000010100 v
b10000000010001000 [
b1 4"
b1 e
b100000000000000000001000000001000110000000000000000000000000000000000000000000000000000000000000000000001000 R"
b10000000010001100 ;
b1100 =
b1000000000000000000000000000000000001000000000000000000000000000000000000000000000000000000000000000000000000000000000000010000000010000000000000000100001000010000000010000000010000100001000 ?"
b10000 M
b100 |
b10000100001000000001000000000000000000000000000000000010100 t
b1010000000000000000000000000000000000 #"
b10100 Q
b10000000000000000000000000000000100000 ^"
b100000000000000000001000000001000100000000000000000000000000000000000000000000000000000000000000000000001000 U"
b1000000000000000000000000000000000000110000000000000000000000000000000000000000000000000000000000000000000000000000000000010000000010000000000000000100001000010000000010000000010000100001000 B"
b1000000000001000010000100000000100000 &"
b10000 z
b10000 a
b10000 {
1!
1(
#60
0!
0(
#65
b11000 w
b11000 _
b11000 x
b11000 u
b11000 `
b0 E
b0 L
b0 '"
b0 2"
b0 3"
b0 p
b0 o
b1000000001000110000000000000000000000000000011000 v
b10000000010001100 [
b0 s
b0 &
b0 ="
b0 r
b0 %
b0 :"
b101 |
b10000100001000000001000000000000000000000000000000000011000 t
b1100000000000000000000000000000000000 #"
b11000 Q
b0 F
b1000000000000000000000000000000000001010000000000000000000000000000000000000000000000000000000000000000000000000000000000000000000000000000000000000000000000000000000000000000000000000000000 ?"
b10100 M
b100000000000000000001000000001001000000000000000000000000000000000000000000000000000000000000000000000001000 R"
b10000000010010000 ;
b10000 =
b1000 f
b1000 q
b1000 5"
b0 4"
b0 e
b10100 z
b10100 a
b10100 {
b1010000000000000000000000000000000000 &"
b1000000000000000000000000000000000001000000000000000000000000000000000000000000000000000000000000000000000000000000000000010000000010000000000000000100001000010000000010000000010000100001000 B"
b100000000000000000001000000001000110000000000000000000000000000000000000000000000000000000000000000000001000 U"
b10000000000000000000000000000000001000 ^"
1!
1(
#70
0!
0(
#75
b11100 w
b11100 _
b11100 x
b0 Q"
b0 @
b0 l
b11100 u
b11100 `
b1000000001001000000000000000000000000000000011100 v
b10000000010010000 [
b0 C"
b0 +
b0 *
b0 P"
b0 ,
b0 <
b0 F"
b0 4
b100000000000000000000000000000001010000000000000000000000000000000000000000000000000000000000000000000000000 R"
b10100 ;
b10100 =
b1000000000000000000000000000000000001100000000000000000000000000000000000000000000000000000000000000000000000000000000000000000000000000000000000000000000000000000000000000000000000000000000 ?"
b11000 M
b110 |
b11100 t
b1110000000000000000000000000000000000 #"
b11100 Q
b100000000000000000001000000001001000000000000000000000000000000000000000000000000000000000000000000000001000 U"
b1000000000000000000000000000000000001010000000000000000000000000000000000000000000000000000000000000000000000000000000000000000000000000000000000000000000000000000000000000000000000000000000 B"
b1100000000000000000000000000000000000 &"
b11000 z
b11000 a
b11000 {
1!
1(
#80
0!
0(
#85
b100000 w
b100000 _
b100000 x
b100000 u
b100000 `
b10000000000000000000000000000000000000 \"
b0 ^
b0 n
b1010000000000000000000000000000100000 v
b10100 [
b111 |
b100000 t
b10000000000000000000000000000000000000 #"
b100000 Q
b1000000000000000000000000000000000001110000000000000000000000000000000000000000000000000000000000000000000000000000000000000000000000000000000000000000000000000000000000000000000000000000000 ?"
b11100 M
b100000000000000000000000000000001100000000000000000000000000000000000000000000000000000000000000000000000000 R"
b11000 ;
b11000 =
b11100 z
b11100 a
b11100 {
b1110000000000000000000000000000000000 &"
b1000000000000000000000000000000000001100000000000000000000000000000000000000000000000000000000000000000000000000000000000000000000000000000000000000000000000000000000000000000000000000000000 B"
b100000000000000000000000000000001010000000000000000000000000000000000000000000000000000000000000000000000000 U"
1!
1(
#90
0!
0(
#95
b100100 w
b100100 _
b100100 x
b100100 u
b100100 `
b1100000000000000000000000000000100100 v
b11000 [
b0 f
b0 q
b0 5"
b100000000000000000000000000000001110000000000000000000000000000000000000000000000000000000000000000000000000 R"
b11100 ;
b11100 =
b1000000000000000000000000000000000010000000000000000000000000000000000000000000000000000000000000000000000000000000000000000000000000000000000000000000000000000000000000000000000000000000000 ?"
b100000 M
b1000 |
b100100 t
b10010000000000000000000000000000000000 #"
b100100 Q
b10000000000000000000000000000000000000 ^"
b100000000000000000000000000000001100000000000000000000000000000000000000000000000000000000000000000000000000 U"
b1000000000000000000000000000000000001110000000000000000000000000000000000000000000000000000000000000000000000000000000000000000000000000000000000000000000000000000000000000000000000000000000 B"
b10000000000000000000000000000000000000 &"
b100000 z
b100000 a
b100000 {
1!
1(
#100
0!
0(
#105
b101000 w
b101000 _
b101000 x
b101000 u
b101000 `
b1110000000000000000000000000000101000 v
b11100 [
b1001 |
b101000 t
b10100000000000000000000000000000000000 #"
b101000 Q
b1000000000000000000000000000000000010010000000000000000000000000000000000000000000000000000000000000000000000000000000000000000000000000000000000000000000000000000000000000000000000000000000 ?"
b100100 M
b100000000000000000000000000000010000000000000000000000000000000000000000000000000000000000000000000000000000 R"
b100000 ;
b100000 =
b100100 z
b100100 a
b100100 {
b10010000000000000000000000000000000000 &"
b1000000000000000000000000000000000010000000000000000000000000000000000000000000000000000000000000000000000000000000000000000000000000000000000000000000000000000000000000000000000000000000000 B"
b100000000000000000000000000000001110000000000000000000000000000000000000000000000000000000000000000000000000 U"
1!
1(
#110
0!
0(
#115
b101100 w
b101100 _
b101100 x
b101100 u
b101100 `
b10000000000000000000000000000000101100 v
b100000 [
b100000000000000000000000000000010010000000000000000000000000000000000000000000000000000000000000000000000000 R"
b100100 ;
b100100 =
b1000000000000000000000000000000000010100000000000000000000000000000000000000000000000000000000000000000000000000000000000000000000000000000000000000000000000000000000000000000000000000000000 ?"
b101000 M
b1010 |
b101100 t
b10110000000000000000000000000000000000 #"
b101100 Q
b100000000000000000000000000000010000000000000000000000000000000000000000000000000000000000000000000000000000 U"
b1000000000000000000000000000000000010010000000000000000000000000000000000000000000000000000000000000000000000000000000000000000000000000000000000000000000000000000000000000000000000000000000 B"
b10100000000000000000000000000000000000 &"
b101000 z
b101000 a
b101000 {
1!
1(
#120
0!
0(
#125
b110000 w
b110000 _
b110000 x
b110000 u
b110000 `
b10010000000000000000000000000000110000 v
b100100 [
b1011 |
b110000 t
b11000000000000000000000000000000000000 #"
b110000 Q
b1000000000000000000000000000000000010110000000000000000000000000000000000000000000000000000000000000000000000000000000000000000000000000000000000000000000000000000000000000000000000000000000 ?"
b101100 M
b100000000000000000000000000000010100000000000000000000000000000000000000000000000000000000000000000000000000 R"
b101000 ;
b101000 =
b101100 z
b101100 a
b101100 {
b10110000000000000000000000000000000000 &"
b1000000000000000000000000000000000010100000000000000000000000000000000000000000000000000000000000000000000000000000000000000000000000000000000000000000000000000000000000000000000000000000000 B"
b100000000000000000000000000000010010000000000000000000000000000000000000000000000000000000000000000000000000 U"
1!
1(
#130
0!
0(
#135
b110100 w
b110100 _
b110100 x
b110100 u
b110100 `
b10100000000000000000000000000000110100 v
b101000 [
b100000000000000000000000000000010110000000000000000000000000000000000000000000000000000000000000000000000000 R"
b101100 ;
b101100 =
b1000000000000000000000000000000000011000000000000000000000000000000000000000000000000000000000000000000000000000000000000000000000000000000000000000000000000000000000000000000000000000000000 ?"
b110000 M
b1100 |
b110100 t
b11010000000000000000000000000000000000 #"
b110100 Q
b100000000000000000000000000000010100000000000000000000000000000000000000000000000000000000000000000000000000 U"
b1000000000000000000000000000000000010110000000000000000000000000000000000000000000000000000000000000000000000000000000000000000000000000000000000000000000000000000000000000000000000000000000 B"
b11000000000000000000000000000000000000 &"
b110000 z
b110000 a
b110000 {
1!
1(
#140
0!
0(
#145
b111000 w
b111000 _
b111000 x
b111000 u
b111000 `
b10110000000000000000000000000000111000 v
b101100 [
b1101 |
b111000 t
b11100000000000000000000000000000000000 #"
b111000 Q
b1000000000000000000000000000000000011010000000000000000000000000000000000000000000000000000000000000000000000000000000000000000000000000000000000000000000000000000000000000000000000000000000 ?"
b110100 M
b100000000000000000000000000000011000000000000000000000000000000000000000000000000000000000000000000000000000 R"
b110000 ;
b110000 =
b110100 z
b110100 a
b110100 {
b11010000000000000000000000000000000000 &"
b1000000000000000000000000000000000011000000000000000000000000000000000000000000000000000000000000000000000000000000000000000000000000000000000000000000000000000000000000000000000000000000000 B"
b100000000000000000000000000000010110000000000000000000000000000000000000000000000000000000000000000000000000 U"
1!
1(
#150
0!
0(
#155
b111100 w
b111100 _
b111100 x
b111100 u
b111100 `
b11000000000000000000000000000000111100 v
b110000 [
b100000000000000000000000000000011010000000000000000000000000000000000000000000000000000000000000000000000000 R"
b110100 ;
b110100 =
b1000000000000000000000000000000000011100000000000000000000000000000000000000000000000000000000000000000000000000000000000000000000000000000000000000000000000000000000000000000000000000000000 ?"
b111000 M
b1110 |
b111100 t
b11110000000000000000000000000000000000 #"
b111100 Q
b100000000000000000000000000000011000000000000000000000000000000000000000000000000000000000000000000000000000 U"
b1000000000000000000000000000000000011010000000000000000000000000000000000000000000000000000000000000000000000000000000000000000000000000000000000000000000000000000000000000000000000000000000 B"
b11100000000000000000000000000000000000 &"
b111000 z
b111000 a
b111000 {
1!
1(
#160
0!
0(
#165
b1000000 w
b1000000 _
b1000000 x
b1000000 u
b1000000 `
b11010000000000000000000000000001000000 v
b110100 [
b1111 |
b1000000 t
b100000000000000000000000000000000000000 #"
b1000000 Q
b1000000000000000000000000000000000011110000000000000000000000000000000000000000000000000000000000000000000000000000000000000000000000000000000000000000000000000000000000000000000000000000000 ?"
b111100 M
b100000000000000000000000000000011100000000000000000000000000000000000000000000000000000000000000000000000000 R"
b111000 ;
b111000 =
b111100 z
b111100 a
b111100 {
b11110000000000000000000000000000000000 &"
b1000000000000000000000000000000000011100000000000000000000000000000000000000000000000000000000000000000000000000000000000000000000000000000000000000000000000000000000000000000000000000000000 B"
b100000000000000000000000000000011010000000000000000000000000000000000000000000000000000000000000000000000000 U"
1!
1(
#170
0!
0(
#175
b1000100 w
b1000100 _
b1000100 x
b1000100 u
b1000100 `
b11100000000000000000000000000001000100 v
b111000 [
b100000000000000000000000000000011110000000000000000000000000000000000000000000000000000000000000000000000000 R"
b111100 ;
b111100 =
b1000000000000000000000000000000000100000000000000000000000000000000000000000000000000000000000000000000000000000000000000000000000000000000000000000000000000000000000000000000000000000000000 ?"
b1000000 M
b10000 |
b1000100 t
b100010000000000000000000000000000000000 #"
b1000100 Q
b100000000000000000000000000000011100000000000000000000000000000000000000000000000000000000000000000000000000 U"
b1000000000000000000000000000000000011110000000000000000000000000000000000000000000000000000000000000000000000000000000000000000000000000000000000000000000000000000000000000000000000000000000 B"
b100000000000000000000000000000000000000 &"
b1000000 z
b1000000 a
b1000000 {
1!
1(
#180
0!
0(
#185
b1001000 w
b1001000 _
b1001000 x
b1001000 u
b1001000 `
b11110000000000000000000000000001001000 v
b111100 [
b10001 |
b1001000 t
b100100000000000000000000000000000000000 #"
b1001000 Q
b1000000000000000000000000000000000100010000000000000000000000000000000000000000000000000000000000000000000000000000000000000000000000000000000000000000000000000000000000000000000000000000000 ?"
b1000100 M
b100000000000000000000000000000100000000000000000000000000000000000000000000000000000000000000000000000000000 R"
b1000000 ;
b1000000 =
b1000100 z
b1000100 a
b1000100 {
b100010000000000000000000000000000000000 &"
b1000000000000000000000000000000000100000000000000000000000000000000000000000000000000000000000000000000000000000000000000000000000000000000000000000000000000000000000000000000000000000000000 B"
b100000000000000000000000000000011110000000000000000000000000000000000000000000000000000000000000000000000000 U"
1!
1(
#190
0!
0(
#195
b1001100 w
b1001100 _
b1001100 x
b1001100 u
b1001100 `
b100000000000000000000000000000001001100 v
b1000000 [
b100000000000000000000000000000100010000000000000000000000000000000000000000000000000000000000000000000000000 R"
b1000100 ;
b1000100 =
b1000000000000000000000000000000000100100000000000000000000000000000000000000000000000000000000000000000000000000000000000000000000000000000000000000000000000000000000000000000000000000000000 ?"
b1001000 M
b10010 |
b1001100 t
b100110000000000000000000000000000000000 #"
b1001100 Q
b100000000000000000000000000000100000000000000000000000000000000000000000000000000000000000000000000000000000 U"
b1000000000000000000000000000000000100010000000000000000000000000000000000000000000000000000000000000000000000000000000000000000000000000000000000000000000000000000000000000000000000000000000 B"
b100100000000000000000000000000000000000 &"
b1001000 z
b1001000 a
b1001000 {
1!
1(
#200
0!
0(
#205
b1010000 w
b1010000 _
b1010000 x
b1010000 u
b1010000 `
b100010000000000000000000000000001010000 v
b1000100 [
b10011 |
b1010000 t
b101000000000000000000000000000000000000 #"
b1010000 Q
b1000000000000000000000000000000000100110000000000000000000000000000000000000000000000000000000000000000000000000000000000000000000000000000000000000000000000000000000000000000000000000000000 ?"
b1001100 M
b100000000000000000000000000000100100000000000000000000000000000000000000000000000000000000000000000000000000 R"
b1001000 ;
b1001000 =
b1001100 z
b1001100 a
b1001100 {
b100110000000000000000000000000000000000 &"
b1000000000000000000000000000000000100100000000000000000000000000000000000000000000000000000000000000000000000000000000000000000000000000000000000000000000000000000000000000000000000000000000 B"
b100000000000000000000000000000100010000000000000000000000000000000000000000000000000000000000000000000000000 U"
1!
1(
#210
0!
0(
#215
b1010100 w
b1010100 _
b1010100 x
b1010100 u
b1010100 `
b100100000000000000000000000000001010100 v
b1001000 [
b100000000000000000000000000000100110000000000000000000000000000000000000000000000000000000000000000000000000 R"
b1001100 ;
b1001100 =
b1000000000000000000000000000000000101000000000000000000000000000000000000000000000000000000000000000000000000000000000000000000000000000000000000000000000000000000000000000000000000000000000 ?"
b1010000 M
b10100 |
b1010100 t
b101010000000000000000000000000000000000 #"
b1010100 Q
b100000000000000000000000000000100100000000000000000000000000000000000000000000000000000000000000000000000000 U"
b1000000000000000000000000000000000100110000000000000000000000000000000000000000000000000000000000000000000000000000000000000000000000000000000000000000000000000000000000000000000000000000000 B"
b101000000000000000000000000000000000000 &"
b1010000 z
b1010000 a
b1010000 {
1!
1(
#220
0!
0(
#225
b1011000 w
b1011000 _
b1011000 x
b1011000 u
b1011000 `
b100110000000000000000000000000001011000 v
b1001100 [
b10101 |
b1011000 t
b101100000000000000000000000000000000000 #"
b1011000 Q
b1000000000000000000000000000000000101010000000000000000000000000000000000000000000000000000000000000000000000000000000000000000000000000000000000000000000000000000000000000000000000000000000 ?"
b1010100 M
b100000000000000000000000000000101000000000000000000000000000000000000000000000000000000000000000000000000000 R"
b1010000 ;
b1010000 =
b1010100 z
b1010100 a
b1010100 {
b101010000000000000000000000000000000000 &"
b1000000000000000000000000000000000101000000000000000000000000000000000000000000000000000000000000000000000000000000000000000000000000000000000000000000000000000000000000000000000000000000000 B"
b100000000000000000000000000000100110000000000000000000000000000000000000000000000000000000000000000000000000 U"
1!
1(
#230
0!
0(
#235
b1011100 w
b1011100 _
b1011100 x
b1011100 u
b1011100 `
b101000000000000000000000000000001011100 v
b1010000 [
b100000000000000000000000000000101010000000000000000000000000000000000000000000000000000000000000000000000000 R"
b1010100 ;
b1010100 =
b1000000000000000000000000000000000101100000000000000000000000000000000000000000000000000000000000000000000000000000000000000000000000000000000000000000000000000000000000000000000000000000000 ?"
b1011000 M
b10110 |
b1011100 t
b101110000000000000000000000000000000000 #"
b1011100 Q
b100000000000000000000000000000101000000000000000000000000000000000000000000000000000000000000000000000000000 U"
b1000000000000000000000000000000000101010000000000000000000000000000000000000000000000000000000000000000000000000000000000000000000000000000000000000000000000000000000000000000000000000000000 B"
b101100000000000000000000000000000000000 &"
b1011000 z
b1011000 a
b1011000 {
1!
1(
#240
0!
0(
#245
b1100000 w
b1100000 _
b1100000 x
b1100000 u
b1100000 `
b101010000000000000000000000000001100000 v
b1010100 [
b10111 |
b1100000 t
b110000000000000000000000000000000000000 #"
b1100000 Q
b1000000000000000000000000000000000101110000000000000000000000000000000000000000000000000000000000000000000000000000000000000000000000000000000000000000000000000000000000000000000000000000000 ?"
b1011100 M
b100000000000000000000000000000101100000000000000000000000000000000000000000000000000000000000000000000000000 R"
b1011000 ;
b1011000 =
b1011100 z
b1011100 a
b1011100 {
b101110000000000000000000000000000000000 &"
b1000000000000000000000000000000000101100000000000000000000000000000000000000000000000000000000000000000000000000000000000000000000000000000000000000000000000000000000000000000000000000000000 B"
b100000000000000000000000000000101010000000000000000000000000000000000000000000000000000000000000000000000000 U"
1!
1(
#250
0!
0(
