traces/adds.vcd
$date
	Mon Nov 16 17:42:08 2015
$end
$version
	Icarus Verilog
$end
$timescale
	1s
$end
$scope module cpu_tb $end
$var reg 1 ! clk $end
$var reg 1 " reset $end
$scope module cpu $end
$var wire 1 # alu_s $end
$var wire 1 $ alu_t $end
$var wire 2 % aluctrl_s [1:0] $end
$var wire 2 & aluctrl_t [1:0] $end
$var wire 4 ' aluop [3:0] $end
$var wire 1 ( clk $end
$var wire 32 ) data_t [31:0] $end
$var wire 5 * dst_rd [4:0] $end
$var wire 5 + dst_rs [4:0] $end
$var wire 5 , dst_rt [4:0] $end
$var wire 1 - ex_aluop $end
$var wire 1 . ex_aluovf $end
$var wire 32 / ex_alures [31:0] $end
$var wire 1 0 ex_alusrc $end
$var wire 1 1 ex_aluz $end
$var wire 32 2 ex_data_rs [31:0] $end
$var wire 32 3 ex_data_rt [31:0] $end
$var wire 32 4 ex_imm [31:0] $end
$var wire 1 5 ex_isbranch $end
$var wire 1 6 ex_isjump $end
$var wire 1 7 ex_memread $end
$var wire 1 8 ex_memtoreg $end
$var wire 1 9 ex_memwrite $end
$var wire 6 : ex_opcode [5:0] $end
$var wire 32 ; ex_pc_branch [31:0] $end
$var wire 32 < ex_pc_jump [31:0] $end
$var wire 32 = ex_pc_next [31:0] $end
$var wire 1 > ex_regdst $end
$var wire 1 ? ex_regwrite $end
$var wire 5 @ ex_wreg [4:0] $end
$var wire 1 A id_aluop $end
$var wire 1 B id_alusrc $end
$var wire 32 C id_data_rs [31:0] $end
$var wire 32 D id_data_rt [31:0] $end
$var wire 32 E id_imm [31:0] $end
$var wire 32 F id_instr [31:0] $end
$var wire 1 G id_isbranch $end
$var wire 1 H id_isjump $end
$var wire 1 I id_memread $end
$var wire 1 J id_memtoreg $end
$var wire 1 K id_memwrite $end
$var wire 32 L id_pc_jump [31:0] $end
$var wire 32 M id_pc_next [31:0] $end
$var wire 1 N id_regdst $end
$var wire 1 O id_regwrite $end
$var wire 32 P if_instr [31:0] $end
$var wire 32 Q if_pc_next [31:0] $end
$var wire 1 R mem_aluovf $end
$var wire 32 S mem_alures [31:0] $end
$var wire 1 T mem_aluz $end
$var wire 32 U mem_data_rt [31:0] $end
$var wire 1 V mem_isbranch $end
$var wire 32 W mem_memout [31:0] $end
$var wire 1 X mem_memread $end
$var wire 1 Y mem_memtoreg $end
$var wire 1 Z mem_memwrite $end
$var wire 32 [ mem_pc_branch [31:0] $end
$var wire 1 \ mem_regwrite $end
$var wire 32 ] mem_wdata [31:0] $end
$var wire 5 ^ mem_wreg [4:0] $end
$var wire 32 _ pc_in [31:0] $end
$var wire 32 ` pc_interm [31:0] $end
$var wire 32 a pc_out [31:0] $end
$var wire 1 b pc_take_branch $end
$var wire 1 c reset $end
$var wire 1 d wb_regwrite $end
$var wire 32 e wb_wdata [31:0] $end
$var wire 5 f wb_wreg [4:0] $end
$var reg 1 g ex_mem_we $end
$var reg 1 h id_ex_we $end
$var reg 1 i if_id_we $end
$var reg 1 j mem_wb_we $end
$var reg 1 k pc_we $end
$scope module fwdcontrol $end
$var wire 5 l ex_dst [4:0] $end
$var wire 1 m ex_rw $end
$var wire 5 n mem_dst [4:0] $end
$var wire 1 \ mem_rw $end
$var wire 5 o rs [4:0] $end
$var wire 5 p rt [4:0] $end
$var wire 5 q wb_dst [4:0] $end
$var wire 1 d wb_rw $end
$var reg 2 r ctrl_s [1:0] $end
$var reg 2 s ctrl_t [1:0] $end
$upscope $end
$scope module pc_jmux $end
$var wire 64 t in_data [63:0] $end
$var wire 1 6 select $end
$var reg 32 u out_data [31:0] $end
$upscope $end
$scope module pc_bmux $end
$var wire 64 v in_data [63:0] $end
$var wire 1 b select $end
$var reg 32 w out_data [31:0] $end
$upscope $end
$scope module pc $end
$var wire 1 ( clk $end
$var wire 32 x in [31:0] $end
$var wire 1 c reset $end
$var wire 1 y we $end
$var reg 32 z out [31:0] $end
$upscope $end
$scope module imem $end
$var wire 32 { addr [31:0] $end
$var wire 1 ( clk $end
$var wire 5 | index [4:0] $end
$var wire 1 } memread $end
$var wire 1 ~ memwrite $end
$var wire 1 c reset $end
$var wire 32 !" wdata [31:0] $end
$var reg 32 "" rdata [31:0] $end
$upscope $end
$scope module if_id $end
$var wire 1 ( clk $end
$var wire 64 #" in [63:0] $end
$var wire 1 $" reset $end
$var wire 1 %" we $end
$var reg 64 &" out [63:0] $end
$upscope $end
$scope module control $end
$var wire 6 '" funct [5:0] $end
$var wire 6 (" opcode [5:0] $end
$var reg 1 )" aluop $end
$var reg 1 *" alusrc $end
$var reg 1 +" isbranch $end
$var reg 1 ," isjump $end
$var reg 1 -" memread $end
$var reg 1 ." memtoreg $end
$var reg 1 /" memwrite $end
$var reg 1 0" regdst $end
$var reg 1 1" regwrite $end
$upscope $end
$scope module regfile $end
$var wire 1 ( clk $end
$var wire 1024 2" dbg_mem [1023:0] $end
$var wire 1 d regwrite $end
$var wire 1 c reset $end
$var wire 5 3" rreg1 [4:0] $end
$var wire 5 4" rreg2 [4:0] $end
$var wire 33 5" wdata [32:0] $end
$var wire 5 6" wreg [4:0] $end
$var integer 32 7" i [31:0] $end
$var reg 32 8" rdata1 [31:0] $end
$var reg 32 9" rdata2 [31:0] $end
$scope begin genblk1 $end
$upscope $end
$scope begin genblk01 $end
$upscope $end
$scope begin genblk001 $end
$upscope $end
$scope begin genblk0001 $end
$upscope $end
$scope begin genblk00001 $end
$upscope $end
$scope begin genblk000001 $end
$upscope $end
$scope begin genblk0000001 $end
$upscope $end
$scope begin genblk00000001 $end
$upscope $end
$scope begin genblk000000001 $end
$upscope $end
$scope begin genblk0000000001 $end
$upscope $end
$scope begin genblk00000000001 $end
$upscope $end
$scope begin genblk000000000001 $end
$upscope $end
$scope begin genblk0000000000001 $end
$upscope $end
$scope begin genblk00000000000001 $end
$upscope $end
$scope begin genblk000000000000001 $end
$upscope $end
$scope begin genblk0000000000000001 $end
$upscope $end
$scope begin genblk00000000000000001 $end
$upscope $end
$scope begin genblk000000000000000001 $end
$upscope $end
$scope begin genblk0000000000000000001 $end
$upscope $end
$scope begin genblk00000000000000000001 $end
$upscope $end
$scope begin genblk000000000000000000001 $end
$upscope $end
$scope begin genblk0000000000000000000001 $end
$upscope $end
$scope begin genblk00000000000000000000001 $end
$upscope $end
$scope begin genblk000000000000000000000001 $end
$upscope $end
$scope begin genblk0000000000000000000000001 $end
$upscope $end
$scope begin $gen1[25] $end
$upscope $end
$scope begin $gen1[26] $end
$upscope $end
$scope begin $gen1[27] $end
$upscope $end
$scope begin $gen1[28] $end
$upscope $end
$scope begin $gen1[29] $end
$upscope $end
$scope begin $gen1[30] $end
$upscope $end
$scope begin $gen1[31] $end
$upscope $end
$upscope $end
$scope module alu_s_mux $end
$var wire 96 :" in_data [95:0] $end
$var wire 2 ;" select [1:0] $end
$var reg 32 <" out_data [31:0] $end
$upscope $end
$scope module alu_t_mux $end
$var wire 96 =" in_data [95:0] $end
$var wire 2 >" select [1:0] $end
$var reg 32 ?" out_data [31:0] $end
$upscope $end
$scope module id_ex $end
$var wire 1 ( clk $end
$var wire 190 @" in [189:0] $end
$var wire 1 A" reset $end
$var wire 1 B" we $end
$var reg 190 C" out [189:0] $end
$upscope $end
$scope module alucontrol $end
$var wire 1 - aluop_in $end
$var wire 6 D" funct [5:0] $end
$var wire 6 E" opcode [5:0] $end
$var reg 4 F" aluop_out [3:0] $end
$upscope $end
$scope module t_mux $end
$var wire 64 G" in_data [63:0] $end
$var wire 1 0 select $end
$var reg 32 H" out_data [31:0] $end
$upscope $end
$scope module alu $end
$var wire 4 I" aluop [3:0] $end
$var wire 32 J" s [31:0] $end
$var wire 5 K" shamt [4:0] $end
$var wire 32 L" t [31:0] $end
$var reg 32 M" out [31:0] $end
$var reg 1 N" overflow $end
$var reg 64 O" tmp [63:0] $end
$var reg 1 P" zero $end
$upscope $end
$scope module dst_mux $end
$var wire 10 Q" in_data [9:0] $end
$var wire 1 > select $end
$var reg 5 R" out_data [4:0] $end
$upscope $end
$scope module ex_mem $end
$var wire 1 ( clk $end
$var wire 110 S" in [109:0] $end
$var wire 1 T" reset $end
$var wire 1 U" we $end
$var reg 110 V" out [109:0] $end
$upscope $end
$scope module dmem $end
$var wire 32 W" addr [31:0] $end
$var wire 1 ( clk $end
$var wire 5 X" index [4:0] $end
$var wire 1 X memread $end
$var wire 1 Z memwrite $end
$var wire 1 c reset $end
$var wire 32 Y" wdata [31:0] $end
$var reg 32 Z" rdata [31:0] $end
$upscope $end
$scope module mem_mux $end
$var wire 64 [" in_data [63:0] $end
$var wire 1 Y select $end
$var reg 32 \" out_data [31:0] $end
$upscope $end
$scope module mem_wb $end
$var wire 1 ( clk $end
$var wire 38 ]" in [37:0] $end
$var wire 1 c reset $end
$var wire 1 ^" we $end
$var reg 38 _" out [37:0] $end
$upscope $end
$upscope $end
$upscope $end
$enddefinitions $end
#0
$dumpvars
b0 _"
1^"
b0 ]"
b0 \"
b0 ["
b0 Z"
b0 Y"
b0 X"
b0 W"
b0 V"
1U"
1T"
b0 S"
b0 R"
b0 Q"
0P"
b0 O"
0N"
b0 M"
b0 L"
b0 K"
b0 J"
b0 I"
b0 H"
b0 G"
b0 F"
b0 E"
b0 D"
b0 C"
1B"
1A"
b10000000000000000000000000000000000000000000000000000000000000000000000000000000000000000000000000000000000000000000000000000000 @"
b0 ?"
b0 >"
b0 ="
b0 <"
b0 ;"
b0 :"
b0 9"
b0 8"
bx 7"
b0 6"
b0 5"
b0 4"
b0 3"
bz 2"
11"
00"
0/"
0."
0-"
0,"
0+"
0*"
0)"
b0 ("
b0 '"
b0 &"
1%"
1$"
b100xxxxxxxxxxxxxxxxxxxxxxxxxxxxxxxx #"
bx ""
b0 !"
0~
1}
b0 |
b0 {
b0 z
1y
b100 x
b100 w
b100 v
b100 u
b100 t
b0 s
b0 r
b0 q
b0 p
b0 o
b0 n
0m
b0 l
1k
1j
1i
1h
1g
b0 f
b0 e
0d
1c
0b
b0 a
b100 `
b100 _
b0 ^
b0 ]
0\
b0 [
0Z
0Y
0X
b0 W
0V
b0 U
0T
b0 S
0R
b100 Q
bx P
1O
0N
b0 M
b0 L
0K
0J
0I
0H
0G
b0 F
b0 E
b0 D
b0 C
0B
0A
b0 @
0?
0>
b0 =
b0 <
b0 ;
b0 :
09
08
07
06
05
b0 4
b0 3
b0 2
01
00
b0 /
0.
0-
b0 ,
b0 +
b0 *
b0 )
0(
b0 '
b0 &
b0 %
0$
0#
1"
0!
$end
#5
b0 2"
b100000 7"
1!
1(
#10
0!
0(
#15
b100000000010010000000000000001 ""
b10000100000000010010000000000000001 #"
b100000000010010000000000000001 P
0$"
0A"
0T"
0"
0c
b100000 7"
1!
1(
#20
0!
0(
#25
b1000 w
b1000 _
b1000 x
1*"
1B
10"
1N
b0 ""
b0 P
b1000 u
b1000 v
b1000 `
b1 E
b1001000000000000000100 L
b1000 ("
b1 '"
b1001 4"
b1001 p
b1 |
b1000 t
b100000000000000000000000000000000000 #"
b1000 Q
b100000000010010000000000000001 F
b10000101000000000000000000000000000000100000000000000000000000000000000000100100000000000001001000000000000000100010010000000000 @"
b100 M
b10000000000 2
b10000000000 J"
b100 z
b100 a
b100 {
b10000100000000010010000000000000001 &"
b10000000000000000000000000000000000000000000000000000000000000000000000000000000000000000000000000000000000000000000000000000000 C"
1!
1(
#30
0!
0(
#35
b1000011100000000000000000000000000000000000 ="
b1000011100000000000000000000000000000000000 :"
b10000111000 M"
b10000111000 /
b1100 w
b1100 _
b1100 x
0*"
0B
00"
0N
b1001 R"
b1001 @
b1001 l
b10 F"
b10 '
b10 I"
b10000 H"
b10000 )
b10000 L"
b1100 u
b1100 v
b1100 `
b100 ;
b1 D"
b0 E
b0 L
b0 ("
b0 '"
b0 4"
b0 p
b1001 Q"
b1001 ,
b1001000000000000000100 <
b1000 :
b1000 E"
b1 4
b100000000000000000000000000010000 G"
b10000000000000000000000000100001110000000000000000000000000000001000001001 S"
b10000 3
b10000101000 2
b10000101000 J"
b0 F
b10000000000000000000000000000000000001000000000000000000000000000000000000000000000000000000000000000000000000000000000000000000 @"
b1000 M
b10 |
b100100000000000000010000000000000000000000000000001100 t
b110000000000000000000000000000000000 #"
b1100 Q
b10000101000000000000000000000000000000100000000000000000000000000000000000100100000000000001001000000000000000100010010000000000 C"
b100000000000000000000000000000000000 &"
b1000 z
b1000 a
b1000 {
1!
1(
#40
0!
0(
#45
b10000 w
b10000 _
b10000 x
b100001110000000000000000000000001000010000000000000000000000000000000000000 ="
b100001110000000000000000000000001000010000000000000000000000000000000000000 :"
b10000111000 \"
b10000111000 ]
b0 R"
b0 @
b0 l
b10000 u
b10000 `
b100000 H"
b100000 )
b100000 L"
b10000100000 M"
b10000100000 /
b1110 X"
b0 ;
b0 D"
b1000011100001001 ]"
b1001 ^
b1001 n
b10000 U
b10000 Y"
b10000111000 ["
b10000111000 S
b10000111000 W"
b10000000000000000000000000000010000 v
b100 [
b11 |
b1000000000000000000000000000000000000 #"
b10000 Q
b10000000000000000000000000000000000001100000000000000000000000000000000000000000000000000000000000000000000000000000000000000000 @"
b1100 M
b0 Q"
b0 ,
b10000 t
b0 <
b0 :
b0 E"
b0 4
b100000 G"
b100001000000000000000000000000000000010000000000 S"
b100000 3
b10000000000 2
b10000000000 J"
b1100 z
b1100 a
b1100 {
b110000000000000000000000000000000000 &"
b10000000000000000000000000000000000001000000000000000000000000000000000000000000000000000000000000000000000000000000000000000000 C"
b10000000000000000000000000100001110000000000000000000000000000001000001001 V"
1!
1(
#50
0!
0(
#55
b10000110000 M"
b10000110000 /
b10100 w
b10100 _
b10100 x
b100001000000000000000000000000001000011000000000000000000000000000000000000 ="
b100001000000000000000000000000001000011000000000000000000000000000000000000 :"
b10000100000 \"
b10000100000 ]
b110000 H"
b110000 )
b110000 L"
b1001000000101000000100000 ""
b1001000000101000000100000 P
b10100 u
b10100 `
b1000 X"
b1000010000000000 ]"
b0 ^
b0 n
b100000 U
b100000 Y"
b10000100000 ["
b10000100000 S
b10000100000 W"
b10100 v
b0 [
b1001 f
b1001 q
b1001 6"
b10000111000 5"
b10000111000 e
b110000 G"
b100001100000000000000000000000000000011000000000 S"
b110000 3
b10000000000000000000000000000000000010000000000000000000000000000000000000000000000000000000000000000000000000000000000000000000 @"
b10000 M
b100 |
b10100 t
b1010000000001001000000101000000100000 #"
b10100 Q
b1000011100001001 _"
b100001000000000000000000000000000000010000000000 V"
b10000000000000000000000000000000000001100000000000000000000000000000000000000000000000000000000000000000000000000000000000000000 C"
b1000000000000000000000000000000000000 &"
b10000 z
b10000 a
b10000 {
1!
1(
#60
0!
0(
#65
b11000 w
b11000 _
b11000 x
b10001000000 M"
b10001000000 /
b100001100000000000000000000000001000100000000000000000000000000000000000000 ="
b100001100000000000000000000000001000100000000000000000000000000000000000000 :"
b10000110000 \"
b1000011000000000 ]"
b10000110000 ]
b0 ""
b0 P
b11000 u
b11000 v
b11000 `
b1000000 H"
b1000000 )
b1000000 L"
b1100 X"
b101000000100000 E
b100100000010100000010000000 L
b100000 '"
b1001 3"
b1001 o
b110000 U
b110000 Y"
b10000110000 ["
b10000110000 S
b10000110000 W"
b101 |
b11000 t
b1100000000000000000000000000000000000 #"
b11000 Q
b1001000000101000000100000 F
b10000000000000000000000000000000000010100000000000000000000010100000010000000000000000100100000010100000010000000000000101001001 @"
b10100 M
b1000000 G"
b100010000000000000000000000000000000100000000000 S"
b1000000 3
b0 f
b0 q
b0 6"
b10000100000 5"
b10000100000 e
b10100 z
b10100 a
b10100 {
b1010000000001001000000101000000100000 &"
b10000000000000000000000000000000000010000000000000000000000000000000000000000000000000000000000000000000000000000000000000000000 C"
b100001100000000000000000000000000000011000000000 V"
b1000010000000000 _"
1!
1(
#70
0!
0(
#75
b10001010000 M"
b10001010000 /
b11100 w
b11100 _
b11100 x
b100010000000000000000000000000001000101000000000000000000000000000000000000 ="
b100010000000000000000000000000001000101000000000000000000000000000000000000 :"
b10001000000 \"
b1000100000000000 ]"
b10001000000 ]
b1010000 H"
b1010000 )
b1010000 L"
b11100 u
b11100 v
b11100 `
b10000 X"
b1000000 U
b1000000 Y"
b10001000000 ["
b10001000000 S
b10001000000 W"
b10100000010000000 ;
b100000 D"
b0 E
b0 L
b0 '"
b0 3"
b0 o
b10000110000 5"
b10000110000 e
b1001 +
b101000000 Q"
b1010 *
b100100000010100000010000000 <
b101000000100000 4
b10100000010000000000000000000000000000001010000 G"
b1010000001000000000000000000000000000000100010100000000000000000000000000000101000000000 S"
b1010000 3
b0 F
b10000000000000000000000000000000000011000000000000000000000000000000000000000000000000000000000000000000000000000000000000000000 @"
b11000 M
b110 |
b10010000001010000001000000000000000000000000000000000011100 t
b1110000000000000000000000000000000000 #"
b11100 Q
b1000011000000000 _"
b100010000000000000000000000000000000100000000000 V"
b10000000000000000000000000000000000010100000000000000000000010100000010000000000000000100100000010100000010000000000000101001001 C"
b1100000000000000000000000000000000000 &"
b11000 z
b11000 a
b11000 {
1!
1(
#80
0!
0(
#85
b100000 w
b100000 _
b100000 x
b10001100000 M"
b10001100000 /
b100010100000000000000000000000001000110000000000000000000000000000000000000 ="
b100010100000000000000000000000001000110000000000000000000000000000000000000 :"
b10001010000 \"
b1000101000000000 ]"
b10001010000 ]
b100000 u
b100000 `
b1100000 H"
b1100000 )
b1100000 L"
b10100 X"
b0 ;
b0 D"
b1010000 U
b1010000 Y"
b10001010000 ["
b10001010000 S
b10001010000 W"
b1010000001000000000000000000000000000000000100000 v
b10100000010000000 [
b111 |
b10000000000000000000000000000000000000 #"
b100000 Q
b10000000000000000000000000000000000011100000000000000000000000000000000000000000000000000000000000000000000000000000000000000000 @"
b11100 M
b0 +
b0 Q"
b0 *
b100000 t
b0 <
b0 4
b1100000 G"
b100011000000000000000000000000000000110000000000 S"
b1100000 3
b10001000000 5"
b10001000000 e
b11100 z
b11100 a
b11100 {
b1110000000000000000000000000000000000 &"
b10000000000000000000000000000000000011000000000000000000000000000000000000000000000000000000000000000000000000000000000000000000 C"
b1010000001000000000000000000000000000000100010100000000000000000000000000000101000000000 V"
b1000100000000000 _"
1!
1(
#90
0!
0(
#95
b10001110000 M"
b10001110000 /
b100100 w
b100100 _
b100100 x
b100011000000000000000000000000001000111000000000000000000000000000000000000 ="
b100011000000000000000000000000001000111000000000000000000000000000000000000 :"
b10001100000 \"
b1000110000000000 ]"
b10001100000 ]
b1110000 H"
b1110000 )
b1110000 L"
b100100 u
b100100 `
b11000 X"
b1100000 U
b1100000 Y"
b10001100000 ["
b10001100000 S
b10001100000 W"
b100100 v
b0 [
b10001010000 5"
b10001010000 e
b1110000 G"
b100011100000000000000000000000000000111000000000 S"
b1110000 3
b10000000000000000000000000000000000100000000000000000000000000000000000000000000000000000000000000000000000000000000000000000000 @"
b100000 M
b1000 |
b100100 t
b10010000000000000000000000000000000000 #"
b100100 Q
b1000101000000000 _"
b100011000000000000000000000000000000110000000000 V"
b10000000000000000000000000000000000011100000000000000000000000000000000000000000000000000000000000000000000000000000000000000000 C"
b10000000000000000000000000000000000000 &"
b100000 z
b100000 a
b100000 {
1!
1(
#100
0!
0(
#105
b101000 w
b101000 _
b101000 x
b10010000000 M"
b10010000000 /
b100011100000000000000000000000001001000000000000000000000000000000000000000 ="
b100011100000000000000000000000001001000000000000000000000000000000000000000 :"
b10001110000 \"
b1000111000000000 ]"
b10001110000 ]
b101000 u
b101000 v
b101000 `
b10000000 H"
b10000000 )
b10000000 L"
b11100 X"
b1110000 U
b1110000 Y"
b10001110000 ["
b10001110000 S
b10001110000 W"
b1001 |
b101000 t
b10100000000000000000000000000000000000 #"
b101000 Q
b10000000000000000000000000000000000100100000000000000000000000000000000000000000000000000000000000000000000000000000000000000000 @"
b100100 M
b10000000 G"
b100100000000000000000000000000000001000000000000 S"
b10000000 3
b10001100000 5"
b10001100000 e
b100100 z
b100100 a
b100100 {
b10010000000000000000000000000000000000 &"
b10000000000000000000000000000000000100000000000000000000000000000000000000000000000000000000000000000000000000000000000000000000 C"
b100011100000000000000000000000000000111000000000 V"
b1000110000000000 _"
1!
1(
#110
0!
0(
#115
b10010010000 M"
b10010010000 /
b101100 w
b101100 _
b101100 x
b100100000000000000000000000000001001001000000000000000000000000000000000000 ="
b100100000000000000000000000000001001001000000000000000000000000000000000000 :"
b10010000000 \"
b1001000000000000 ]"
b10010000000 ]
b10010000 H"
b10010000 )
b10010000 L"
b101100 u
b101100 v
b101100 `
b0 X"
b10000000 U
b10000000 Y"
b10010000000 ["
b10010000000 S
b10010000000 W"
b10001110000 5"
b10001110000 e
b10010000 G"
b100100100000000000000000000000000001001000000000 S"
b10010000 3
b10000000000000000000000000000000000101000000000000000000000000000000000000000000000000000000000000000000000000000000000000000000 @"
b101000 M
b1010 |
b101100 t
b10110000000000000000000000000000000000 #"
b101100 Q
b1000111000000000 _"
b100100000000000000000000000000000001000000000000 V"
b10000000000000000000000000000000000100100000000000000000000000000000000000000000000000000000000000000000000000000000000000000000 C"
b10100000000000000000000000000000000000 &"
b101000 z
b101000 a
b101000 {
1!
1(
#120
0!
0(
#125
b110000 w
b110000 _
b110000 x
b10010100000 M"
b10010100000 /
b100100100000000000000000000000001001010000000000000000000000000000000000000 ="
b100100100000000000000000000000001001010000000000000000000000000000000000000 :"
b10010010000 \"
b1001001000000000 ]"
b10010010000 ]
b110000 u
b110000 v
b110000 `
b10100000 H"
b10100000 )
b10100000 L"
b100 X"
b10010000 U
b10010000 Y"
b10010010000 ["
b10010010000 S
b10010010000 W"
b1011 |
b110000 t
b11000000000000000000000000000000000000 #"
b110000 Q
b10000000000000000000000000000000000101100000000000000000000000000000000000000000000000000000000000000000000000000000000000000000 @"
b101100 M
b10100000 G"
b100101000000000000000000000000000001010000000000 S"
b10100000 3
b10010000000 5"
b10010000000 e
b101100 z
b101100 a
b101100 {
b10110000000000000000000000000000000000 &"
b10000000000000000000000000000000000101000000000000000000000000000000000000000000000000000000000000000000000000000000000000000000 C"
b100100100000000000000000000000000001001000000000 V"
b1001000000000000 _"
1!
1(
#130
0!
0(
#135
b10010110000 M"
b10010110000 /
b110100 w
b110100 _
b110100 x
b100101000000000000000000000000001001011000000000000000000000000000000000000 ="
b100101000000000000000000000000001001011000000000000000000000000000000000000 :"
b10010100000 \"
b1001010000000000 ]"
b10010100000 ]
b10110000 H"
b10110000 )
b10110000 L"
b110100 u
b110100 v
b110100 `
b1000 X"
b10100000 U
b10100000 Y"
b10010100000 ["
b10010100000 S
b10010100000 W"
b10010010000 5"
b10010010000 e
b10110000 G"
b100101100000000000000000000000000001011000000000 S"
b10110000 3
b10000000000000000000000000000000000110000000000000000000000000000000000000000000000000000000000000000000000000000000000000000000 @"
b110000 M
b1100 |
b110100 t
b11010000000000000000000000000000000000 #"
b110100 Q
b1001001000000000 _"
b100101000000000000000000000000000001010000000000 V"
b10000000000000000000000000000000000101100000000000000000000000000000000000000000000000000000000000000000000000000000000000000000 C"
b11000000000000000000000000000000000000 &"
b110000 z
b110000 a
b110000 {
1!
1(
#140
0!
0(
#145
b111000 w
b111000 _
b111000 x
b10011000000 M"
b10011000000 /
b100101100000000000000000000000001001100000000000000000000000000000000000000 ="
b100101100000000000000000000000001001100000000000000000000000000000000000000 :"
b10010110000 \"
b1001011000000000 ]"
b10010110000 ]
b111000 u
b111000 v
b111000 `
b11000000 H"
b11000000 )
b11000000 L"
b1100 X"
b10110000 U
b10110000 Y"
b10010110000 ["
b10010110000 S
b10010110000 W"
b1101 |
b111000 t
b11100000000000000000000000000000000000 #"
b111000 Q
b10000000000000000000000000000000000110100000000000000000000000000000000000000000000000000000000000000000000000000000000000000000 @"
b110100 M
b11000000 G"
b100110000000000000000000000000000001100000000000 S"
b11000000 3
b10010100000 5"
b10010100000 e
b110100 z
b110100 a
b110100 {
b11010000000000000000000000000000000000 &"
b10000000000000000000000000000000000110000000000000000000000000000000000000000000000000000000000000000000000000000000000000000000 C"
b100101100000000000000000000000000001011000000000 V"
b1001010000000000 _"
1!
1(
#150
0!
0(
#155
b10011010000 M"
b10011010000 /
b111100 w
b111100 _
b111100 x
b100110000000000000000000000000001001101000000000000000000000000000000000000 ="
b100110000000000000000000000000001001101000000000000000000000000000000000000 :"
b10011000000 \"
b1001100000000000 ]"
b10011000000 ]
b11010000 H"
b11010000 )
b11010000 L"
b111100 u
b111100 v
b111100 `
b10000 X"
b11000000 U
b11000000 Y"
b10011000000 ["
b10011000000 S
b10011000000 W"
b10010110000 5"
b10010110000 e
b11010000 G"
b100110100000000000000000000000000001101000000000 S"
b11010000 3
b10000000000000000000000000000000000111000000000000000000000000000000000000000000000000000000000000000000000000000000000000000000 @"
b111000 M
b1110 |
b111100 t
b11110000000000000000000000000000000000 #"
b111100 Q
b1001011000000000 _"
b100110000000000000000000000000000001100000000000 V"
b10000000000000000000000000000000000110100000000000000000000000000000000000000000000000000000000000000000000000000000000000000000 C"
b11100000000000000000000000000000000000 &"
b111000 z
b111000 a
b111000 {
1!
1(
#160
0!
0(
#165
b1000000 w
b1000000 _
b1000000 x
b10011100000 M"
b10011100000 /
b100110100000000000000000000000001001110000000000000000000000000000000000000 ="
b100110100000000000000000000000001001110000000000000000000000000000000000000 :"
b10011010000 \"
b1001101000000000 ]"
b10011010000 ]
b1000000 u
b1000000 v
b1000000 `
b11100000 H"
b11100000 )
b11100000 L"
b10100 X"
b11010000 U
b11010000 Y"
b10011010000 ["
b10011010000 S
b10011010000 W"
b1111 |
b1000000 t
b100000000000000000000000000000000000000 #"
b1000000 Q
b10000000000000000000000000000000000111100000000000000000000000000000000000000000000000000000000000000000000000000000000000000000 @"
b111100 M
b11100000 G"
b100111000000000000000000000000000001110000000000 S"
b11100000 3
b10011000000 5"
b10011000000 e
b111100 z
b111100 a
b111100 {
b11110000000000000000000000000000000000 &"
b10000000000000000000000000000000000111000000000000000000000000000000000000000000000000000000000000000000000000000000000000000000 C"
b100110100000000000000000000000000001101000000000 V"
b1001100000000000 _"
1!
1(
#170
0!
0(
#175
b10011110000 M"
b10011110000 /
b1000100 w
b1000100 _
b1000100 x
b100111000000000000000000000000001001111000000000000000000000000000000000000 ="
b100111000000000000000000000000001001111000000000000000000000000000000000000 :"
b10011100000 \"
b1001110000000000 ]"
b10011100000 ]
b11110000 H"
b11110000 )
b11110000 L"
b1000100 u
b1000100 v
b1000100 `
b11000 X"
b11100000 U
b11100000 Y"
b10011100000 ["
b10011100000 S
b10011100000 W"
b10011010000 5"
b10011010000 e
b11110000 G"
b100111100000000000000000000000000001111000000000 S"
b11110000 3
b10000000000000000000000000000000001000000000000000000000000000000000000000000000000000000000000000000000000000000000000000000000 @"
b1000000 M
b10000 |
b1000100 t
b100010000000000000000000000000000000000 #"
b1000100 Q
b1001101000000000 _"
b100111000000000000000000000000000001110000000000 V"
b10000000000000000000000000000000000111100000000000000000000000000000000000000000000000000000000000000000000000000000000000000000 C"
b100000000000000000000000000000000000000 &"
b1000000 z
b1000000 a
b1000000 {
1!
1(
#180
0!
0(
#185
b1001000 w
b1001000 _
b1001000 x
b10100000000 M"
b10100000000 /
b100111100000000000000000000000001010000000000000000000000000000000000000000 ="
b100111100000000000000000000000001010000000000000000000000000000000000000000 :"
b10011110000 \"
b1001111000000000 ]"
b10011110000 ]
b1001000 u
b1001000 v
b1001000 `
b100000000 H"
b100000000 )
b100000000 L"
b11100 X"
b11110000 U
b11110000 Y"
b10011110000 ["
b10011110000 S
b10011110000 W"
b10001 |
b1001000 t
b100100000000000000000000000000000000000 #"
b1001000 Q
b10000000000000000000000000000000001000100000000000000000000000000000000000000000000000000000000000000000000000000000000000000000 @"
b1000100 M
b100000000 G"
b101000000000000000000000000000000010000000000000 S"
b100000000 3
b10011100000 5"
b10011100000 e
b1000100 z
b1000100 a
b1000100 {
b100010000000000000000000000000000000000 &"
b10000000000000000000000000000000001000000000000000000000000000000000000000000000000000000000000000000000000000000000000000000000 C"
b100111100000000000000000000000000001111000000000 V"
b1001110000000000 _"
1!
1(
#190
0!
0(
#195
b10100010000 M"
b10100010000 /
b1001100 w
b1001100 _
b1001100 x
b101000000000000000000000000000001010001000000000000000000000000000000000000 ="
b101000000000000000000000000000001010001000000000000000000000000000000000000 :"
b10100000000 \"
b1010000000000000 ]"
b10100000000 ]
b100010000 H"
b100010000 )
b100010000 L"
b1001100 u
b1001100 v
b1001100 `
b0 X"
b100000000 U
b100000000 Y"
b10100000000 ["
b10100000000 S
b10100000000 W"
b10011110000 5"
b10011110000 e
b100010000 G"
b101000100000000000000000000000000010001000000000 S"
b100010000 3
b10000000000000000000000000000000001001000000000000000000000000000000000000000000000000000000000000000000000000000000000000000000 @"
b1001000 M
b10010 |
b1001100 t
b100110000000000000000000000000000000000 #"
b1001100 Q
b1001111000000000 _"
b101000000000000000000000000000000010000000000000 V"
b10000000000000000000000000000000001000100000000000000000000000000000000000000000000000000000000000000000000000000000000000000000 C"
b100100000000000000000000000000000000000 &"
b1001000 z
b1001000 a
b1001000 {
1!
1(
#200
0!
0(
