traces/branch.vcd
$date
	Tue Nov 17 13:48:49 2015
$end
$version
	Icarus Verilog
$end
$timescale
	1s
$end
$scope module cpu_tb $end
$var reg 1 ! clk $end
$var reg 1 " reset $end
$scope module cpu $end
$var wire 4 # aluop [3:0] $end
$var wire 1 $ clk $end
$var wire 32 % data_rt [31:0] $end
$var wire 5 & dst_rd [4:0] $end
$var wire 5 ' dst_rs [4:0] $end
$var wire 5 ( dst_rt [4:0] $end
$var wire 1 ) ex_aluop $end
$var wire 1 * ex_aluovf $end
$var wire 32 + ex_alures [31:0] $end
$var wire 1 , ex_alusrc $end
$var wire 1 - ex_aluz $end
$var wire 32 . ex_data_rs [31:0] $end
$var wire 32 / ex_data_rt [31:0] $end
$var wire 6 0 ex_funct [5:0] $end
$var wire 32 1 ex_imm [31:0] $end
$var wire 26 2 ex_imm_top [25:0] $end
$var wire 1 3 ex_isbranch $end
$var wire 1 4 ex_isjump $end
$var wire 1 5 ex_memread $end
$var wire 1 6 ex_memtoreg $end
$var wire 1 7 ex_memwrite $end
$var wire 6 8 ex_opcode [5:0] $end
$var wire 32 9 ex_pc_branch [31:0] $end
$var wire 32 : ex_pc_jump [31:0] $end
$var wire 32 ; ex_pc_next [31:0] $end
$var wire 1 < ex_regdst $end
$var wire 1 = ex_regwrite $end
$var wire 5 > ex_wreg [4:0] $end
$var wire 2 ? fwdctrl_rs [1:0] $end
$var wire 2 @ fwdctrl_rt [1:0] $end
$var wire 1 A id_aluop $end
$var wire 1 B id_alusrc $end
$var wire 32 C id_data_rs [31:0] $end
$var wire 32 D id_data_rt [31:0] $end
$var wire 32 E id_imm [31:0] $end
$var wire 32 F id_instr [31:0] $end
$var wire 1 G id_isbranch $end
$var wire 1 H id_isjump $end
$var wire 1 I id_memread $end
$var wire 1 J id_memtoreg $end
$var wire 1 K id_memwrite $end
$var wire 32 L id_pc_jump [31:0] $end
$var wire 32 M id_pc_next [31:0] $end
$var wire 1 N id_regdst $end
$var wire 1 O id_regwrite $end
$var wire 32 P if_instr [31:0] $end
$var wire 32 Q if_pc_next [31:0] $end
$var wire 1 R mem_aluovf $end
$var wire 32 S mem_alures [31:0] $end
$var wire 1 T mem_aluz $end
$var wire 32 U mem_data_rt [31:0] $end
$var wire 1 V mem_isbranch $end
$var wire 32 W mem_memout [31:0] $end
$var wire 1 X mem_memread $end
$var wire 1 Y mem_memtoreg $end
$var wire 1 Z mem_memwrite $end
$var wire 32 [ mem_pc_branch [31:0] $end
$var wire 1 \ mem_regwrite $end
$var wire 32 ] mem_wdata [31:0] $end
$var wire 5 ^ mem_wreg [4:0] $end
$var wire 32 _ pc_in [31:0] $end
$var wire 32 ` pc_interm [31:0] $end
$var wire 32 a pc_out [31:0] $end
$var wire 1 b pc_take_branch $end
$var wire 32 c reg_rs [31:0] $end
$var wire 32 d reg_rt [31:0] $end
$var wire 1 e reset $end
$var wire 1 f wb_regwrite $end
$var wire 32 g wb_wdata [31:0] $end
$var wire 5 h wb_wreg [4:0] $end
$var reg 1 i ex_mem_we $end
$var reg 1 j id_ex_we $end
$var reg 1 k if_id_we $end
$var reg 1 l mem_wb_we $end
$var reg 1 m pc_we $end
$scope module fwdcontrol $end
$var wire 5 n ex_dst [4:0] $end
$var wire 1 o ex_rw $end
$var wire 5 p mem_dst [4:0] $end
$var wire 1 \ mem_rw $end
$var wire 5 q rs [4:0] $end
$var wire 5 r rt [4:0] $end
$var wire 5 s wb_dst [4:0] $end
$var wire 1 f wb_rw $end
$var reg 2 t ctrl_rs [1:0] $end
$var reg 2 u ctrl_rt [1:0] $end
$upscope $end
$scope module pc_jmux $end
$var wire 64 v in_data [63:0] $end
$var wire 1 4 select $end
$var reg 32 w out_data [31:0] $end
$upscope $end
$scope module pc_bmux $end
$var wire 64 x in_data [63:0] $end
$var wire 1 b select $end
$var reg 32 y out_data [31:0] $end
$upscope $end
$scope module pc $end
$var wire 1 $ clk $end
$var wire 32 z in [31:0] $end
$var wire 1 e reset $end
$var wire 1 { we $end
$var reg 32 | out [31:0] $end
$upscope $end
$scope module imem $end
$var wire 32 } addr [31:0] $end
$var wire 1 $ clk $end
$var wire 5 ~ index [4:0] $end
$var wire 1 !" memread $end
$var wire 1 "" memwrite $end
$var wire 1 e reset $end
$var wire 32 #" wdata [31:0] $end
$var reg 32 $" rdata [31:0] $end
$upscope $end
$scope module if_id $end
$var wire 1 $ clk $end
$var wire 64 %" in [63:0] $end
$var wire 1 &" reset $end
$var wire 1 '" we $end
$var reg 64 (" out [63:0] $end
$upscope $end
$scope module control $end
$var wire 6 )" funct [5:0] $end
$var wire 6 *" opcode [5:0] $end
$var reg 1 +" aluop $end
$var reg 1 ," alusrc $end
$var reg 1 -" isbranch $end
$var reg 1 ." isjump $end
$var reg 1 /" memread $end
$var reg 1 0" memtoreg $end
$var reg 1 1" memwrite $end
$var reg 1 2" regdst $end
$var reg 1 3" regwrite $end
$upscope $end
$scope module regfile $end
$var wire 1 $ clk $end
$var wire 1024 4" dbg_mem [1023:0] $end
$var wire 1 f regwrite $end
$var wire 1 e reset $end
$var wire 5 5" rreg1 [4:0] $end
$var wire 5 6" rreg2 [4:0] $end
$var wire 33 7" wdata [32:0] $end
$var wire 5 8" wreg [4:0] $end
$var integer 32 9" i [31:0] $end
$var reg 32 :" rdata1 [31:0] $end
$var reg 32 ;" rdata2 [31:0] $end
$scope begin genblk1 $end
$upscope $end
$scope begin genblk01 $end
$upscope $end
$scope begin genblk001 $end
$upscope $end
$scope begin genblk0001 $end
$upscope $end
$scope begin genblk00001 $end
$upscope $end
$scope begin genblk000001 $end
$upscope $end
$scope begin genblk0000001 $end
$upscope $end
$scope begin genblk00000001 $end
$upscope $end
$scope begin genblk000000001 $end
$upscope $end
$scope begin genblk0000000001 $end
$upscope $end
$scope begin genblk00000000001 $end
$upscope $end
$scope begin genblk000000000001 $end
$upscope $end
$scope begin genblk0000000000001 $end
$upscope $end
$scope begin genblk00000000000001 $end
$upscope $end
$scope begin genblk000000000000001 $end
$upscope $end
$scope begin genblk0000000000000001 $end
$upscope $end
$scope begin genblk00000000000000001 $end
$upscope $end
$scope begin genblk000000000000000001 $end
$upscope $end
$scope begin genblk0000000000000000001 $end
$upscope $end
$scope begin genblk00000000000000000001 $end
$upscope $end
$scope begin genblk000000000000000000001 $end
$upscope $end
$scope begin genblk0000000000000000000001 $end
$upscope $end
$scope begin genblk00000000000000000000001 $end
$upscope $end
$scope begin genblk000000000000000000000001 $end
$upscope $end
$scope begin genblk0000000000000000000000001 $end
$upscope $end
$scope begin $gen1[25] $end
$upscope $end
$scope begin $gen1[26] $end
$upscope $end
$scope begin $gen1[27] $end
$upscope $end
$scope begin $gen1[28] $end
$upscope $end
$scope begin $gen1[29] $end
$upscope $end
$scope begin $gen1[30] $end
$upscope $end
$scope begin $gen1[31] $end
$upscope $end
$upscope $end
$scope module data_rs_mux $end
$var wire 128 <" in_data [127:0] $end
$var wire 2 =" select [1:0] $end
$var reg 32 >" out_data [31:0] $end
$upscope $end
$scope module data_rt_mux $end
$var wire 128 ?" in_data [127:0] $end
$var wire 2 @" select [1:0] $end
$var reg 32 A" out_data [31:0] $end
$upscope $end
$scope module id_ex $end
$var wire 1 $ clk $end
$var wire 190 B" in [189:0] $end
$var wire 1 C" reset $end
$var wire 1 D" we $end
$var reg 190 E" out [189:0] $end
$upscope $end
$scope module alucontrol $end
$var wire 1 ) aluop_in $end
$var wire 6 F" funct [5:0] $end
$var wire 6 G" opcode [5:0] $end
$var reg 4 H" aluop_out [3:0] $end
$upscope $end
$scope module t_mux $end
$var wire 64 I" in_data [63:0] $end
$var wire 1 , select $end
$var reg 32 J" out_data [31:0] $end
$upscope $end
$scope module alu $end
$var wire 4 K" aluop [3:0] $end
$var wire 32 L" s [31:0] $end
$var wire 5 M" shamt [4:0] $end
$var wire 32 N" t [31:0] $end
$var reg 32 O" out [31:0] $end
$var reg 1 P" overflow $end
$var reg 64 Q" tmp [63:0] $end
$var reg 1 R" zero $end
$upscope $end
$scope module dst_mux $end
$var wire 10 S" in_data [9:0] $end
$var wire 1 < select $end
$var reg 5 T" out_data [4:0] $end
$upscope $end
$scope module ex_mem $end
$var wire 1 $ clk $end
$var wire 110 U" in [109:0] $end
$var wire 1 V" reset $end
$var wire 1 W" we $end
$var reg 110 X" out [109:0] $end
$upscope $end
$scope module dmem $end
$var wire 32 Y" addr [31:0] $end
$var wire 1 $ clk $end
$var wire 5 Z" index [4:0] $end
$var wire 1 X memread $end
$var wire 1 Z memwrite $end
$var wire 1 e reset $end
$var wire 32 [" wdata [31:0] $end
$var reg 32 \" rdata [31:0] $end
$upscope $end
$scope module mem_mux $end
$var wire 64 ]" in_data [63:0] $end
$var wire 1 Y select $end
$var reg 32 ^" out_data [31:0] $end
$upscope $end
$scope module mem_wb $end
$var wire 1 $ clk $end
$var wire 38 _" in [37:0] $end
$var wire 1 e reset $end
$var wire 1 `" we $end
$var reg 38 a" out [37:0] $end
$upscope $end
$upscope $end
$upscope $end
$enddefinitions $end
#0
$dumpvars
b0 a"
1`"
b0 _"
b0 ^"
b0 ]"
b0 \"
b0 ["
b0 Z"
b0 Y"
b0 X"
1W"
1V"
b0 U"
b0 T"
b0 S"
0R"
b0 Q"
0P"
b0 O"
b0 N"
b0 M"
b0 L"
b100 K"
b0 J"
b0 I"
b100 H"
b0 G"
b0 F"
b0 E"
1D"
1C"
b1000010000000000000000000000000000000000000000000000000000000000000000000000000000000000000000000000000000000000000000000000000000000000000000000000000000000000000000000000000000000000000000 B"
b0 A"
b0 @"
b0 ?"
b0 >"
b0 ="
b0 <"
b0 ;"
b0 :"
bx 9"
b0 8"
b0 7"
b0 6"
b0 5"
bz 4"
13"
12"
01"
00"
0/"
0."
0-"
0,"
0+"
b0 *"
b0 )"
b0 ("
1'"
1&"
b100xxxxxxxxxxxxxxxxxxxxxxxxxxxxxxxx %"
bx $"
b0 #"
0""
1!"
b0 ~
b0 }
b0 |
1{
b100 z
b100 y
b100 x
b100 w
b100 v
b0 u
b0 t
b0 s
b0 r
b0 q
b0 p
0o
b0 n
1m
1l
1k
1j
1i
b0 h
b0 g
0f
1e
b0 d
b0 c
0b
b0 a
b100 `
b100 _
b0 ^
b0 ]
0\
b0 [
0Z
0Y
0X
b0 W
0V
b0 U
0T
b0 S
0R
b100 Q
bx P
1O
1N
b0 M
b0 L
0K
0J
0I
0H
0G
b0 F
b0 E
b0 D
b0 C
0B
0A
b0 @
b0 ?
b0 >
0=
0<
b0 ;
b0 :
b0 9
b0 8
07
06
05
04
03
b0 2
b0 1
b0 0
b0 /
b0 .
0-
0,
b0 +
0*
0)
b0 (
b0 '
b0 &
b0 %
0$
b100 #
1"
0!
$end
#5
b0 4"
b100000 9"
1!
1$
#10
0!
0$
#15
b100000000010000000000000000001 $"
b10000100000000010000000000000000001 %"
b100000000010000000000000000001 P
0&"
0C"
0V"
0"
0e
b100000 9"
1!
1$
#20
0!
0$
#25
b1000 y
b1000 _
b1000 z
1+"
1A
1,"
1B
02"
0N
b0 $"
b0 P
b1000 w
b1000 x
b1000 `
b1 E
b1000000000000000000100 L
b1000 *"
b1 )"
b1000 6"
b1000 r
1o
b1 ~
b1000 v
b100000000000000000000000000000000000 %"
b1000 Q
b100000000010000000000000000001 F
b1000001100000000000000000000000000000010000000000000000000000000000000000000000000000000000000000000000000000000000000000000000000000000100100000000000001000000000000000000100010000000000000 B"
b100 M
1<
b100000000000000000000000000000000000000000000000000000000000000000000000000000000000000000000000000000000000 U"
1=
b100 |
b100 a
b100 }
b10000100000000010000000000000000001 ("
b1000010000000000000000000000000000000000000000000000000000000000000000000000000000000000000000000000000000000000000000000000000000000000000000000000000000000000000000000000000000000000000000 E"
1!
1$
#30
0!
0$
#35
b1 O"
b100000000000000000000000000000000 ?"
b100000000000000000000000000000000 <"
b1 +
b1100 y
b1100 _
b1100 z
0+"
0A
0,"
0B
12"
1N
b1 J"
b1 %
b1 N"
b10 H"
b10 #
b10 K"
b1000 T"
b1000 >
b1000 n
b1100 w
b1100 x
b1100 `
b10000000000000000000000000000000000000 _"
1\
b0 E
b0 L
b0 *"
b0 )"
b0 6"
b0 r
b1000 S"
b1000 (
b1000000000000000000100 :
b1000 8
b1000 G"
b100000000000000000000000000000000 I"
b1 1
b1 0
b1 F"
b100000000000000000000000000000000100000000000000000000000000000000000010000000000000000000000000000000001000 U"
b1000 9
b100 ;
1,
1)
0<
b0 F
b1000010000000000000000000000000000000100000000000000000000000000000000000000000000000000000000000000000000000000000000000000000000000000000000000000000000000000000000000000000000000000000000 B"
b1000 M
b10 ~
b100000000000000000010000000000000000000000000000001100 v
b110000000000000000000000000000000000 %"
b1100 Q
b100000000000000000000000000000000000000000000000000000000000000000000000000000000000000000000000000000000000 X"
b1000001100000000000000000000000000000010000000000000000000000000000000000000000000000000000000000000000000000000000000000000000000000000100100000000000001000000000000000000100010000000000000 E"
b100000000000000000000000000000000000 ("
b1000 |
b1000 a
b1000 }
1!
1$
#40
0!
0$
#45
b10000 y
b10000 _
b10000 z
b0 O"
b0 +
b1 ^"
b10000000000000000000000000000000000000000000000000000000000000000 ?"
b10000000000000000000000000000000000000000000000000000000000000000 <"
b1 ]
b10000 w
b10000 `
b0 J"
b0 %
b0 N"
b100 H"
b100 #
b100 K"
b0 T"
b0 >
b0 n
b10000000000000000000000000000000101000 _"
b1000 ^
b1000 p
b1 ]"
b1 S
b1 Y"
b100000000000000000000000000000010000 x
b1000 [
b11 ~
b1000000000000000000000000000000000000 %"
b10000 Q
b1000010000000000000000000000000000000110000000000000000000000000000000000000000000000000000000000000000000000000000000000000000000000000000000000000000000000000000000000000000000000000000000 B"
b1100 M
b0 S"
b0 (
b10000 v
b0 :
b0 8
b0 G"
b0 I"
b0 1
b0 0
b0 F"
b100000000000000000000000000000000100000000000000000000000000000000000000000000000000000000000000000000000000 U"
b1000 9
b1000 ;
0,
0)
1<
1f
b1100 |
b1100 a
b1100 }
b110000000000000000000000000000000000 ("
b1000010000000000000000000000000000000100000000000000000000000000000000000000000000000000000000000000000000000000000000000000000000000000000000000000000000000000000000000000000000000000000000 E"
b100000000000000000000000000000000100000000000000000000000000000000000010000000000000000000000000000000001000 X"
b10000000000000000000000000000000000000 a"
1!
1$
#50
0!
0$
#55
b10100 y
b10100 _
b10100 z
b0 ^"
b0 ]
b10101000000000000000000000100 $"
b10101000000000000000000000100 P
b10100 w
b100000000000000000000000000000010100 x
b10100 `
b10000000000000000000000000000000000000 _"
b0 ^
b0 p
b0 ]"
b0 S
b0 Y"
b1000 h
b1000 s
b1000 8"
b1000000000000000000000000000000000000000000000000000000000000000000000000000000000000000000000000 ?"
b1000000000000000000000000000000000000000000000000000000000000000000000000000000000000000000000000 <"
b1 7"
b1 g
b100000000000000000000000000000000110000000000000000000000000000000000000000000000000000000000000000000000000 U"
b1100 9
b1100 ;
b1000010000000000000000000000000000001000000000000000000000000000000000000000000000000000000000000000000000000000000000000000000000000000000000000000000000000000000000000000000000000000000000 B"
b10000 M
b100 ~
b10100 v
b1010000010101000000000000000000000100 %"
b10100 Q
b10000000000000000000000000000000101000 a"
b100000000000000000000000000000000100000000000000000000000000000000000000000000000000000000000000000000000000 X"
b1000010000000000000000000000000000000110000000000000000000000000000000000000000000000000000000000000000000000000000000000000000000000000000000000000000000000000000000000000000000000000000000 E"
b1000000000000000000000000000000000000 ("
b10000 |
b10000 a
b10000 }
1!
1$
#60
0!
0$
#65
b1 >"
b1 C
b11000 y
b11000 _
b11000 z
1+"
1A
02"
0N
1-"
1G
03"
0O
b1 :"
b1 c
b0 $"
b0 P
b11000 w
b11000 `
b100 E
b100000000000000000000010000 L
b101 *"
b100 )"
b1000 5"
b1000 q
b110000000000000000000000000000011000 x
b1100 [
b101 ~
b11000 v
b1100000000000000000000000000000000000 %"
b11000 Q
b10101000000000000000000000100 F
b101000000000000000000000000000001010000000000000000000000000000000001000000000000000000000000000000000000000000000000000000000000010000010100000100000000000000000000010000000000000001000 B"
b10100 M
b100000000000000000000000000000001000000000000000000000000000000000000000000000000000000000000000000000000000 U"
b10000 9
b10000 ;
b0 h
b0 s
b0 8"
b0 ?"
b1 <"
b0 7"
b0 g
b10100 |
b10100 a
b10100 }
b1010000010101000000000000000000000100 ("
b10000000000000000000000000000000000000000000000000000000000000000000000000000000000000000000000000000000000000000000000000000000000000000000000000000000000000000000000000000000000000000000000000000000000000000000000000000000000000000000000000000000000000000000000000000000000000000000000000000000000000000000000000000000000000000000000000000000000000000000000000000000000000000000000000000000000000000000000000000000000000000000000000000000000000000000000000000000000000000000000000000000000000000000000000000000000000000000000000000000000000000000000000000000000000000000000000000000000000000000000000000000000000000000000000000000000000000000000000000000000000000000000000000000000000000000000000000000000000000000000000000000000000000 4"
b1000010000000000000000000000000000001000000000000000000000000000000000000000000000000000000000000000000000000000000000000000000000000000000000000000000000000000000000000000000000000000000000 E"
b100000000000000000000000000000000110000000000000000000000000000000000000000000000000000000000000000000000000 X"
b10000000000000000000000000000000000000 a"
1!
1$
#70
0!
0$
#75
b0 >"
b0 C
1R"
1-
b11100 y
b11100 _
b11100 z
0+"
0A
12"
1N
0-"
0G
13"
1O
b0 :"
b0 <"
b0 c
b1100 H"
b1100 #
b1100 K"
b100000000010010000000000000001 $"
b100000000010010000000000000001 P
b11100 w
b11100 `
b1000000000000000000000000000000011100 x
b10000 [
0o
b0 E
b0 L
b0 *"
b0 )"
b0 5"
b0 q
b1000 '
b100000000000000000000010000 :
b101 8
b101 G"
b10000000000000000000000000000000000 I"
b100 1
b100 0
b100 F"
b1 .
b1 L"
b100100 9
b10100 ;
1)
0<
13
b10000000000000000000000000010010001000000000000000000000000000000000000000000000000000000000000000000000 U"
0=
b0 F
b1000010000000000000000000000000000001100000000000000000000000000000000000000000000000000000000000000000000000000000000000000000000000000000000000000000000000000000000000000000000000000000000 B"
b11000 M
b110 ~
b10000000000000000000001000000000000000000000000000000011100 v
b1110000100000000010010000000000000001 %"
b11100 Q
b100000000000000000000000000000001000000000000000000000000000000000000000000000000000000000000000000000000000 X"
b101000000000000000000000000000001010000000000000000000000000000000001000000000000000000000000000000000000000000000000000000000000010000010100000100000000000000000000010000000000000001000 E"
b1100000000000000000000000000000000000 ("
b11000 |
b11000 a
b11000 }
1!
1$
#80
0!
0$
#85
1+"
1A
1,"
1B
02"
0N
b100100 y
b100100 _
b100100 z
b0 $"
b0 P
b100000 w
b100000 `
0R"
0-
b100 H"
b100 #
b100 K"
1V"
1C"
1&"
1b
b1 E
b1001000000000000000100 L
b1000 *"
b1 )"
b1001 6"
b1001 r
1o
1T
b10010000000000000000000000000000100000 x
b100100 [
1V
b0 _"
0\
b111 ~
b10000000000000000000000000000000000000 %"
b100000 Q
b100000000010010000000000000001 F
b1000001100000000000000000000000000001110000000000000000000000000000000000000000000000000000000000000000000000000000000000000000000000000100100000000000001001000000000000000100010010000000000 B"
b11100 M
b0 '
b100000 v
b0 :
b0 8
b0 G"
b0 I"
b0 1
b0 0
b0 F"
b0 .
b0 L"
b11000 9
b11000 ;
0)
1<
03
b100000000000000000000000000000001100000000000000000000000000000000000000000000000000000000000000000000000000 U"
1=
b11100 |
b11100 a
b11100 }
b1110000100000000010010000000000000001 ("
b1000010000000000000000000000000000001100000000000000000000000000000000000000000000000000000000000000000000000000000000000000000000000000000000000000000000000000000000000000000000000000000000 E"
b10000000000000000000000000010010001000000000000000000000000000000000000000000000000000000000000000000000 X"
1!
1$
#90
0!
0$
#95
b101000 y
b101000 _
b101000 z
0+"
0A
0,"
0B
12"
1N
b10101100000010001111111111111111 $"
b10101100000010001111111111111111 P
b101000 w
b101000 `
0V"
0C"
0&"
0b
0T
b101000 x
b0 [
0V
0o
b0 E
b0 L
b0 *"
b0 )"
b0 6"
b0 r
0f
b0 9
b0 ;
0<
b0 U"
0=
b0 F
b1000010000000000000000000000000000000000000000000000000000000000000000000000000000000000000000000000000000000000000000000000000000000000000000000000000000000000000000000000000000000000000000 B"
b0 M
b1001 ~
b101000 v
b10100010101100000010001111111111111111 %"
b101000 Q
b0 a"
b0 X"
b0 E"
b0 ("
b100100 |
b100100 a
b100100 }
1!
1$
#100
0!
0$
#105
b1 A"
b1 D
b101100 y
b101100 _
b101100 z
1+"
1A
1,"
1B
02"
0N
11"
1K
03"
0O
b1 ;"
b1 ?"
b1 d
b10101100000010011111111111111111 $"
b10101100000010011111111111111111 P
b101100 w
b101100 x
b101100 `
b11111111111111111111111111111111 E
b1000111111111111111100 L
b101011 *"
b111111 )"
b1000 6"
b1000 r
1o
b1010 ~
b101100 v
b10110010101100000010011111111111111111 %"
b101100 Q
b10101100000010001111111111111111 F
b1001100000000000000000000000000010100000000000000000000000000000000000000000000000000000000000000000011111111111111111111111111111111110101100000000001000111111111111111100010001111100000 B"
b101000 M
1<
b100000000000000000000000000000000000000000000000000000000000000000000000000000000000000000000000000000000000 U"
1=
b101000 |
b101000 a
b101000 }
b10100010101100000010001111111111111111 ("
b1000010000000000000000000000000000000000000000000000000000000000000000000000000000000000000000000000000000000000000000000000000000000000000000000000000000000000000000000000000000000000000000 E"
1!
1$
#110
0!
0$
#115
b0 A"
b0 D
b11111111111111111111111111111111 O"
b1111111111111111111111111111111100000000000000000000000000000000 <"
b11111111111111111111111111111111 +
b110000 y
b110000 _
b110000 z
b0 ;"
b1111111111111111111111111111111100000000000000000000000000000000 ?"
b0 d
b11111111111111111111111111111111 J"
b11111111111111111111111111111111 %
b11111111111111111111111111111111 N"
b10 H"
b10 #
b10 K"
b1000 T"
b1000 >
b1000 n
b10001100000000001111111111111111 $"
b10001100000000001111111111111111 P
b110000 w
b110000 x
b110000 `
b10000000000000000000000000000000000000 _"
1\
b11111 M"
0o
b1001111111111111111100 L
b1001 6"
b1001 r
b11111 &
b1111101000 S"
b1000 (
b1000111111111111111100 :
b101011 8
b101011 G"
b111111 0
b111111 F"
b11111111111111111111111111111111 1
b11111111111111111111111111 2
b1111111111111111111111111111111100000000000000000000000000000001 I"
b1 /
b100100 9
b101000 ;
1,
1)
0<
17
b100000000000000000000000000010010000111111111111111111111111111111110000000000000000000000000000000101000 U"
0=
b10101100000010011111111111111111 F
b1001100000000000000000000000000010110000000000000000000000000000000000000000000000000000000000000000001111111111111111111111111111111110101100000000001001111111111111111100010011111100000 B"
b101100 M
b1011 ~
b100011111111111111110000000000000000000000000000110000 v
b11000010001100000000001111111111111111 %"
b110000 Q
b100000000000000000000000000000000000000000000000000000000000000000000000000000000000000000000000000000000000 X"
b1001100000000000000000000000000010100000000000000000000000000000000000000000000000000000000000000000011111111111111111111111111111111110101100000000001000111111111111111100010001111100000 E"
b10110010101100000010011111111111111111 ("
b101100 |
b101100 a
b101100 }
1!
1$
#120
0!
0$
#125
b110100 y
b110100 _
b110100 z
01"
0K
1/"
1I
10"
1J
13"
1O
b11111111111111111111111111111111 ^"
b111111111111111111111111111111111111111111111111111111111111111100000000000000000000000000000000 ?"
b111111111111111111111111111111111111111111111111111111111111111100000000000000000000000000000000 <"
b11111111111111111111111111111111 ]
b0 $"
b0 P
b1001 T"
b1001 >
b1001 n
b110100 w
b110100 `
b11111 Z"
b111111111111111100 L
b100011 *"
b0 6"
b0 r
b1000 ^
b1000 p
b1 U
b1 ["
b11111111111111111111111111111111 ]"
b11111111111111111111111111111111 S
b11111111111111111111111111111111 Y"
b10010000000000000000000000000000110100 x
b100100 [
1Z
b1111111111111111111111111111111101000 _"
0\
b1100 ~
b11010000000000000000000000000000000000 %"
b110100 Q
b10001100000000001111111111111111 F
b1110001100000000000000000000000000011000000000000000000000000000000000000000000000000000000000000000000001111111111111111111111111111111110001100000000000000111111111111111100000001111100000 B"
b110000 M
b1111101001 S"
b1001 (
b100111111111111111110000000000000000000000000000110100 v
b1001111111111111111100 :
b1111111111111111111111111111111100000000000000000000000000000000 I"
b0 /
b100000000000000000000000000010100000111111111111111111111111111111110000000000000000000000000000000001001 U"
b101000 9
b101100 ;
1f
b110000 |
b110000 a
b110000 }
b11000010001100000000001111111111111111 ("
b1001100000000000000000000000000010110000000000000000000000000000000000000000000000000000000000000000001111111111111111111111111111111110101100000000001001111111111111111100010011111100000 E"
b100000000000000000000000000010010000111111111111111111111111111111110000000000000000000000000000000101000 X"
b10000000000000000000000000000000000000 a"
1!
1$
#130
0!
0$
#135
b111000 y
b111000 _
b111000 z
0+"
0A
0,"
0B
12"
1N
0/"
0I
00"
0J
b0 T"
b0 >
b0 n
b111000 w
b111000 `
b1111111111111111111111111111111101001 _"
b1001 ^
b1001 p
b0 U
b0 ["
b10100000000000000000000000000000111000 x
b101000 [
b0 E
b0 L
b0 *"
b0 )"
b1000 h
b1000 s
b1000 8"
b11111111111111111111111111111111111111111111111111111111111111111111111111111111111111111111111100000000000000000000000000000000 ?"
b11111111111111111111111111111111111111111111111111111111111111111111111111111111111111111111111100000000000000000000000000000000 <"
b11111111111111111111111111111111 7"
b11111111111111111111111111111111 g
0f
b1111100000 S"
b0 (
b111111111111111100 :
b100011 8
b100011 G"
b101100 9
b110000 ;
07
15
16
b111000000000000000000000000000010110000111111111111111111111111111111110000000000000000000000000000000000000 U"
1=
b0 F
b1000010000000000000000000000000000011010000000000000000000000000000000000000000000000000000000000000000000000000000000000000000000000000000000000000000000000000000000000000000000000000000000 B"
b110100 M
b1101 ~
b11111111111111110000000000000000000000000000111000 v
b11100000000000000000000000000000000000 %"
b111000 Q
b1111111111111111111111111111111101000 a"
b100000000000000000000000000010100000111111111111111111111111111111110000000000000000000000000000000001001 X"
b1110001100000000000000000000000000011000000000000000000000000000000000000000000000000000000000000000000001111111111111111111111111111111110001100000000000000111111111111111100000001111100000 E"
b11010000000000000000000000000000000000 ("
b110100 |
b110100 a
b110100 }
1!
1$
#140
0!
0$
#145
b111100 y
b111100 _
b111100 z
b0 O"
b0 +
b0 ^"
b11111111111111111111111111111111000000000000000000000000000000000000000000000000000000000000000000000000000000000000000000000000 ?"
b11111111111111111111111111111111000000000000000000000000000000000000000000000000000000000000000000000000000000000000000000000000 <"
b0 ]
b111100 w
b111100 `
b0 J"
b0 %
b0 N"
b100 H"
b100 #
b100 K"
b0 M"
1o
b0 ^
b0 p
b10110000000000000000000000000000111100 x
b101100 [
0Z
1X
1Y
b10000000000000000000000000000000000000 _"
1\
b1110 ~
b11110000000000000000000000000000000000 %"
b111100 Q
b1000010000000000000000000000000000011100000000000000000000000000000000000000000000000000000000000000000000000000000000000000000000000000000000000000000000000000000000000000000000000000000000 B"
b111000 M
b0 S"
b0 &
b111100 v
b0 :
b0 8
b0 G"
b0 0
b0 F"
b0 I"
b0 1
b0 2
b110100 9
b110100 ;
0,
0)
1<
05
b100000000000000000000000000000011010000000000000000000000000000000000000000000000000000000000000000000000000 U"
06
b1001 h
b1001 s
b1001 8"
b111000 |
b111000 a
b111000 }
b11100000000000000000000000000000000000 ("
b1000010000000000000000000000000000011010000000000000000000000000000000000000000000000000000000000000000000000000000000000000000000000000000000000000000000000000000000000000000000000000000000 E"
b111000000000000000000000000000010110000111111111111111111111111111111110000000000000000000000000000000000000 X"
b1111111111111111111111111111111101001 a"
1!
1$
#150
0!
0$
#155
b1000000 y
b1000000 _
b1000000 z
b1000000 w
b1000000 `
b0 Z"
b0 ]"
b0 S
b0 Y"
b11010000000000000000000000000001000000 x
b110100 [
0X
0Y
b0 h
b0 s
b0 8"
b0 ?"
b0 <"
b0 7"
b0 g
1f
b100000000000000000000000000000011100000000000000000000000000000000000000000000000000000000000000000000000000 U"
b111000 9
b111000 ;
b1000010000000000000000000000000000011110000000000000000000000000000000000000000000000000000000000000000000000000000000000000000000000000000000000000000000000000000000000000000000000000000000 B"
b111100 M
b1111 ~
b1000000 v
b100000000000000000000000000000000000000 %"
b1000000 Q
b10000000000000000000000000000000000000 a"
b100000000000000000000000000000011010000000000000000000000000000000000000000000000000000000000000000000000000 X"
b1000010000000000000000000000000000011100000000000000000000000000000000000000000000000000000000000000000000000000000000000000000000000000000000000000000000000000000000000000000000000000000000 E"
b11110000000000000000000000000000000000 ("
b111100 |
b111100 a
b111100 }
1!
1$
#160
0!
0$
#165
b1000100 y
b1000100 _
b1000100 z
b1000100 w
b1000100 `
b11100000000000000000000000000001000100 x
b111000 [
b10000 ~
b1000100 v
b100010000000000000000000000000000000000 %"
b1000100 Q
b1000010000000000000000000000000000100000000000000000000000000000000000000000000000000000000000000000000000000000000000000000000000000000000000000000000000000000000000000000000000000000000000 B"
b1000000 M
b100000000000000000000000000000011110000000000000000000000000000000000000000000000000000000000000000000000000 U"
b111100 9
b111100 ;
b1000000 |
b1000000 a
b1000000 }
b100000000000000000000000000000000000000 ("
b1000010000000000000000000000000000011110000000000000000000000000000000000000000000000000000000000000000000000000000000000000000000000000000000000000000000000000000000000000000000000000000000 E"
b100000000000000000000000000000011100000000000000000000000000000000000000000000000000000000000000000000000000 X"
1!
1$
