traces/chars.vcd
$date
	Tue Nov 17 23:02:17 2015
$end
$version
	Icarus Verilog
$end
$timescale
	1s
$end
$scope module cpu_tb $end
$var reg 1 ! clk $end
$var reg 1 " reset $end
$scope module cpu $end
$var wire 4 # aluop [3:0] $end
$var wire 1 $ clk $end
$var wire 32 % data_rt [31:0] $end
$var wire 5 & dst_rd [4:0] $end
$var wire 5 ' dst_rs [4:0] $end
$var wire 5 ( dst_rt [4:0] $end
$var wire 1 ) ex_aluop $end
$var wire 1 * ex_aluovf $end
$var wire 32 + ex_alures [31:0] $end
$var wire 1 , ex_alusrc $end
$var wire 1 - ex_aluz $end
$var wire 32 . ex_data_rs [31:0] $end
$var wire 32 / ex_data_rt [31:0] $end
$var wire 6 0 ex_funct [5:0] $end
$var wire 32 1 ex_imm [31:0] $end
$var wire 26 2 ex_imm_top [25:0] $end
$var wire 1 3 ex_isbranch $end
$var wire 1 4 ex_isjump $end
$var wire 1 5 ex_memread $end
$var wire 1 6 ex_memtoreg $end
$var wire 1 7 ex_memwrite $end
$var wire 6 8 ex_opcode [5:0] $end
$var wire 32 9 ex_pc_branch [31:0] $end
$var wire 32 : ex_pc_jump [31:0] $end
$var wire 32 ; ex_pc_next [31:0] $end
$var wire 1 < ex_regdst $end
$var wire 1 = ex_regwrite $end
$var wire 5 > ex_wreg [4:0] $end
$var wire 2 ? fwdctrl_rs [1:0] $end
$var wire 2 @ fwdctrl_rt [1:0] $end
$var wire 1 A id_aluop $end
$var wire 1 B id_alusrc $end
$var wire 32 C id_data_rs [31:0] $end
$var wire 32 D id_data_rt [31:0] $end
$var wire 32 E id_imm [31:0] $end
$var wire 32 F id_instr [31:0] $end
$var wire 1 G id_isbranch $end
$var wire 1 H id_isjump $end
$var wire 1 I id_memread $end
$var wire 1 J id_memtoreg $end
$var wire 1 K id_memwrite $end
$var wire 32 L id_pc_jump [31:0] $end
$var wire 32 M id_pc_next [31:0] $end
$var wire 1 N id_regdst $end
$var wire 1 O id_regwrite $end
$var wire 32 P if_instr [31:0] $end
$var wire 32 Q if_pc_next [31:0] $end
$var wire 1 R mem_aluovf $end
$var wire 32 S mem_alures [31:0] $end
$var wire 1 T mem_aluz $end
$var wire 32 U mem_data_rt [31:0] $end
$var wire 1 V mem_isbranch $end
$var wire 32 W mem_memout [31:0] $end
$var wire 1 X mem_memread $end
$var wire 1 Y mem_memtoreg $end
$var wire 1 Z mem_memwrite $end
$var wire 32 [ mem_pc_branch [31:0] $end
$var wire 1 \ mem_regwrite $end
$var wire 32 ] mem_wdata [31:0] $end
$var wire 5 ^ mem_wreg [4:0] $end
$var wire 32 _ pc_in [31:0] $end
$var wire 32 ` pc_interm [31:0] $end
$var wire 32 a pc_out [31:0] $end
$var wire 1 b pc_take_branch $end
$var wire 32 c reg_rs [31:0] $end
$var wire 32 d reg_rt [31:0] $end
$var wire 1 e reset $end
$var wire 1 f wb_regwrite $end
$var wire 32 g wb_wdata [31:0] $end
$var wire 5 h wb_wreg [4:0] $end
$var reg 1 i ex_mem_we $end
$var reg 1 j id_ex_we $end
$var reg 1 k if_id_we $end
$var reg 1 l mem_wb_we $end
$var reg 1 m pc_we $end
$scope module fwdcontrol $end
$var wire 5 n ex_dst [4:0] $end
$var wire 1 o ex_rw $end
$var wire 5 p mem_dst [4:0] $end
$var wire 1 \ mem_rw $end
$var wire 5 q rs [4:0] $end
$var wire 5 r rt [4:0] $end
$var wire 5 s wb_dst [4:0] $end
$var wire 1 f wb_rw $end
$var reg 2 t ctrl_rs [1:0] $end
$var reg 2 u ctrl_rt [1:0] $end
$upscope $end
$scope module pc_jmux $end
$var wire 64 v in_data [63:0] $end
$var wire 1 4 select $end
$var reg 32 w out_data [31:0] $end
$upscope $end
$scope module pc_bmux $end
$var wire 64 x in_data [63:0] $end
$var wire 1 b select $end
$var reg 32 y out_data [31:0] $end
$upscope $end
$scope module pc $end
$var wire 1 $ clk $end
$var wire 32 z in [31:0] $end
$var wire 1 e reset $end
$var wire 1 { we $end
$var reg 32 | out [31:0] $end
$upscope $end
$scope module imem $end
$var wire 32 } addr [31:0] $end
$var wire 1 $ clk $end
$var wire 5 ~ index [4:0] $end
$var wire 1 !" memread $end
$var wire 1 "" memwrite $end
$var wire 1 e reset $end
$var wire 32 #" wdata [31:0] $end
$var reg 32 $" rdata [31:0] $end
$upscope $end
$scope module if_id $end
$var wire 1 $ clk $end
$var wire 64 %" in [63:0] $end
$var wire 1 &" reset $end
$var wire 1 '" we $end
$var reg 64 (" out [63:0] $end
$upscope $end
$scope module control $end
$var wire 6 )" funct [5:0] $end
$var wire 6 *" opcode [5:0] $end
$var reg 1 +" aluop $end
$var reg 1 ," alusrc $end
$var reg 1 -" isbranch $end
$var reg 1 ." isjump $end
$var reg 1 /" memread $end
$var reg 1 0" memtoreg $end
$var reg 1 1" memwrite $end
$var reg 1 2" regdst $end
$var reg 1 3" regwrite $end
$upscope $end
$scope module regfile $end
$var wire 1 $ clk $end
$var wire 1 f regwrite $end
$var wire 1 e reset $end
$var wire 5 4" rreg1 [4:0] $end
$var wire 5 5" rreg2 [4:0] $end
$var wire 33 6" wdata [32:0] $end
$var wire 5 7" wreg [4:0] $end
$var integer 32 8" i [31:0] $end
$var reg 32 9" rdata1 [31:0] $end
$var reg 32 :" rdata2 [31:0] $end
$upscope $end
$scope module data_rs_mux $end
$var wire 128 ;" in_data [127:0] $end
$var wire 2 <" select [1:0] $end
$var reg 32 =" out_data [31:0] $end
$upscope $end
$scope module data_rt_mux $end
$var wire 128 >" in_data [127:0] $end
$var wire 2 ?" select [1:0] $end
$var reg 32 @" out_data [31:0] $end
$upscope $end
$scope module id_ex $end
$var wire 1 $ clk $end
$var wire 190 A" in [189:0] $end
$var wire 1 B" reset $end
$var wire 1 C" we $end
$var reg 190 D" out [189:0] $end
$upscope $end
$scope module alucontrol $end
$var wire 1 ) aluop_in $end
$var wire 6 E" funct [5:0] $end
$var wire 6 F" opcode [5:0] $end
$var reg 4 G" aluop_out [3:0] $end
$upscope $end
$scope module t_mux $end
$var wire 64 H" in_data [63:0] $end
$var wire 1 , select $end
$var reg 32 I" out_data [31:0] $end
$upscope $end
$scope module alu $end
$var wire 4 J" aluop [3:0] $end
$var wire 32 K" s [31:0] $end
$var wire 5 L" shamt [4:0] $end
$var wire 32 M" t [31:0] $end
$var reg 32 N" out [31:0] $end
$var reg 1 O" overflow $end
$var reg 64 P" tmp [63:0] $end
$var reg 1 Q" zero $end
$upscope $end
$scope module dst_mux $end
$var wire 10 R" in_data [9:0] $end
$var wire 1 < select $end
$var reg 5 S" out_data [4:0] $end
$upscope $end
$scope module ex_mem $end
$var wire 1 $ clk $end
$var wire 110 T" in [109:0] $end
$var wire 1 U" reset $end
$var wire 1 V" we $end
$var reg 110 W" out [109:0] $end
$upscope $end
$scope module dmem $end
$var wire 32 X" addr [31:0] $end
$var wire 1 $ clk $end
$var wire 5 Y" index [4:0] $end
$var wire 1 X memread $end
$var wire 1 Z memwrite $end
$var wire 1 e reset $end
$var wire 32 Z" wdata [31:0] $end
$var reg 32 [" rdata [31:0] $end
$upscope $end
$scope module mem_mux $end
$var wire 64 \" in_data [63:0] $end
$var wire 1 Y select $end
$var reg 32 ]" out_data [31:0] $end
$upscope $end
$scope module mem_wb $end
$var wire 1 $ clk $end
$var wire 38 ^" in [37:0] $end
$var wire 1 e reset $end
$var wire 1 _" we $end
$var reg 38 `" out [37:0] $end
$upscope $end
$upscope $end
$upscope $end
$enddefinitions $end
#0
$dumpvars
b0 `"
1_"
b0 ^"
b0 ]"
b0 \"
b0 ["
b0 Z"
b0 Y"
b0 X"
b0 W"
1V"
1U"
b0 T"
b0 S"
b0 R"
0Q"
b0 P"
0O"
b0 N"
b0 M"
b0 L"
b0 K"
b100 J"
b0 I"
b0 H"
b100 G"
b0 F"
b0 E"
b0 D"
1C"
1B"
b1000010000000000000000000000000000000000000000000000000000000000000000000000000000000000000000000000000000000000000000000000000000000000000000000000000000000000000000000000000000000000000000 A"
b0 @"
b0 ?"
b0 >"
b0 ="
b0 <"
b0 ;"
b0 :"
b0 9"
bx 8"
b0 7"
b0 6"
b0 5"
b0 4"
13"
12"
01"
00"
0/"
0."
0-"
0,"
0+"
b0 *"
b0 )"
b0 ("
1'"
1&"
b100xxxxxxxxxxxxxxxxxxxxxxxxxxxxxxxx %"
bx $"
b0 #"
0""
1!"
b0 ~
b0 }
b0 |
1{
b100 z
b100 y
b100 x
b100 w
b100 v
b0 u
b0 t
b0 s
b0 r
b0 q
b0 p
0o
b0 n
1m
1l
1k
1j
1i
b0 h
b0 g
0f
1e
b0 d
b0 c
0b
b0 a
b100 `
b100 _
b0 ^
b0 ]
0\
b0 [
0Z
0Y
0X
b0 W
0V
b0 U
0T
b0 S
0R
b100 Q
bx P
1O
1N
b0 M
b0 L
0K
0J
0I
0H
0G
b0 F
b0 E
b0 D
b0 C
0B
0A
b0 @
b0 ?
b0 >
0=
0<
b0 ;
b0 :
b0 9
b0 8
07
06
05
04
03
b0 2
b0 1
b0 0
b0 /
b0 .
0-
0,
b0 +
0*
0)
b0 (
b0 '
b0 &
b0 %
0$
b100 #
1"
0!
$end
#5
b100000 8"
1!
1$
#10
0!
0$
#15
b100000000010001111111111111111 $"
b10000100000000010001111111111111111 %"
b100000000010001111111111111111 P
0&"
0B"
0U"
0"
0e
b100000 8"
1!
1$
#20
0!
0$
#25
b1000 y
b1000 _
b1000 z
1+"
1A
1,"
1B
02"
0N
b100000000010010000000001000001 $"
b100000000010010000000001000001 P
b1000 w
b1000 x
b1000 `
b11111111111111111111111111111111 E
b1000111111111111111100 L
b1000 *"
b111111 )"
b1000 5"
b1000 r
1o
b1 ~
b1000 v
b100000100000000010010000000001000001 %"
b1000 Q
b100000000010001111111111111111 F
b1000001100000000000000000000000000000010000000000000000000000000000000000000000000000000000000000000000001111111111111111111111111111111100100000000000001000111111111111111100010001111100000 A"
b100 M
1<
b100000000000000000000000000000000000000000000000000000000000000000000000000000000000000000000000000000000000 T"
1=
b100 |
b100 a
b100 }
b10000100000000010001111111111111111 ("
b1000010000000000000000000000000000000000000000000000000000000000000000000000000000000000000000000000000000000000000000000000000000000000000000000000000000000000000000000000000000000000000000 D"
1!
1$
#30
0!
0$
#35
b11111111111111111111111111111111 N"
b1111111111111111111111111111111100000000000000000000000000000000 >"
b1111111111111111111111111111111100000000000000000000000000000000 ;"
b11111111111111111111111111111111 +
b1100 y
b1100 _
b1100 z
b11111111111111111111111111111111 I"
b11111111111111111111111111111111 %
b11111111111111111111111111111111 M"
b10 G"
b10 #
b10 J"
b1000 S"
b1000 >
b1000 n
b10101101000010010000000000000000 $"
b10101101000010010000000000000000 P
b1100 w
b1100 x
b1100 `
b10000000000000000000000000000000000000 ^"
1\
b11111 L"
b1000001 E
b1001000000000100000100 L
b1 )"
b1001 5"
b1001 r
b11111 &
b1111101000 R"
b1000 (
b1000111111111111111100 :
b1000 8
b1000 F"
b111111 0
b111111 E"
b1111111111111111111111111111111100000000000000000000000000000000 H"
b11111111111111111111111111111111 1
b11111111111111111111111111 2
b100000000000000000000000000000000000000111111111111111111111111111111110000000000000000000000000000000001000 T"
b0 9
b100 ;
1,
1)
0<
b100000000010010000000001000001 F
b1000001100000000000000000000000000000100000000000000000000000000000000000000000000000000000000000000000000000000000000000000000000100000100100000000000001001000000000100000100010010000000000 A"
b1000 M
b10 ~
b100011111111111111110000000000000000000000000000001100 v
b110010101101000010010000000000000000 %"
b1100 Q
b100000000000000000000000000000000000000000000000000000000000000000000000000000000000000000000000000000000000 W"
b1000001100000000000000000000000000000010000000000000000000000000000000000000000000000000000000000000000001111111111111111111111111111111100100000000000001000111111111111111100010001111100000 D"
b100000100000000010010000000001000001 ("
b1000 |
b1000 a
b1000 }
1!
1$
#40
0!
0$
#45
b1000001 @"
b1000001 D
b10000 y
b10000 _
b10000 z
0O"
0*
b1000001 N"
b1000001 +
b1 u
b1 @
b1 ?"
b11111111111111111111111111111111 ="
b11111111111111111111111111111111 C
11"
1K
03"
0O
b11111111111111111111111111111111 ]"
b111111111111111111111111111111110000000000000000000000000100000100000000000000000000000000000000 >"
b111111111111111111111111111111110000000000000000000000000100000100000000000000000000000000000000 ;"
b11111111111111111111111111111111 ]
b0 $"
b0 P
b1001 S"
b1001 >
b1001 n
b10000 w
b10000 x
b10000 `
b1000001 I"
b1000001 %
b1000001 M"
b10 t
b10 ?
b10 <"
b11111 Y"
b0 E
b100001001000000000000000000 L
b101011 *"
b0 )"
b1000 4"
b1000 q
b1 L"
b11111111111111111111111111111111101000 ^"
b1000 ^
b1000 p
b11111111111111111111111111111111 \"
b11111111111111111111111111111111 S
b11111111111111111111111111111111 X"
b11 ~
b1000000000000000000000000000000000000 %"
b10000 Q
b10101101000010010000000000000000 F
b1001100000000000000000000000000000110011111111111111111111111111111111000000000000000000000000010000010000000000000000000000000000000010101100000100001001000000000000000000010010000001000 A"
b1100 M
b0 &
b1001 R"
b1001 (
b100100000000010000010000000000000000000000000000010000 v
b1001000000000100000100 :
b1 0
b1 E"
b100000100000000000000000000000000000000 H"
b1000001 1
b1 2
b100000000000000000000000000010000110000000000000000000000000000010000010000000000000000000000000000000001001 T"
b100001100 9
b1000 ;
1f
b1100 |
b1100 a
b1100 }
b110010101101000010010000000000000000 ("
b1000001100000000000000000000000000000100000000000000000000000000000000000000000000000000000000000000000000000000000000000000000000100000100100000000000001001000000000100000100010010000000000 D"
b100000000000000000000000000000000000000111111111111111111111111111111110000000000000000000000000000000001000 W"
b10000000000000000000000000000000000000 `"
1!
1$
#50
0!
0$
#55
b10100 y
b10100 _
b10100 z
b0 @"
b0 D
b0 ="
b0 C
b1000001 ]"
b1000001 ]
0+"
0A
0,"
0B
12"
1N
01"
0K
13"
1O
b0 I"
b0 %
b0 M"
b11111111111111111111111111111111 N"
b11111111111111111111111111111111 +
b10100 w
b10100 `
b10000 Y"
b0 u
b0 @
b0 ?"
b0 t
b0 ?
b0 <"
b10000000000000000000000000100000101001 ^"
b1001 ^
b1001 p
b1000001 \"
b1000001 S
b1000001 X"
b10000110000000000000000000000000000010100 x
b100001100 [
b0 L"
0o
b0 L
b0 *"
b0 4"
b0 5"
b0 r
b0 q
b1000 h
b1000 s
b1000 7"
b11111111111111111111111111111111000000000000000000000000010000011111111111111111111111111111111100000000000000000000000000000000 >"
b11111111111111111111111111111111000000000000000000000000010000011111111111111111111111111111111100000000000000000000000000000000 ;"
b11111111111111111111111111111111 6"
b11111111111111111111111111111111 g
b1000 '
b100001001000000000000000000 :
b101011 8
b101011 F"
b0 0
b0 E"
b0 1
b0 2
b1000001 H"
b1000001 /
b11111111111111111111111111111111 .
b11111111111111111111111111111111 K"
b1100 9
b1100 ;
17
b100000000000000000000000000000110000111111111111111111111111111111110000000000000000000000000100000101001 T"
0=
b0 F
b1000010000000000000000000000000000001000000000000000000000000000000000000000000000000000000000000000000000000000000000000000000000000000000000000000000000000000000000000000000000000000000000 A"
b10000 M
b100 ~
b10000100100000000000000000000000000000000000000000000010100 v
b1010000000000000000000000000000000000 %"
b10100 Q
b11111111111111111111111111111111101000 `"
b100000000000000000000000000010000110000000000000000000000000000010000010000000000000000000000000000000001001 W"
b1001100000000000000000000000000000110011111111111111111111111111111111000000000000000000000000010000010000000000000000000000000000000010101100000100001001000000000000000000010010000001000 D"
b1000000000000000000000000000000000000 ("
b10000 |
b10000 a
b10000 }
1!
1$
#60
0!
0$
#65
b11000 y
b11000 _
b11000 z
b11111111111111111111111111111111 ]"
b11111111111111111111111111111111 ]
b11000 w
b11000 `
0O"
0*
b0 N"
b0 +
b100 G"
b100 #
b100 J"
b0 S"
b0 >
b0 n
b11111 Y"
1o
b1000001 U
b1000001 Z"
b11111111111111111111111111111111 \"
b11111111111111111111111111111111 S
b11111111111111111111111111111111 X"
b110000000000000000000000000000011000 x
b1100 [
1Z
b1111111111111111111111111111111101001 ^"
0\
b101 ~
b1100000000000000000000000000000000000 %"
b11000 Q
b1000010000000000000000000000000000001010000000000000000000000000000000000000000000000000000000000000000000000000000000000000000000000000000000000000000000000000000000000000000000000000000000 A"
b10100 M
b0 '
b0 R"
b0 (
b11000 v
b0 :
b0 8
b0 F"
b0 H"
b0 /
b0 .
b0 K"
b10000 9
b10000 ;
0,
0)
1<
07
b100000000000000000000000000000001000000000000000000000000000000000000000000000000000000000000000000000000000 T"
1=
b1001 h
b1001 s
b1001 7"
b1000001111111111111111111111111111111110000000000000000000000000000000000000000000000000000000000000000 >"
b1000001111111111111111111111111111111110000000000000000000000000000000000000000000000000000000000000000 ;"
b1000001 6"
b1000001 g
b10100 |
b10100 a
b10100 }
b1010000000000000000000000000000000000 ("
b1000010000000000000000000000000000001000000000000000000000000000000000000000000000000000000000000000000000000000000000000000000000000000000000000000000000000000000000000000000000000000000000 D"
b100000000000000000000000000000110000111111111111111111111111111111110000000000000000000000000100000101001 W"
b10000000000000000000000000100000101001 `"
1!
1$
#70
0!
0$
#75
b11100 y
b11100 _
b11100 z
b0 ]"
b0 ]
b11100 w
b11100 `
b0 Y"
b0 ^
b0 p
b0 U
b0 Z"
b0 \"
b0 S
b0 X"
b1000000000000000000000000000000011100 x
b10000 [
0Z
b10000000000000000000000000000000000000 ^"
1\
b11111111111111111111111111111111000000000000000000000000000000000000000000000000000000000000000000000000000000000000000000000000 >"
b11111111111111111111111111111111000000000000000000000000000000000000000000000000000000000000000000000000000000000000000000000000 ;"
b11111111111111111111111111111111 6"
b11111111111111111111111111111111 g
0f
b100000000000000000000000000000001010000000000000000000000000000000000000000000000000000000000000000000000000 T"
b10100 9
b10100 ;
b1000010000000000000000000000000000001100000000000000000000000000000000000000000000000000000000000000000000000000000000000000000000000000000000000000000000000000000000000000000000000000000000 A"
b11000 M
b110 ~
b11100 v
b1110000000000000000000000000000000000 %"
b11100 Q
b1111111111111111111111111111111101001 `"
b100000000000000000000000000000001000000000000000000000000000000000000000000000000000000000000000000000000000 W"
b1000010000000000000000000000000000001010000000000000000000000000000000000000000000000000000000000000000000000000000000000000000000000000000000000000000000000000000000000000000000000000000000 D"
b1100000000000000000000000000000000000 ("
b11000 |
b11000 a
b11000 }
1!
1$
#80
0!
0$
#85
b100000 y
b100000 _
b100000 z
b100000 w
b100000 `
b1010000000000000000000000000000100000 x
b10100 [
b111 ~
b100000 v
b10000000000000000000000000000000000000 %"
b100000 Q
b1000010000000000000000000000000000001110000000000000000000000000000000000000000000000000000000000000000000000000000000000000000000000000000000000000000000000000000000000000000000000000000000 A"
b11100 M
b100000000000000000000000000000001100000000000000000000000000000000000000000000000000000000000000000000000000 T"
b11000 9
b11000 ;
b0 h
b0 s
b0 7"
b0 >"
b0 ;"
b0 6"
b0 g
1f
b11100 |
b11100 a
b11100 }
b1110000000000000000000000000000000000 ("
b1000010000000000000000000000000000001100000000000000000000000000000000000000000000000000000000000000000000000000000000000000000000000000000000000000000000000000000000000000000000000000000000 D"
b100000000000000000000000000000001010000000000000000000000000000000000000000000000000000000000000000000000000 W"
b10000000000000000000000000000000000000 `"
1!
1$
#90
0!
0$
#95
b100100 y
b100100 _
b100100 z
b100100 w
b100100 `
b1100000000000000000000000000000100100 x
b11000 [
b100000000000000000000000000000001110000000000000000000000000000000000000000000000000000000000000000000000000 T"
b11100 9
b11100 ;
b1000010000000000000000000000000000010000000000000000000000000000000000000000000000000000000000000000000000000000000000000000000000000000000000000000000000000000000000000000000000000000000000 A"
b100000 M
b1000 ~
b100100 v
b10010000000000000000000000000000000000 %"
b100100 Q
b100000000000000000000000000000001100000000000000000000000000000000000000000000000000000000000000000000000000 W"
b1000010000000000000000000000000000001110000000000000000000000000000000000000000000000000000000000000000000000000000000000000000000000000000000000000000000000000000000000000000000000000000000 D"
b10000000000000000000000000000000000000 ("
b100000 |
b100000 a
b100000 }
1!
1$
#100
0!
0$
#105
b101000 y
b101000 _
b101000 z
b101000 w
b101000 `
b1110000000000000000000000000000101000 x
b11100 [
b1001 ~
b101000 v
b10100000000000000000000000000000000000 %"
b101000 Q
b1000010000000000000000000000000000010010000000000000000000000000000000000000000000000000000000000000000000000000000000000000000000000000000000000000000000000000000000000000000000000000000000 A"
b100100 M
b100000000000000000000000000000010000000000000000000000000000000000000000000000000000000000000000000000000000 T"
b100000 9
b100000 ;
b100100 |
b100100 a
b100100 }
b10010000000000000000000000000000000000 ("
b1000010000000000000000000000000000010000000000000000000000000000000000000000000000000000000000000000000000000000000000000000000000000000000000000000000000000000000000000000000000000000000000 D"
b100000000000000000000000000000001110000000000000000000000000000000000000000000000000000000000000000000000000 W"
1!
1$
#110
0!
0$
#115
b101100 y
b101100 _
b101100 z
b101100 w
b101100 `
b10000000000000000000000000000000101100 x
b100000 [
b100000000000000000000000000000010010000000000000000000000000000000000000000000000000000000000000000000000000 T"
b100100 9
b100100 ;
b1000010000000000000000000000000000010100000000000000000000000000000000000000000000000000000000000000000000000000000000000000000000000000000000000000000000000000000000000000000000000000000000 A"
b101000 M
b1010 ~
b101100 v
b10110000000000000000000000000000000000 %"
b101100 Q
b100000000000000000000000000000010000000000000000000000000000000000000000000000000000000000000000000000000000 W"
b1000010000000000000000000000000000010010000000000000000000000000000000000000000000000000000000000000000000000000000000000000000000000000000000000000000000000000000000000000000000000000000000 D"
b10100000000000000000000000000000000000 ("
b101000 |
b101000 a
b101000 }
1!
1$
#120
0!
0$
#125
b110000 y
b110000 _
b110000 z
b110000 w
b110000 `
b10010000000000000000000000000000110000 x
b100100 [
b1011 ~
b110000 v
b11000000000000000000000000000000000000 %"
b110000 Q
b1000010000000000000000000000000000010110000000000000000000000000000000000000000000000000000000000000000000000000000000000000000000000000000000000000000000000000000000000000000000000000000000 A"
b101100 M
b100000000000000000000000000000010100000000000000000000000000000000000000000000000000000000000000000000000000 T"
b101000 9
b101000 ;
b101100 |
b101100 a
b101100 }
b10110000000000000000000000000000000000 ("
b1000010000000000000000000000000000010100000000000000000000000000000000000000000000000000000000000000000000000000000000000000000000000000000000000000000000000000000000000000000000000000000000 D"
b100000000000000000000000000000010010000000000000000000000000000000000000000000000000000000000000000000000000 W"
1!
1$
#130
0!
0$
#135
b110100 y
b110100 _
b110100 z
b110100 w
b110100 `
b10100000000000000000000000000000110100 x
b101000 [
b100000000000000000000000000000010110000000000000000000000000000000000000000000000000000000000000000000000000 T"
b101100 9
b101100 ;
b1000010000000000000000000000000000011000000000000000000000000000000000000000000000000000000000000000000000000000000000000000000000000000000000000000000000000000000000000000000000000000000000 A"
b110000 M
b1100 ~
b110100 v
b11010000000000000000000000000000000000 %"
b110100 Q
b100000000000000000000000000000010100000000000000000000000000000000000000000000000000000000000000000000000000 W"
b1000010000000000000000000000000000010110000000000000000000000000000000000000000000000000000000000000000000000000000000000000000000000000000000000000000000000000000000000000000000000000000000 D"
b11000000000000000000000000000000000000 ("
b110000 |
b110000 a
b110000 }
1!
1$
#140
0!
0$
#145
b111000 y
b111000 _
b111000 z
b111000 w
b111000 `
b10110000000000000000000000000000111000 x
b101100 [
b1101 ~
b111000 v
b11100000000000000000000000000000000000 %"
b111000 Q
b1000010000000000000000000000000000011010000000000000000000000000000000000000000000000000000000000000000000000000000000000000000000000000000000000000000000000000000000000000000000000000000000 A"
b110100 M
b100000000000000000000000000000011000000000000000000000000000000000000000000000000000000000000000000000000000 T"
b110000 9
b110000 ;
b110100 |
b110100 a
b110100 }
b11010000000000000000000000000000000000 ("
b1000010000000000000000000000000000011000000000000000000000000000000000000000000000000000000000000000000000000000000000000000000000000000000000000000000000000000000000000000000000000000000000 D"
b100000000000000000000000000000010110000000000000000000000000000000000000000000000000000000000000000000000000 W"
1!
1$
#150
0!
0$
#155
b111100 y
b111100 _
b111100 z
b111100 w
b111100 `
b11000000000000000000000000000000111100 x
b110000 [
b100000000000000000000000000000011010000000000000000000000000000000000000000000000000000000000000000000000000 T"
b110100 9
b110100 ;
b1000010000000000000000000000000000011100000000000000000000000000000000000000000000000000000000000000000000000000000000000000000000000000000000000000000000000000000000000000000000000000000000 A"
b111000 M
b1110 ~
b111100 v
b11110000000000000000000000000000000000 %"
b111100 Q
b100000000000000000000000000000011000000000000000000000000000000000000000000000000000000000000000000000000000 W"
b1000010000000000000000000000000000011010000000000000000000000000000000000000000000000000000000000000000000000000000000000000000000000000000000000000000000000000000000000000000000000000000000 D"
b11100000000000000000000000000000000000 ("
b111000 |
b111000 a
b111000 }
1!
1$
#160
0!
0$
#165
b1000000 y
b1000000 _
b1000000 z
b1000000 w
b1000000 `
b11010000000000000000000000000001000000 x
b110100 [
b1111 ~
b1000000 v
b100000000000000000000000000000000000000 %"
b1000000 Q
b1000010000000000000000000000000000011110000000000000000000000000000000000000000000000000000000000000000000000000000000000000000000000000000000000000000000000000000000000000000000000000000000 A"
b111100 M
b100000000000000000000000000000011100000000000000000000000000000000000000000000000000000000000000000000000000 T"
b111000 9
b111000 ;
b111100 |
b111100 a
b111100 }
b11110000000000000000000000000000000000 ("
b1000010000000000000000000000000000011100000000000000000000000000000000000000000000000000000000000000000000000000000000000000000000000000000000000000000000000000000000000000000000000000000000 D"
b100000000000000000000000000000011010000000000000000000000000000000000000000000000000000000000000000000000000 W"
1!
1$
#170
0!
0$
#175
b1000100 y
b1000100 _
b1000100 z
b1000100 w
b1000100 `
b11100000000000000000000000000001000100 x
b111000 [
b100000000000000000000000000000011110000000000000000000000000000000000000000000000000000000000000000000000000 T"
b111100 9
b111100 ;
b1000010000000000000000000000000000100000000000000000000000000000000000000000000000000000000000000000000000000000000000000000000000000000000000000000000000000000000000000000000000000000000000 A"
b1000000 M
b10000 ~
b1000100 v
b100010000000000000000000000000000000000 %"
b1000100 Q
b100000000000000000000000000000011100000000000000000000000000000000000000000000000000000000000000000000000000 W"
b1000010000000000000000000000000000011110000000000000000000000000000000000000000000000000000000000000000000000000000000000000000000000000000000000000000000000000000000000000000000000000000000 D"
b100000000000000000000000000000000000000 ("
b1000000 |
b1000000 a
b1000000 }
1!
1$
#180
0!
0$
#185
b1001000 y
b1001000 _
b1001000 z
b1001000 w
b1001000 `
b11110000000000000000000000000001001000 x
b111100 [
b10001 ~
b1001000 v
b100100000000000000000000000000000000000 %"
b1001000 Q
b1000010000000000000000000000000000100010000000000000000000000000000000000000000000000000000000000000000000000000000000000000000000000000000000000000000000000000000000000000000000000000000000 A"
b1000100 M
b100000000000000000000000000000100000000000000000000000000000000000000000000000000000000000000000000000000000 T"
b1000000 9
b1000000 ;
b1000100 |
b1000100 a
b1000100 }
b100010000000000000000000000000000000000 ("
b1000010000000000000000000000000000100000000000000000000000000000000000000000000000000000000000000000000000000000000000000000000000000000000000000000000000000000000000000000000000000000000000 D"
b100000000000000000000000000000011110000000000000000000000000000000000000000000000000000000000000000000000000 W"
1!
1$
#190
0!
0$
#195
b1001100 y
b1001100 _
b1001100 z
b1001100 w
b1001100 `
b100000000000000000000000000000001001100 x
b1000000 [
b100000000000000000000000000000100010000000000000000000000000000000000000000000000000000000000000000000000000 T"
b1000100 9
b1000100 ;
b1000010000000000000000000000000000100100000000000000000000000000000000000000000000000000000000000000000000000000000000000000000000000000000000000000000000000000000000000000000000000000000000 A"
b1001000 M
b10010 ~
b1001100 v
b100110000000000000000000000000000000000 %"
b1001100 Q
b100000000000000000000000000000100000000000000000000000000000000000000000000000000000000000000000000000000000 W"
b1000010000000000000000000000000000100010000000000000000000000000000000000000000000000000000000000000000000000000000000000000000000000000000000000000000000000000000000000000000000000000000000 D"
b100100000000000000000000000000000000000 ("
b1001000 |
b1001000 a
b1001000 }
1!
1$
#200
0!
0$
#205
b1010000 y
b1010000 _
b1010000 z
b1010000 w
b1010000 `
b100010000000000000000000000000001010000 x
b1000100 [
b10011 ~
b1010000 v
b101000000000000000000000000000000000000 %"
b1010000 Q
b1000010000000000000000000000000000100110000000000000000000000000000000000000000000000000000000000000000000000000000000000000000000000000000000000000000000000000000000000000000000000000000000 A"
b1001100 M
b100000000000000000000000000000100100000000000000000000000000000000000000000000000000000000000000000000000000 T"
b1001000 9
b1001000 ;
b1001100 |
b1001100 a
b1001100 }
b100110000000000000000000000000000000000 ("
b1000010000000000000000000000000000100100000000000000000000000000000000000000000000000000000000000000000000000000000000000000000000000000000000000000000000000000000000000000000000000000000000 D"
b100000000000000000000000000000100010000000000000000000000000000000000000000000000000000000000000000000000000 W"
1!
1$
#210
0!
0$
#215
b1010100 y
b1010100 _
b1010100 z
b1010100 w
b1010100 `
b100100000000000000000000000000001010100 x
b1001000 [
b100000000000000000000000000000100110000000000000000000000000000000000000000000000000000000000000000000000000 T"
b1001100 9
b1001100 ;
b1000010000000000000000000000000000101000000000000000000000000000000000000000000000000000000000000000000000000000000000000000000000000000000000000000000000000000000000000000000000000000000000 A"
b1010000 M
b10100 ~
b1010100 v
b101010000000000000000000000000000000000 %"
b1010100 Q
b100000000000000000000000000000100100000000000000000000000000000000000000000000000000000000000000000000000000 W"
b1000010000000000000000000000000000100110000000000000000000000000000000000000000000000000000000000000000000000000000000000000000000000000000000000000000000000000000000000000000000000000000000 D"
b101000000000000000000000000000000000000 ("
b1010000 |
b1010000 a
b1010000 }
1!
1$
#220
0!
0$
