traces/cpu_tb.vcd
$date
	Thu Nov 12 13:26:18 2015
$end
$version
	Icarus Verilog
$end
$timescale
	1s
$end
$scope module cpu_tb $end
$var reg 1 ! clk $end
$var reg 1 " reset $end
$scope module cpu $end
$var wire 4 # aluop [3:0] $end
$var wire 1 $ clk $end
$var wire 32 % data_t [31:0] $end
$var wire 5 & dst_rd [4:0] $end
$var wire 5 ' dst_rt [4:0] $end
$var wire 2 ( ex_aluop [1:0] $end
$var wire 1 ) ex_aluovf $end
$var wire 32 * ex_alures [31:0] $end
$var wire 1 + ex_alusrc $end
$var wire 1 , ex_aluz $end
$var wire 32 - ex_data_rs [31:0] $end
$var wire 32 . ex_data_rt [31:0] $end
$var wire 32 / ex_imm [31:0] $end
$var wire 1 0 ex_isbranch $end
$var wire 1 1 ex_isjump $end
$var wire 1 2 ex_memread $end
$var wire 1 3 ex_memtoreg $end
$var wire 1 4 ex_memwrite $end
$var wire 32 5 ex_pc_branch [31:0] $end
$var wire 32 6 ex_pc_jump [31:0] $end
$var wire 32 7 ex_pc_next [31:0] $end
$var wire 1 8 ex_regdst $end
$var wire 1 9 ex_regwrite $end
$var wire 5 : ex_wreg [4:0] $end
$var wire 2 ; id_aluop [1:0] $end
$var wire 1 < id_alusrc $end
$var wire 32 = id_data_rs [31:0] $end
$var wire 32 > id_data_rt [31:0] $end
$var wire 32 ? id_imm [31:0] $end
$var wire 32 @ id_instr [31:0] $end
$var wire 1 A id_isbranch $end
$var wire 1 B id_isjump $end
$var wire 1 C id_memread $end
$var wire 1 D id_memtoreg $end
$var wire 1 E id_memwrite $end
$var wire 32 F id_pc_jump [31:0] $end
$var wire 32 G id_pc_next [31:0] $end
$var wire 1 H id_regdst $end
$var wire 1 I id_regwrite $end
$var wire 32 J if_instr [31:0] $end
$var wire 32 K if_pc_next [31:0] $end
$var wire 1 L mem_aluovf $end
$var wire 32 M mem_alures [31:0] $end
$var wire 1 N mem_aluz $end
$var wire 32 O mem_data_rt [31:0] $end
$var wire 1 P mem_isbranch $end
$var wire 1 Q mem_isjump $end
$var wire 32 R mem_memout [31:0] $end
$var wire 1 S mem_memread $end
$var wire 1 T mem_memtoreg $end
$var wire 1 U mem_memwrite $end
$var wire 32 V mem_pc_branch [31:0] $end
$var wire 32 W mem_pc_jump [31:0] $end
$var wire 1 X mem_regwrite $end
$var wire 5 Y mem_wreg [4:0] $end
$var wire 32 Z pc_in [31:0] $end
$var wire 32 [ pc_interm [31:0] $end
$var wire 32 \ pc_out [31:0] $end
$var wire 1 ] pc_take_branch $end
$var wire 1 ^ reset $end
$var wire 32 _ wb_alures [31:0] $end
$var wire 32 ` wb_memout [31:0] $end
$var wire 1 a wb_memtoreg $end
$var wire 1 b wb_regwrite $end
$var wire 32 c wb_wdata [31:0] $end
$var wire 5 d wb_wreg [4:0] $end
$var reg 1 e ex_mem_we $end
$var reg 1 f id_ex_we $end
$var reg 1 g if_id_we $end
$var reg 1 h mem_wb_we $end
$var reg 1 i pc_we $end
$scope module pc_bmux $end
$var wire 64 j in_data [63:0] $end
$var wire 1 ] select $end
$var reg 32 k out_data [31:0] $end
$upscope $end
$scope module pc_jmux $end
$var wire 64 l in_data [63:0] $end
$var wire 1 Q select $end
$var reg 32 m out_data [31:0] $end
$upscope $end
$scope module pc $end
$var wire 1 $ clk $end
$var wire 32 n in [31:0] $end
$var wire 1 ^ reset $end
$var wire 1 o we $end
$var reg 32 p out [31:0] $end
$upscope $end
$scope module imem $end
$var wire 32 q addr [31:0] $end
$var wire 1 $ clk $end
$var wire 1 r memread $end
$var wire 1 s memwrite $end
$var wire 1 ^ reset $end
$var wire 32 t wdata [31:0] $end
$var reg 32 u rdata [31:0] $end
$upscope $end
$scope module if_id $end
$var wire 1 $ clk $end
$var wire 64 v in [63:0] $end
$var wire 1 ^ reset $end
$var wire 1 w we $end
$var reg 64 x out [63:0] $end
$upscope $end
$scope module control $end
$var wire 6 y funct [5:0] $end
$var wire 6 z opcode [5:0] $end
$var reg 2 { aluop [1:0] $end
$var reg 1 | alusrc $end
$var reg 1 } isbranch $end
$var reg 1 ~ jump $end
$var reg 1 !" memread $end
$var reg 1 "" memtoreg $end
$var reg 1 #" memwrite $end
$var reg 1 $" regdst $end
$var reg 1 %" regwrite $end
$upscope $end
$scope module regfile $end
$var wire 1 $ clk $end
$var wire 1 b regwrite $end
$var wire 1 ^ reset $end
$var wire 5 &" rreg1 [4:0] $end
$var wire 5 '" rreg2 [4:0] $end
$var wire 32 (" wdata [31:0] $end
$var wire 5 )" wreg [4:0] $end
$var reg 32 *" rdata1 [31:0] $end
$var reg 32 +" rdata2 [31:0] $end
$upscope $end
$scope module id_ex $end
$var wire 1 $ clk $end
$var wire 180 ," in [179:0] $end
$var wire 1 ^ reset $end
$var wire 1 -" we $end
$var reg 180 ." out [179:0] $end
$upscope $end
$scope module alucontrol $end
$var wire 2 /" alu_op_in [1:0] $end
$var wire 6 0" func [5:0] $end
$var reg 4 1" alu_op_out [3:0] $end
$upscope $end
$scope module t_mux $end
$var wire 64 2" in_data [63:0] $end
$var wire 1 + select $end
$var reg 32 3" out_data [31:0] $end
$upscope $end
$scope module alu $end
$var wire 4 4" alu_op [3:0] $end
$var wire 32 5" s [31:0] $end
$var wire 5 6" shamt [4:0] $end
$var wire 32 7" t [31:0] $end
$var reg 32 8" out [31:0] $end
$var reg 1 9" overflow $end
$var reg 1 :" zero $end
$upscope $end
$scope module dst_mux $end
$var wire 10 ;" in_data [9:0] $end
$var wire 1 8 select $end
$var reg 5 <" out_data [4:0] $end
$upscope $end
$scope module ex_mem $end
$var wire 1 $ clk $end
$var wire 141 =" in [140:0] $end
$var wire 1 ^ reset $end
$var wire 1 >" we $end
$var reg 141 ?" out [140:0] $end
$upscope $end
$scope module dmem $end
$var wire 32 @" addr [31:0] $end
$var wire 1 $ clk $end
$var wire 1 S memread $end
$var wire 1 U memwrite $end
$var wire 1 ^ reset $end
$var wire 32 A" wdata [31:0] $end
$var reg 32 B" rdata [31:0] $end
$upscope $end
$scope module mem_wb $end
$var wire 1 $ clk $end
$var wire 71 C" in [70:0] $end
$var wire 1 ^ reset $end
$var wire 1 D" we $end
$var reg 71 E" out [70:0] $end
$upscope $end
$scope module wb_mux $end
$var wire 64 F" in_data [63:0] $end
$var wire 1 a select $end
$var reg 32 G" out_data [31:0] $end
$upscope $end
$upscope $end
$upscope $end
$enddefinitions $end
#0
$dumpvars
b0 G"
b0 F"
b0 E"
1D"
b0 C"
b0 B"
b0 A"
b0 @"
b0 ?"
1>"
b1000000000000000000000000000000000000000000000000000000000000000000000 ="
b0 <"
b0 ;"
1:"
09"
b0 8"
b0 7"
b0 6"
b0 5"
b10 4"
b0 3"
b0 2"
b10 1"
b0 0"
b0 /"
b0 ."
1-"
b0 ,"
b0 +"
b0 *"
b0 )"
b0 ("
b0 '"
b0 &"
0%"
0$"
0#"
0""
0!"
0~
0}
0|
b0 {
b0 z
b0 y
b0 x
1w
b10000000000000000000000000000000000 v
b0 u
b0 t
0s
1r
b0 q
b0 p
1o
b100 n
b100 m
b100 l
b100 k
b100 j
1i
1h
1g
1f
1e
b0 d
b0 c
0b
0a
b0 `
b0 _
1^
0]
b0 \
b100 [
b100 Z
b0 Y
0X
b0 W
b0 V
0U
0T
0S
b0 R
0Q
0P
b0 O
0N
b0 M
0L
b100 K
b0 J
0I
0H
b0 G
b0 F
0E
0D
0C
0B
0A
b0 @
b0 ?
b0 >
b0 =
0<
b0 ;
b0 :
09
08
b0 7
b0 6
b0 5
04
03
02
01
00
b0 /
b0 .
b0 -
1,
0+
b0 *
0)
b0 (
b0 '
b0 &
b0 %
0$
b10 #
1"
0!
$end
#5
b100000000010010000000000000001 u
b10000100000000010010000000000000001 v
b100000000010010000000000000001 J
1!
1$
#10
0"
0^
0!
0$
#15
b1000 m
b1000 Z
b1000 n
1|
1<
1%"
1I
b1000 k
b1000 l
b1000 [
b1 ?
b1001000000000000000100 F
b1000 z
b1 y
b1001 '"
1N
b100000000010010000000000000001 @
b100000001000000000000000000000000000000100000000000000000000000000000000000000000000000000000000000000000000000000000000000000000000000001000000000010010000000000000001000100100000 ,"
b100 G
b1000 j
b100000100000000010010000000000000001 v
b1000 K
b1000000000000000000000000000000000000000000000000000000000000000000000 ?"
b10000100000000010010000000000000001 x
b100 p
b100 \
b100 q
1!
1$
#20
0!
0$
#25
0:"
0,
b1100 m
b1100 Z
b1100 n
b1 8"
b1 *
b1100 k
b1100 [
b1001 <"
b1001 :
b1 3"
b1 %
b1 7"
b1 0"
b1100 j
b1100 K
b100000001000000000000000000000000000001000000000000000000000000000000000000000000000000000000000000000000000000000000000000000000000000001000000000010010000000000000001000100100000 ,"
b1000 G
b1001 ;"
b1001 '
b100100000000000000010000000000000000000000000000001100 l
b1001000000000000000100 6
b100000000000000000000000000000000 2"
b1 /
b1000 5
b100 7
1+
b100000000000000000000000000000000010000000000000100100000000000000010000000000000000000000000000000000010000000000000000000000000000000001001 ="
19
b1000 p
b1000 \
b1000 q
b0 u
b110000000000000000000000000000000000 v
b0 J
b100000100000000010010000000000000001 x
b100000001000000000000000000000000000000100000000000000000000000000000000000000000000000000000000000000000000000000000000000000000000000001000000000010010000000000000001000100100000 ."
1!
1$
#30
0!
0$
#35
b10000 m
b10000 Z
b10000 n
0|
0<
0%"
0I
b10000 k
b100100000000000000010000000000000000000000000000010000 l
b10000 [
b0 ?
b0 F
b0 z
b0 y
b0 '"
b1001 Y
b1 M
b1 @"
0N
b1001000000000000000100 W
b1000 V
b10000000000000000000000000000000000000000000000000000000000000000101001 C"
1X
b100000000000000000000000000000000011000000000000100100000000000000010000000000000000000000000000000000010000000000000000000000000000000001001 ="
b1100 5
b1000 7
b0 @
b1100000000000000000000000000000000000000000000000000000000000000000000000000000000000000000000000000000000000000000000000000000000000000000000 ,"
b1100 G
b100000000000000000000000000000010000 j
b1000000000000000000000000000000000000 v
b10000 K
b100000000000000000000000000000000010000000000000100100000000000000010000000000000000000000000000000000010000000000000000000000000000000001001 ?"
b100000001000000000000000000000000000001000000000000000000000000000000000000000000000000000000000000000000000000000000000000000000000000001000000000010010000000000000001000100100000 ."
b110000000000000000000000000000000000 x
b1100 p
b1100 \
b1100 q
1!
1$
#40
0!
0$
#45
1:"
1,
b0 8"
b0 *
b10100 m
b10100 Z
b10100 n
b0 <"
b0 :
b0 3"
b0 %
b0 7"
b10100 k
b10100 [
b1 G"
b1 c
b1 ("
b0 0"
b1010000000000000000000000000000000000 v
b10100 K
b10000000000000000000000000000000000000000000000000000000000000000000000000000000000000000000000000000000000000000000000000000000000000000000000 ,"
b10000 G
b0 ;"
b0 '
b10100 l
b0 6
b0 2"
b0 /
b1100 5
b1100 7
0+
b11000000000000000000000000000000000001000000000000000000000000000000000000000000000000000000000000000000000 ="
09
b110000000000000000000000000000010100 j
b1100 V
b1001 d
b1001 )"
b1 F"
b1 _
1b
b10000 p
b10000 \
b10000 q
b1000000000000000000000000000000000000 x
b1100000000000000000000000000000000000000000000000000000000000000000000000000000000000000000000000000000000000000000000000000000000000000000000 ."
b100000000000000000000000000000000011000000000000100100000000000000010000000000000000000000000000000000010000000000000000000000000000000001001 ?"
b10000000000000000000000000000000000000000000000000000000000000000101001 E"
1!
1$
#50
0!
0$
#55
b11000 m
b11000 Z
b11000 n
b11000 k
b11000 l
b11000 [
b0 Y
b0 M
b0 @"
1N
b0 W
b0 C"
0X
b100000000000000000000000000000000000001000000000000000000000000000000000000000000000000000000000000000000000 ="
b10000 5
b10000 7
b10100000000000000000000000000000000000000000000000000000000000000000000000000000000000000000000000000000000000000000000000000000000000000000000 ,"
b10100 G
b110000000000000000000000000000011000 j
b1100000000000000000000000000000000000 v
b11000 K
b11000000000000000000000000000000000001000000000000000000000000000000000000000000000000000000000000000000000 ?"
b10000000000000000000000000000000000000000000000000000000000000000000000000000000000000000000000000000000000000000000000000000000000000000000000 ."
b1010000000000000000000000000000000000 x
b10100 p
b10100 \
b10100 q
1!
1$
#60
0!
0$
#65
b11100 m
b11100 Z
b11100 n
b11100 k
b11100 l
b11100 [
b0 G"
b0 c
b0 ("
b1110000000000000000000000000000000000 v
b11100 K
b11000000000000000000000000000000000000000000000000000000000000000000000000000000000000000000000000000000000000000000000000000000000000000000000 ,"
b11000 G
b101000000000000000000000000000000000001000000000000000000000000000000000000000000000000000000000000000000000 ="
b10100 5
b10100 7
b1000000000000000000000000000000011100 j
b10000 V
b0 d
b0 )"
b0 F"
b0 _
0b
b11000 p
b11000 \
b11000 q
b1100000000000000000000000000000000000 x
b10100000000000000000000000000000000000000000000000000000000000000000000000000000000000000000000000000000000000000000000000000000000000000000000 ."
b100000000000000000000000000000000000001000000000000000000000000000000000000000000000000000000000000000000000 ?"
b0 E"
1!
1$
#70
0!
0$
#75
b100000 m
b100000 Z
b100000 n
b100000 k
b100000 l
b100000 [
b10100 V
b110000000000000000000000000000000000001000000000000000000000000000000000000000000000000000000000000000000000 ="
b11000 5
b11000 7
b11100000000000000000000000000000000000000000000000000000000000000000000000000000000000000000000000000000000000000000000000000000000000000000000 ,"
b11100 G
b1010000000000000000000000000000100000 j
b10000000000000000000000000000000000000 v
b100000 K
b101000000000000000000000000000000000001000000000000000000000000000000000000000000000000000000000000000000000 ?"
b11000000000000000000000000000000000000000000000000000000000000000000000000000000000000000000000000000000000000000000000000000000000000000000000 ."
b1110000000000000000000000000000000000 x
b11100 p
b11100 \
b11100 q
1!
1$
#80
0!
0$
#85
b100100 m
b100100 Z
b100100 n
b100100 k
b100100 l
b100100 [
b10010000000000000000000000000000000000 v
b100100 K
b100000000000000000000000000000000000000000000000000000000000000000000000000000000000000000000000000000000000000000000000000000000000000000000000 ,"
b100000 G
b111000000000000000000000000000000000001000000000000000000000000000000000000000000000000000000000000000000000 ="
b11100 5
b11100 7
b1100000000000000000000000000000100100 j
b11000 V
b100000 p
b100000 \
b100000 q
b10000000000000000000000000000000000000 x
b11100000000000000000000000000000000000000000000000000000000000000000000000000000000000000000000000000000000000000000000000000000000000000000000 ."
b110000000000000000000000000000000000001000000000000000000000000000000000000000000000000000000000000000000000 ?"
1!
1$
#90
0!
0$
#95
b101000 m
b101000 Z
b101000 n
b101000 k
b101000 l
b101000 [
b11100 V
b1000000000000000000000000000000000000001000000000000000000000000000000000000000000000000000000000000000000000 ="
b100000 5
b100000 7
b100100000000000000000000000000000000000000000000000000000000000000000000000000000000000000000000000000000000000000000000000000000000000000000000 ,"
b100100 G
b1110000000000000000000000000000101000 j
b101000 K
b111000000000000000000000000000000000001000000000000000000000000000000000000000000000000000000000000000000000 ?"
b100000000000000000000000000000000000000000000000000000000000000000000000000000000000000000000000000000000000000000000000000000000000000000000000 ."
b10010000000000000000000000000000000000 x
b1001000000101000000100000 u
b10100000000001001000000101000000100000 v
b1001000000101000000100000 J
b100100 p
b100100 \
b100100 q
1!
1$
#100
0!
0$
#105
b101100 m
b101100 Z
b101100 n
b10 {
b10 ;
1$"
1H
1%"
1I
b1 *"
b1 =
b101100 k
b101100 l
b101100 [
b101000000100000 ?
b100100000010100000010000000 F
b100000 y
b1001 &"
b101100 K
b1001000000101000000100000 @
b100001100000000000000000000000000000101000000000000000000000000000000000010000000000000000000000000000000000000000000000000101000000100000000001001000000101000000100000000000001010 ,"
b101000 G
b1001000000000000000000000000000000000001000000000000000000000000000000000000000000000000000000000000000000000 ="
b100100 5
b100100 7
b10000000000000000000000000000000101100 j
b100000 V
b101000 p
b101000 \
b101000 q
b0 u
b10110000000000000000000000000000000000 v
b0 J
b10100000000001001000000101000000100000 x
b100100000000000000000000000000000000000000000000000000000000000000000000000000000000000000000000000000000000000000000000000000000000000000000000 ."
b1000000000000000000000000000000000000001000000000000000000000000000000000000000000000000000000000000000000000 ?"
1!
1$
#110
0!
0$
#115
0:"
0,
b110000 m
b110000 Z
b110000 n
b0 {
b0 ;
0$"
0H
0%"
0I
b0 *"
b0 =
b1 8"
b1 *
b10 1"
b10 #
b10 4"
b1010 <"
b1010 :
b110000 k
b110000 [
b100000 0"
b0 ?
b0 F
b0 y
b0 &"
b100100 V
b101000000 ;"
b1010 &
b10010000001010000001000000000000000000000000000000000110000 l
b100100000010100000010000000 6
b10100000010000000000000000000000000000000000000 2"
b101000000100000 /
b1 -
b1 5"
b10100000010101000 5
b101000 7
b10 (
b10 /"
18
b100000000000000000000101000000101010000000010010000001010000001000000000000000000000000000000000000000010000000000000000000000000000000001010 ="
19
b0 @
b101100000000000000000000000000000000000000000000000000000000000000000000000000000000000000000000000000000000000000000000000000000000000000000000 ,"
b101100 G
b10010000000000000000000000000000110000 j
b11000000000000000000000000000000000000 v
b110000 K
b1001000000000000000000000000000000000001000000000000000000000000000000000000000000000000000000000000000000000 ?"
b100001100000000000000000000000000000101000000000000000000000000000000000010000000000000000000000000000000000000000000000000101000000100000000001001000000101000000100000000000001010 ."
b10110000000000000000000000000000000000 x
b101100 p
b101100 \
b101100 q
1!
1$
#120
0!
0$
#125
1:"
1,
b110100 m
b110100 Z
b110100 n
b0 8"
b0 *
b0 <"
b0 :
b110100 k
b110100 [
b0 0"
b11010000000000000000000000000000000000 v
b110100 K
b110000000000000000000000000000000000000000000000000000000000000000000000000000000000000000000000000000000000000000000000000000000000000000000000 ,"
b110000 G
b0 ;"
b0 &
b110100 l
b0 6
b0 2"
b0 /
b0 -
b0 5"
b101100 5
b101100 7
b0 (
b0 /"
08
b1011000000000000000000000000000000000001000000000000000000000000000000000000000000000000000000000000000000000 ="
09
b1010 Y
b1 M
b1 @"
0N
b100100000010100000010000000 W
b1010000001010100000000000000000000000000000110100 j
b10100000010101000 V
b10000000000000000000000000000000000000000000000000000000000000000101010 C"
1X
b110000 p
b110000 \
b110000 q
b11000000000000000000000000000000000000 x
b101100000000000000000000000000000000000000000000000000000000000000000000000000000000000000000000000000000000000000000000000000000000000000000000 ."
b100000000000000000000101000000101010000000010010000001010000001000000000000000000000000000000000000000010000000000000000000000000000000001010 ?"
1!
1$
#130
0!
0$
#135
b111000 m
b111000 Z
b111000 n
b1 G"
b1 c
b1 ("
b111000 k
b111000 l
b111000 [
b1010 d
b1010 )"
b1 F"
b1 _
1b
b0 Y
b0 M
b0 @"
1N
b0 W
b101100 V
b0 C"
0X
b1100000000000000000000000000000000000001000000000000000000000000000000000000000000000000000000000000000000000 ="
b110000 5
b110000 7
b110100000000000000000000000000000000000000000000000000000000000000000000000000000000000000000000000000000000000000000000000000000000000000000000 ,"
b110100 G
b10110000000000000000000000000000111000 j
b11100000000000000000000000000000000000 v
b111000 K
b10000000000000000000000000000000000000000000000000000000000000000101010 E"
b1011000000000000000000000000000000000001000000000000000000000000000000000000000000000000000000000000000000000 ?"
b110000000000000000000000000000000000000000000000000000000000000000000000000000000000000000000000000000000000000000000000000000000000000000000000 ."
b11010000000000000000000000000000000000 x
b110100 p
b110100 \
b110100 q
1!
1$
#140
0!
0$
#145
b111100 m
b111100 Z
b111100 n
b111100 k
b111100 l
b111100 [
b0 G"
b0 c
b0 ("
b11110000000000000000000000000000000000 v
b111100 K
b111000000000000000000000000000000000000000000000000000000000000000000000000000000000000000000000000000000000000000000000000000000000000000000000 ,"
b111000 G
b1101000000000000000000000000000000000001000000000000000000000000000000000000000000000000000000000000000000000 ="
b110100 5
b110100 7
b11000000000000000000000000000000111100 j
b110000 V
b0 d
b0 )"
b0 F"
b0 _
0b
b111000 p
b111000 \
b111000 q
b11100000000000000000000000000000000000 x
b110100000000000000000000000000000000000000000000000000000000000000000000000000000000000000000000000000000000000000000000000000000000000000000000 ."
b1100000000000000000000000000000000000001000000000000000000000000000000000000000000000000000000000000000000000 ?"
b0 E"
1!
1$
#150
0!
0$
#155
b1000000 m
b1000000 Z
b1000000 n
b1000000 k
b1000000 l
b1000000 [
b110100 V
b1110000000000000000000000000000000000001000000000000000000000000000000000000000000000000000000000000000000000 ="
b111000 5
b111000 7
b111100000000000000000000000000000000000000000000000000000000000000000000000000000000000000000000000000000000000000000000000000000000000000000000 ,"
b111100 G
b11010000000000000000000000000001000000 j
b100000000000000000000000000000000000000 v
b1000000 K
b1101000000000000000000000000000000000001000000000000000000000000000000000000000000000000000000000000000000000 ?"
b111000000000000000000000000000000000000000000000000000000000000000000000000000000000000000000000000000000000000000000000000000000000000000000000 ."
b11110000000000000000000000000000000000 x
b111100 p
b111100 \
b111100 q
1!
1$
#160
0!
0$
#165
b1000100 m
b1000100 Z
b1000100 n
b1000100 k
b1000100 l
b1000100 [
b100010000000000000000000000000000000000 v
b1000100 K
b1000000000000000000000000000000000000000000000000000000000000000000000000000000000000000000000000000000000000000000000000000000000000000000000000 ,"
b1000000 G
b1111000000000000000000000000000000000001000000000000000000000000000000000000000000000000000000000000000000000 ="
b111100 5
b111100 7
b11100000000000000000000000000001000100 j
b111000 V
b1000000 p
b1000000 \
b1000000 q
b100000000000000000000000000000000000000 x
b111100000000000000000000000000000000000000000000000000000000000000000000000000000000000000000000000000000000000000000000000000000000000000000000 ."
b1110000000000000000000000000000000000001000000000000000000000000000000000000000000000000000000000000000000000 ?"
1!
1$
#170
0!
0$
#175
b1001000 m
b1001000 Z
b1001000 n
b1001000 k
b1001000 l
b1001000 [
b111100 V
b10000000000000000000000000000000000000001000000000000000000000000000000000000000000000000000000000000000000000 ="
b1000000 5
b1000000 7
b1000100000000000000000000000000000000000000000000000000000000000000000000000000000000000000000000000000000000000000000000000000000000000000000000 ,"
b1000100 G
b11110000000000000000000000000001001000 j
b1001000 K
b1111000000000000000000000000000000000001000000000000000000000000000000000000000000000000000000000000000000000 ?"
b1000000000000000000000000000000000000000000000000000000000000000000000000000000000000000000000000000000000000000000000000000000000000000000000000 ."
b100010000000000000000000000000000000000 x
b100000000010010000000000000001 u
b100100000100000000010010000000000000001 v
b100000000010010000000000000001 J
b1000100 p
b1000100 \
b1000100 q
1!
1$
#180
0!
0$
#185
b1001100 m
b1001100 Z
b1001100 n
1|
1<
1%"
1I
b1 +"
b1 >
b1001100 k
b1001100 l
b1001100 [
b1 ?
b1001000000000000000100 F
b1000 z
b1 y
b1001 '"
b1001100 K
b100000000010010000000000000001 @
b100000001000000000000000000000000001001000000000000000000000000000000000000000000000000000000000000000000100000000000000000000000000000001000000000010010000000000000001000100100000 ,"
b1001000 G
b10001000000000000000000000000000000000001000000000000000000000000000000000000000000000000000000000000000000000 ="
b1000100 5
b1000100 7
b100000000000000000000000000000001001100 j
b1000000 V
b1001000 p
b1001000 \
b1001000 q
b0 u
b100110000000000000000000000000000000000 v
b0 J
b100100000100000000010010000000000000001 x
b1000100000000000000000000000000000000000000000000000000000000000000000000000000000000000000000000000000000000000000000000000000000000000000000000 ."
b10000000000000000000000000000000000000001000000000000000000000000000000000000000000000000000000000000000000000 ?"
1!
1$
#190
0!
0$
#195
0:"
0,
b1 8"
b1 *
b1010000 m
b1010000 Z
b1010000 n
0|
0<
0%"
0I
b0 +"
b0 >
b1001 <"
b1001 :
b1 3"
b1 %
b1 7"
b1010000 k
b1010000 [
b1 0"
b0 ?
b0 F
b0 z
b0 y
b0 '"
b1000100 V
b1001 ;"
b1001 '
b100100000000000000010000000000000000000000000001010000 l
b1001000000000000000100 6
b1 /
b100000000000000000000000000000001 2"
b1 .
b1001100 5
b1001000 7
1+
b100000000000000000000000000000010011000000000000100100000000000000010000000000000000000000000000000000010000000000000000000000000000000101001 ="
19
b0 @
b1001100000000000000000000000000000000000000000000000000000000000000000000000000000000000000000000000000000000000000000000000000000000000000000000 ,"
b1001100 G
b100010000000000000000000000000001010000 j
b101000000000000000000000000000000000000 v
b1010000 K
b10001000000000000000000000000000000000001000000000000000000000000000000000000000000000000000000000000000000000 ?"
b100000001000000000000000000000000001001000000000000000000000000000000000000000000000000000000000000000000100000000000000000000000000000001000000000010010000000000000001000100100000 ."
b100110000000000000000000000000000000000 x
b1001100 p
b1001100 \
b1001100 q
1!
1$
#200
0!
0$
#205
1:"
1,
b0 8"
b0 *
b1010100 m
b1010100 Z
b1010100 n
b0 <"
b0 :
b0 3"
b0 %
b0 7"
b1010100 k
b1010100 [
b0 0"
b101010000000000000000000000000000000000 v
b1010100 K
b1010000000000000000000000000000000000000000000000000000000000000000000000000000000000000000000000000000000000000000000000000000000000000000000000 ,"
b1010000 G
b0 ;"
b0 '
b1010100 l
b0 6
b0 /
b0 2"
b0 .
b1001100 5
b1001100 7
0+
b10011000000000000000000000000000000000001000000000000000000000000000000000000000000000000000000000000000000000 ="
09
b1001 Y
b1 O
b1 A"
b1 M
b1 @"
0N
b1001000000000000000100 W
b100110000000000000000000000000001010100 j
b1001100 V
b10000000000000000000000000000000000000000000000000000000000000000101001 C"
1X
b1010000 p
b1010000 \
b1010000 q
b101000000000000000000000000000000000000 x
b1001100000000000000000000000000000000000000000000000000000000000000000000000000000000000000000000000000000000000000000000000000000000000000000000 ."
b100000000000000000000000000000010011000000000000100100000000000000010000000000000000000000000000000000010000000000000000000000000000000101001 ?"
1!
1$
#210
0!
0$
#215
b1011000 m
b1011000 Z
b1011000 n
b1 G"
b1 c
b1 ("
b1011000 k
b1011000 l
b1011000 [
b1001 d
b1001 )"
b1 F"
b1 _
1b
b0 Y
b0 O
b0 A"
b0 M
b0 @"
1N
b0 W
b0 C"
0X
b10100000000000000000000000000000000000001000000000000000000000000000000000000000000000000000000000000000000000 ="
b1010000 5
b1010000 7
b1010100000000000000000000000000000000000000000000000000000000000000000000000000000000000000000000000000000000000000000000000000000000000000000000 ,"
b1010100 G
b100110000000000000000000000000001011000 j
b101100000000000000000000000000000000000 v
b1011000 K
b10000000000000000000000000000000000000000000000000000000000000000101001 E"
b10011000000000000000000000000000000000001000000000000000000000000000000000000000000000000000000000000000000000 ?"
b1010000000000000000000000000000000000000000000000000000000000000000000000000000000000000000000000000000000000000000000000000000000000000000000000 ."
b101010000000000000000000000000000000000 x
b1010100 p
b1010100 \
b1010100 q
1!
1$
#220
0!
0$
#225
b1011100 m
b1011100 Z
b1011100 n
b1011100 k
b1011100 l
b1011100 [
b0 G"
b0 c
b0 ("
b101110000000000000000000000000000000000 v
b1011100 K
b1011000000000000000000000000000000000000000000000000000000000000000000000000000000000000000000000000000000000000000000000000000000000000000000000 ,"
b1011000 G
b10101000000000000000000000000000000000001000000000000000000000000000000000000000000000000000000000000000000000 ="
b1010100 5
b1010100 7
b101000000000000000000000000000001011100 j
b1010000 V
b0 d
b0 )"
b0 F"
b0 _
0b
b1011000 p
b1011000 \
b1011000 q
b101100000000000000000000000000000000000 x
b1010100000000000000000000000000000000000000000000000000000000000000000000000000000000000000000000000000000000000000000000000000000000000000000000 ."
b10100000000000000000000000000000000000001000000000000000000000000000000000000000000000000000000000000000000000 ?"
b0 E"
1!
1$
#230
0!
0$
#235
b1100000 m
b1100000 Z
b1100000 n
b1100000 k
b1100000 l
b1100000 [
b1010100 V
b10110000000000000000000000000000000000001000000000000000000000000000000000000000000000000000000000000000000000 ="
b1011000 5
b1011000 7
b1011100000000000000000000000000000000000000000000000000000000000000000000000000000000000000000000000000000000000000000000000000000000000000000000 ,"
b1011100 G
b101010000000000000000000000000001100000 j
b110000000000000000000000000000000000000 v
b1100000 K
b10101000000000000000000000000000000000001000000000000000000000000000000000000000000000000000000000000000000000 ?"
b1011000000000000000000000000000000000000000000000000000000000000000000000000000000000000000000000000000000000000000000000000000000000000000000000 ."
b101110000000000000000000000000000000000 x
b1011100 p
b1011100 \
b1011100 q
1!
1$
#240
0!
0$
#245
b1100100 m
b1100100 Z
b1100100 n
b1100100 k
b1100100 l
b1100100 [
b110010000000000000000000000000000000000 v
b1100100 K
b1100000000000000000000000000000000000000000000000000000000000000000000000000000000000000000000000000000000000000000000000000000000000000000000000 ,"
b1100000 G
b10111000000000000000000000000000000000001000000000000000000000000000000000000000000000000000000000000000000000 ="
b1011100 5
b1011100 7
b101100000000000000000000000000001100100 j
b1011000 V
b1100000 p
b1100000 \
b1100000 q
b110000000000000000000000000000000000000 x
b1011100000000000000000000000000000000000000000000000000000000000000000000000000000000000000000000000000000000000000000000000000000000000000000000 ."
b10110000000000000000000000000000000000001000000000000000000000000000000000000000000000000000000000000000000000 ?"
1!
1$
#250
0!
0$
#255
b1101000 m
b1101000 Z
b1101000 n
b1101000 k
b1101000 l
b1101000 [
b1011100 V
b11000000000000000000000000000000000000001000000000000000000000000000000000000000000000000000000000000000000000 ="
b1100000 5
b1100000 7
b1100100000000000000000000000000000000000000000000000000000000000000000000000000000000000000000000000000000000000000000000000000000000000000000000 ,"
b1100100 G
b101110000000000000000000000000001101000 j
b1101000 K
b10111000000000000000000000000000000000001000000000000000000000000000000000000000000000000000000000000000000000 ?"
b1100000000000000000000000000000000000000000000000000000000000000000000000000000000000000000000000000000000000000000000000000000000000000000000000 ."
b110010000000000000000000000000000000000 x
b1001000000101000000100000 u
b110100000000001001000000101000000100000 v
b1001000000101000000100000 J
b1100100 p
b1100100 \
b1100100 q
1!
1$
#260
0!
0$
