traces/jal.vcd
$date
	Thu Nov 19 13:18:59 2015
$end
$version
	Icarus Verilog
$end
$timescale
	1s
$end
$scope module cpu_tb $end
$var reg 1 ! clk $end
$var reg 1 " reset $end
$scope module cpu $end
$var wire 4 # aluop [3:0] $end
$var wire 32 $ alures [31:0] $end
$var wire 1 % clk $end
$var wire 32 & data_rt [31:0] $end
$var wire 32 ' dst_jump [31:0] $end
$var wire 5 ( dst_rd [4:0] $end
$var wire 5 ) dst_reg [4:0] $end
$var wire 5 * dst_rs [4:0] $end
$var wire 5 + dst_rt [4:0] $end
$var wire 1 , ex_aluop $end
$var wire 1 - ex_aluovf $end
$var wire 1 . ex_alusrc $end
$var wire 1 / ex_aluz $end
$var wire 32 0 ex_data_rs [31:0] $end
$var wire 32 1 ex_data_rt [31:0] $end
$var wire 32 2 ex_exout [31:0] $end
$var wire 6 3 ex_funct [5:0] $end
$var wire 32 4 ex_imm [31:0] $end
$var wire 26 5 ex_imm_top [25:0] $end
$var wire 1 6 ex_isbranch $end
$var wire 1 7 ex_isjump $end
$var wire 1 8 ex_islink $end
$var wire 1 9 ex_jumpdst $end
$var wire 1 : ex_memread $end
$var wire 1 ; ex_memtoreg $end
$var wire 1 < ex_memwrite $end
$var wire 6 = ex_opcode [5:0] $end
$var wire 32 > ex_pc_branch [31:0] $end
$var wire 32 ? ex_pc_jump [31:0] $end
$var wire 32 @ ex_pc_next [31:0] $end
$var wire 1 A ex_regdst $end
$var wire 1 B ex_regwrite $end
$var wire 5 C ex_wreg [4:0] $end
$var wire 2 D fwdctrl_rs [1:0] $end
$var wire 2 E fwdctrl_rt [1:0] $end
$var wire 1 F id_aluop $end
$var wire 1 G id_alusrc $end
$var wire 32 H id_data_rs [31:0] $end
$var wire 32 I id_data_rt [31:0] $end
$var wire 32 J id_imm [31:0] $end
$var wire 32 K id_instr [31:0] $end
$var wire 1 L id_isbranch $end
$var wire 1 M id_isjump $end
$var wire 1 N id_islink $end
$var wire 1 O id_jumpdst $end
$var wire 1 P id_memread $end
$var wire 1 Q id_memtoreg $end
$var wire 1 R id_memwrite $end
$var wire 32 S id_pc_jump [31:0] $end
$var wire 32 T id_pc_next [31:0] $end
$var wire 1 U id_regdst $end
$var wire 1 V id_regwrite $end
$var wire 32 W if_instr [31:0] $end
$var wire 32 X if_pc_next [31:0] $end
$var wire 1 Y mem_aluovf $end
$var wire 1 Z mem_aluz $end
$var wire 32 [ mem_data_rt [31:0] $end
$var wire 32 \ mem_exout [31:0] $end
$var wire 1 ] mem_isbranch $end
$var wire 32 ^ mem_memout [31:0] $end
$var wire 1 _ mem_memread $end
$var wire 1 ` mem_memtoreg $end
$var wire 1 a mem_memwrite $end
$var wire 32 b mem_pc_branch [31:0] $end
$var wire 1 c mem_regwrite $end
$var wire 32 d mem_wdata [31:0] $end
$var wire 5 e mem_wreg [4:0] $end
$var wire 32 f pc_in [31:0] $end
$var wire 32 g pc_interm [31:0] $end
$var wire 32 h pc_out [31:0] $end
$var wire 1 i pc_take_branch $end
$var wire 32 j reg_rs [31:0] $end
$var wire 32 k reg_rt [31:0] $end
$var wire 1 l reset $end
$var wire 1 m wb_regwrite $end
$var wire 32 n wb_wdata [31:0] $end
$var wire 5 o wb_wreg [4:0] $end
$var reg 1 p ex_mem_we $end
$var reg 1 q id_ex_we $end
$var reg 1 r if_id_we $end
$var reg 1 s mem_wb_we $end
$var reg 1 t pc_we $end
$scope module fwdcontrol $end
$var wire 5 u ex_dst [4:0] $end
$var wire 1 v ex_rw $end
$var wire 5 w mem_dst [4:0] $end
$var wire 1 c mem_rw $end
$var wire 5 x rs [4:0] $end
$var wire 5 y rt [4:0] $end
$var wire 5 z wb_dst [4:0] $end
$var wire 1 m wb_rw $end
$var reg 2 { ctrl_rs [1:0] $end
$var reg 2 | ctrl_rt [1:0] $end
$upscope $end
$scope module pc $end
$var wire 1 % clk $end
$var wire 32 } in [31:0] $end
$var wire 1 l reset $end
$var wire 1 ~ we $end
$var reg 32 !" out [31:0] $end
$upscope $end
$scope module imem $end
$var wire 32 "" addr [31:0] $end
$var wire 1 % clk $end
$var wire 9 #" index [8:0] $end
$var wire 1 $" memread $end
$var wire 1 %" memwrite $end
$var wire 1 l reset $end
$var wire 32 &" wdata [31:0] $end
$var reg 32 '" rdata [31:0] $end
$upscope $end
$scope module if_id $end
$var wire 1 % clk $end
$var wire 64 (" in [63:0] $end
$var wire 1 )" reset $end
$var wire 1 *" we $end
$var reg 64 +" out [63:0] $end
$upscope $end
$scope module control $end
$var wire 6 ," funct [5:0] $end
$var wire 6 -" opcode [5:0] $end
$var reg 1 ." aluop $end
$var reg 1 /" alusrc $end
$var reg 1 0" isbranch $end
$var reg 1 1" isjump $end
$var reg 1 2" islink $end
$var reg 1 3" jumpdst $end
$var reg 1 4" memread $end
$var reg 1 5" memtoreg $end
$var reg 1 6" memwrite $end
$var reg 1 7" regdst $end
$var reg 1 8" regwrite $end
$upscope $end
$scope module regfile $end
$var wire 1 % clk $end
$var wire 1 m regwrite $end
$var wire 1 l reset $end
$var wire 5 9" rreg1 [4:0] $end
$var wire 5 :" rreg2 [4:0] $end
$var wire 33 ;" wdata [32:0] $end
$var wire 5 <" wreg [4:0] $end
$var integer 32 =" i [31:0] $end
$var reg 32 >" rdata1 [31:0] $end
$var reg 32 ?" rdata2 [31:0] $end
$upscope $end
$scope module data_rs_mux $end
$var wire 128 @" in_data [127:0] $end
$var wire 2 A" select [1:0] $end
$var reg 32 B" out_data [31:0] $end
$upscope $end
$scope module data_rt_mux $end
$var wire 128 C" in_data [127:0] $end
$var wire 2 D" select [1:0] $end
$var reg 32 E" out_data [31:0] $end
$upscope $end
$scope module id_ex $end
$var wire 1 % clk $end
$var wire 192 F" in [191:0] $end
$var wire 1 G" reset $end
$var wire 1 H" we $end
$var reg 192 I" out [191:0] $end
$upscope $end
$scope module alucontrol $end
$var wire 1 , aluop_in $end
$var wire 6 J" funct [5:0] $end
$var wire 6 K" opcode [5:0] $end
$var reg 4 L" aluop_out [3:0] $end
$upscope $end
$scope module alu $end
$var wire 4 M" aluop [3:0] $end
$var wire 32 N" s [31:0] $end
$var wire 5 O" shamt [4:0] $end
$var wire 32 P" t [31:0] $end
$var reg 32 Q" out [31:0] $end
$var reg 1 R" overflow $end
$var reg 64 S" tmp [63:0] $end
$var reg 1 T" zero $end
$upscope $end
$scope module dst_mux $end
$var wire 10 U" in_data [9:0] $end
$var wire 1 A select $end
$var reg 5 V" out_data [4:0] $end
$upscope $end
$scope module ex_mem $end
$var wire 1 % clk $end
$var wire 110 W" in [109:0] $end
$var wire 1 X" reset $end
$var wire 1 Y" we $end
$var reg 110 Z" out [109:0] $end
$upscope $end
$scope module dmem $end
$var wire 32 [" addr [31:0] $end
$var wire 1 % clk $end
$var wire 9 \" index [8:0] $end
$var wire 1 _ memread $end
$var wire 1 a memwrite $end
$var wire 1 l reset $end
$var wire 32 ]" wdata [31:0] $end
$var reg 32 ^" rdata [31:0] $end
$upscope $end
$scope module mem_wb $end
$var wire 1 % clk $end
$var wire 38 _" in [37:0] $end
$var wire 1 l reset $end
$var wire 1 `" we $end
$var reg 38 a" out [37:0] $end
$upscope $end
$upscope $end
$upscope $end
$enddefinitions $end
#0
$dumpvars
b0 a"
1`"
b0 _"
b0 ^"
b0 ]"
b0 \"
b0 ["
b0 Z"
1Y"
1X"
b0 W"
b0 V"
b0 U"
0T"
b0 S"
0R"
b0 Q"
b0 P"
b0 O"
b0 N"
b100 M"
b100 L"
b0 K"
b0 J"
b0 I"
1H"
1G"
b100001000000000000000000000000000000000000000000000000000000000000000000000000000000000000000000000000000000000000000000000000000000000000000000000000000000000000000000000000000000000000000000 F"
b0 E"
b0 D"
b0 C"
b0 B"
b0 A"
b0 @"
b0 ?"
b0 >"
bx ="
b0 <"
b0 ;"
b0 :"
b0 9"
18"
17"
06"
05"
04"
03"
02"
01"
00"
0/"
0."
b0 -"
b0 ,"
b0 +"
1*"
1)"
b100xxxxxxxxxxxxxxxxxxxxxxxxxxxxxxxx ("
bx '"
b0 &"
0%"
1$"
b0 #"
b0 ""
b0 !"
1~
b100 }
b0 |
b0 {
b0 z
b0 y
b0 x
b0 w
0v
b0 u
1t
1s
1r
1q
1p
b0 o
b0 n
0m
1l
b0 k
b0 j
0i
b0 h
b100 g
b100 f
b0 e
b0 d
0c
b0 b
0a
0`
0_
b0 ^
0]
b0 \
b0 [
0Z
0Y
b100 X
bx W
1V
1U
b0 T
b0 S
0R
0Q
0P
0O
0N
0M
0L
b0 K
b0 J
b0 I
b0 H
0G
0F
b0 E
b0 D
b0 C
0B
0A
b0 @
b0 ?
b0 >
b0 =
0<
0;
0:
09
08
07
06
b0 5
b0 4
b0 3
b0 2
b0 1
b0 0
0/
0.
0-
0,
b0 +
b0 *
b0 )
b0 (
b0 '
b0 &
0%
b0 $
b100 #
1"
0!
$end
#5
b100000 ="
1!
1%
#10
0!
0%
#15
b100000000100001111111111111111 '"
b10000100000000100001111111111111111 ("
b100000000100001111111111111111 W
0)"
0G"
0X"
0"
0l
b100000 ="
1!
1%
#20
0!
0%
#25
1."
1F
1/"
1G
07"
0U
b100000000100100000001000000000 '"
b100000000100100000001000000000 W
b1000 f
b1000 }
b1000 g
b11111111111111111111111111111111 J
b10000111111111111111100 S
b1000 -"
b111111 ,"
b10000 :"
b10000 y
1v
b1 #"
b100000100000000100100000001000000000 ("
b1000 X
b100000000100001111111111111111 K
b100000110000000000000000000000000000000010000000000000000000000000000000000000000000000000000000000000000001111111111111111111111111111111100100000000000010000111111111111111100100001111100000 F"
b100 T
1A
b100000000000000000000000000000000000000000000000000000000000000000000000000000000000000000000000000000000000 W"
1B
b100 !"
b100 h
b100 ""
b10000100000000100001111111111111111 +"
b100001000000000000000000000000000000000000000000000000000000000000000000000000000000000000000000000000000000000000000000000000000000000000000000000000000000000000000000000000000000000000000000 I"
1!
1%
#30
0!
0%
#35
b1111111111111111111111111111111100000000000000000000000000000000 C"
b1111111111111111111111111111111100000000000000000000000000000000 @"
b11111111111111111111111111111111 2
b11111111111111111111111111111111 Q"
b11111111111111111111111111111111 $
b10 L"
b10 #
b10 M"
b10000 V"
b100000000001000000000001101001 '"
b100000000001000000000001101001 W
b10000 C
b10000 u
b1100 f
b1100 }
b10000000000000000000000000000000000000 _"
1c
b10000111111111111111100 '
b11111 O"
b11111111111111111111111111111111 &
b11111111111111111111111111111111 P"
b10000 )
b1000000000 J
b10010000000100000000000 S
b0 ,"
b10010 :"
b10010 y
b1100 g
b11111 (
b1111110000 U"
b10000 +
b10000111111111111111100 ?
b1000 =
b1000 K"
b111111 3
b111111 J"
b11111111111111111111111111111111 4
b11111111111111111111111111 5
b100000000000000000000000000000000000000111111111111111111111111111111110000000000000000000000000000000010000 W"
b0 >
b100 @
1.
1,
0A
b100000000100100000001000000000 K
b100000110000000000000000000000000000000100000000000000000000000000000000000000000000000000000000000000000000000000000000000000000100000000000100000000000010010000000100000000000100100000000000 F"
b1000 T
b10 #"
b110000100000000001000000000001101001 ("
b1100 X
b100000000000000000000000000000000000000000000000000000000000000000000000000000000000000000000000000000000000 Z"
b100000110000000000000000000000000000000010000000000000000000000000000000000000000000000000000000000000000001111111111111111111111111111111100100000000000010000111111111111111100100001111100000 I"
b100000100000000100100000001000000000 +"
b1000 !"
b1000 h
b1000 ""
1!
1%
#40
0!
0%
#45
b1000000000 2
0R"
0-
b1000000000 Q"
b1000000000 $
b1100000000000000000000001001 '"
b1100000000000000000000001001 W
b10010 V"
b10000 f
b10000 }
b10010 C
b10010 u
b111111111111111111111111111111110000000000000000000000100000000000000000000000000000000000000000 C"
b111111111111111111111111111111110000000000000000000000100000000000000000000000000000000000000000 @"
b11111111111111111111111111111111 d
b111111111 \"
b10000 g
b1101001 J
b100000000000110100100 S
b101001 ,"
b100 :"
b100 y
b10010 )
b10010000000100000000000 '
b1000000000 &
b1000000000 P"
b1000 O"
b11111111111111111111111111111111110000 _"
b10000 e
b10000 w
b11111111111111111111111111111111 \
b11111111111111111111111111111111 ["
b11 #"
b1000000001100000000000000000000001001 ("
b10000 X
b100000000001000000000001101001 K
b100000110000000000000000000000000000000110000000000000000000000000000000000000000000000000000000000000000000000000000000000000000000110100100100000000000000100000000000110100100001000000000000 F"
b1100 T
b0 (
b10010 U"
b10010 +
b10010000000100000000000 ?
b0 3
b0 J"
b1000000000 4
b1000 5
b100000000000000000000000010000000100000000000000000000000000010000000000000000000000000000000000000000010010 W"
b100000001000 >
b1000 @
1m
b1100 !"
b1100 h
b1100 ""
b110000100000000001000000000001101001 +"
b100000110000000000000000000000000000000100000000000000000000000000000000000000000000000000000000000000000000000000000000000000000100000000000100000000000010010000000100000000000100100000000000 I"
b100000000000000000000000000000000000000111111111111111111111111111111110000000000000000000000000000000010000 Z"
b10000000000000000000000000000000000000 a"
1!
1%
#50
0!
0%
#55
b1101001 2
b1101001 Q"
b1101001 $
12"
1N
11"
1M
0/"
0G
b100 V"
b10001110000000000000000000000000 '"
b10001110000000000000000000000000 W
b1000000000 d
b10000000 \"
b100 C
b100 u
b10100 f
b10100 }
b10000000000000000000000100000000010010 _"
b10010 e
b10010 w
b1000000000 \
b1000000000 ["
b100000001000 b
b100 )
b100000000000110100100 '
b1101001 &
b1101001 P"
b1 O"
b1001 J
b100100 S
b11 -"
b1001 ,"
b0 :"
b0 y
b10100 g
b10000 o
b10000 z
b10000 <"
b11111111111111111111111111111111000000000000000000000010000000000000000000000000000000000110100100000000000000000000000000000000 C"
b11111111111111111111111111111111000000000000000000000010000000000000000000000000000000000110100100000000000000000000000000000000 @"
b11111111111111111111111111111111 ;"
b11111111111111111111111111111111 n
b100 U"
b100 +
b100000000000110100100 ?
b101001 3
b101001 J"
b1101001 4
b1 5
b100000000000000000000000000011011000000000000000000000000000000011010010000000000000000000000000000000000100 W"
b110110000 >
b1100 @
b1100000000000000000000001001 K
b100000101100000000000000000000000000001000000000000000000000000000000000000000000000000000000000000000000000000000000000000000000000000100100001100000000000000000000000000100100000000000000000 F"
b10000 T
b100 #"
b1010010001110000000000000000000000000 ("
b10100 X
b11111111111111111111111111111111110000 a"
b100000000000000000000000010000000100000000000000000000000000010000000000000000000000000000000000000000010010 Z"
b100000110000000000000000000000000000000110000000000000000000000000000000000000000000000000000000000000000000000000000000000000000000110100100100000000000000100000000000110100100001000000000000 I"
b1000000001100000000000000000000001001 +"
b10000 !"
b10000 h
b10000 ""
1!
1%
#60
0!
0%
#65
b11111111111111111111111111111111 B"
b11111111111111111111111111111111 H
02"
0N
01"
0M
1/"
1G
14"
1P
15"
1Q
b11111111111111111111111111111111 >"
b11111111111111111111111111111111 j
b0 Q"
b0 $
b0 '"
b0 W
b0 V"
b100100 f
b100100 }
1G"
1)"
b1101001 d
b11010 \"
b0 J
b1000000000000000000000000000 S
b100011 -"
b0 ,"
b10000 9"
b10000 x
b0 )
b100100 '
b0 O"
b10000 2
bx C
bx u
b100100 g
b0 &
b0 P"
b10000000000000000000000000110100100100 _"
b100 e
b100 w
b1101001 \
b1101001 ["
b110110000 b
b101 #"
b1100000000000000000000000000000000000 ("
b11000 X
b10001110000000000000000000000000 K
b111000110000000000000000000000000000001010011111111111111111111111111111111000000000000000000000000000000000000000000000000000000000000000010001100001000000000000000000000000000000000000010000 F"
b10100 T
b0 U"
b0 +
b100100 ?
b11 =
b11 K"
b1001 3
b1001 J"
b1001 4
b0 5
b1000000000000000000000000000000110100000000000000000000000000000001000000000000000000000000000000000000xxxxx W"
b110100 >
b10000 @
18
17
0.
b10010 o
b10010 z
b10010 <"
b1000000000000000000000000000000000011010010000000000000000000000000001000000000000000000000000000000000000 C"
b1000000000000000000000000000000000011010010000000000000000000000000001000011111111111111111111111111111111 @"
b1000000000 ;"
b1000000000 n
b10100 !"
b10100 h
b10100 ""
b1010010001110000000000000000000000000 +"
b100000101100000000000000000000000000001000000000000000000000000000000000000000000000000000000000000000000000000000000000000000000000000100100001100000000000000000000000000100100000000000000000 I"
b100000000000000000000000000011011000000000000000000000000000000011010010000000000000000000000000000000000100 Z"
b10000000000000000000000100000000010010 a"
1!
1%
#70
0!
0%
#75
b0 B"
b0 H
0."
0F
0/"
0G
17"
1U
04"
0P
05"
0Q
b0 >"
b0 j
b100 L"
b100 #
b100 M"
b10101110000001000000000000000000 '"
b10101110000001000000000000000000 W
b10000 d
b100 \"
b101000 f
b101000 }
0G"
0)"
b100000000000000000000000000010000xxxxx _"
bx e
bx w
b10000 \
b10000 ["
b110100 b
b0 '
b0 2
b0 C
b0 u
b101000 g
0v
b0 S
b0 -"
b0 9"
b0 x
b100 o
b100 z
b100 <"
b1101001000000000000000000000000000100000000000000000000000000000000000000000000000000000000000000000000 C"
b1101001000000000000000000000000000100000000000000000000000000000000000000000000000000000000000000000000 @"
b1101001 ;"
b1101001 n
b0 ?
b0 =
b0 K"
b0 4
b0 3
b0 J"
b0 >
b0 @
08
07
0,
b0 W"
0B
b0 K
b100001000000000000000000000000000000000000000000000000000000000000000000000000000000000000000000000000000000000000000000000000000000000000000000000000000000000000000000000000000000000000000000 F"
b0 T
b1001 #"
b10100010101110000001000000000000000000 ("
b101000 X
b10000000000000000000000000110100100100 a"
b1000000000000000000000000000000110100000000000000000000000000000001000000000000000000000000000000000000xxxxx Z"
b0 I"
b0 +"
b100100 !"
b100100 h
b100100 ""
1!
1%
#80
0!
0%
#85
b11111111111111111111111111111111 B"
b11111111111111111111111111111111 H
b1101001 E"
b1101001 I
1."
1F
1/"
1G
07"
0U
16"
1R
08"
0V
b11111111111111111111111111111111 >"
b11111111111111111111111111111111 j
b1101001 ?"
b1101001 k
b11111000000000000000001000 '"
b11111000000000000000001000 W
b101100 f
b101100 }
b0 d
b0 \"
b101100 g
b1000000100000000000000000000 S
b101011 -"
b10000 9"
b100 :"
b100 y
b10000 x
1v
b0 e
b0 w
b0 \
b0 ["
b0 b
b0 _"
0c
b1010 #"
b10110000000011111000000000000000001000 ("
b101100 X
b10101110000001000000000000000000 K
b100110000000000000000000000000000010100011111111111111111111111111111111000000000000000000000000011010010000000000000000000000000000000010101100001000000100000000000000000000001000000010000 F"
b101000 T
1A
b100000000000000000000000000000000000000000000000000000000000000000000000000000000000000000000000000000000000 W"
1B
bx o
bx z
bx <"
b10000000000000000000000000000000000000000000000000000000000000000000000000000000000000000000001101001 C"
b10000000000000000000000000000000000000000000000000000000000000000000011111111111111111111111111111111 @"
b10000 ;"
b10000 n
b101000 !"
b101000 h
b101000 ""
b10100010101110000001000000000000000000 +"
b100001000000000000000000000000000000000000000000000000000000000000000000000000000000000000000000000000000000000000000000000000000000000000000000000000000000000000000000000000000000000000000000 I"
b0 Z"
b100000000000000000000000000010000xxxxx a"
1!
1%
#90
0!
0%
#95
b11111111111111111111111111111111 2
b0 B"
b0 H
b0 E"
b0 I
b11111111111111111111111111111111 Q"
b11111111111111111111111111111111 $
0."
0F
0/"
0G
17"
1U
06"
0R
18"
1V
b0 >"
b0 j
b0 ?"
b0 k
b10 L"
b10 #
b10 M"
b100 V"
b0 '"
b0 W
b100 C
b100 u
b110000 f
b110000 }
b10000000000000000000000000000000000000 _"
1c
b1000000100000000000000000000 '
b100 )
0v
b1000 J
b1111100000000000000000100000 S
b0 -"
b1000 ,"
b11111 9"
b0 :"
b0 y
b11111 x
b110000 g
b0 o
b0 z
b0 <"
b1111111111111111111111111111111100000000000000000000000000000000 C"
b1111111111111111111111111111111100000000000000000000000000000000 @"
b0 ;"
b0 n
0m
b10000 *
b100 U"
b100 +
b1000000100000000000000000000 ?
b101011 =
b101011 K"
b1101001 1
b11111111111111111111111111111111 0
b11111111111111111111111111111111 N"
b101000 >
b101000 @
1.
1,
0A
1<
b100000000000000000000000000010100000111111111111111111111111111111110000000000000000000000000110100100100 W"
0B
b11111000000000000000001000 K
b100001000000000000000000000000000000010110000000000000000000000000000000000000000000000000000000000000000000000000000000000000000000000100000000000001111100000000000000000100000000000000011111 F"
b101100 T
b1011 #"
b11000000000000000000000000000000000000 ("
b110000 X
b0 a"
b100000000000000000000000000000000000000000000000000000000000000000000000000000000000000000000000000000000000 Z"
b100110000000000000000000000000000010100011111111111111111111111111111111000000000000000000000000011010010000000000000000000000000000000010101100001000000100000000000000000000001000000010000 I"
b10110000000011111000000000000000001000 +"
b101100 !"
b101100 h
b101100 ""
1!
1%
#100
0!
0%
#105
b0 2
0R"
0-
b0 Q"
b0 $
b0 V"
b110100 f
b110100 }
b0 C
b0 u
b111111111111111111111111111111110000000000000000000000000000000000000000000000000000000000000000 C"
b111111111111111111111111111111110000000000000000000000000000000000000000000000000000000000000000 @"
b11111111111111111111111111111111 d
b111111111 \"
b110100 g
b0 J
b0 S
b0 ,"
b0 9"
b0 x
b1111100000000000000000100000 '
b0 )
1v
b100 e
b100 w
b1101001 [
b1101001 ]"
b11111111111111111111111111111111 \
b11111111111111111111111111111111 ["
b101000 b
1a
b1111111111111111111111111111111100100 _"
0c
b1100 #"
b11010000000000000000000000000000000000 ("
b110100 X
b0 K
b100001000000000000000000000000000000011000000000000000000000000000000000000000000000000000000000000000000000000000000000000000000000000000000000000000000000000000000000000000000000000000000000 F"
b110000 T
b11111 *
b0 U"
b0 +
b1111100000000000000000100000 ?
b0 =
b0 K"
b1000 4
b1000 3
b1000 J"
b0 1
b0 0
b0 N"
b1001100 >
b101100 @
0.
0,
1A
0<
b100000000000000000000000000000100110000000000000000000000000000000000000000000000000000000000000000000000000 W"
1B
1m
b110000 !"
b110000 h
b110000 ""
b11000000000000000000000000000000000000 +"
b100001000000000000000000000000000000010110000000000000000000000000000000000000000000000000000000000000000000000000000000000000000000000100000000000001111100000000000000000100000000000000011111 I"
b100000000000000000000000000010100000111111111111111111111111111111110000000000000000000000000110100100100 Z"
b10000000000000000000000000000000000000 a"
1!
1%
#110
0!
0%
#115
b100 L"
b100 #
b100 M"
b0 d
b0 \"
b111000 f
b111000 }
b0 e
b0 w
b0 [
b0 ]"
b0 \
b0 ["
b1001100 b
0a
b10000000000000000000000000000000000000 _"
1c
b0 '
b111000 g
b100 o
b100 z
b100 <"
b11111111111111111111111111111111000000000000000000000000000000000000000000000000000000000000000000000000000000000000000000000000 C"
b11111111111111111111111111111111000000000000000000000000000000000000000000000000000000000000000000000000000000000000000000000000 @"
b11111111111111111111111111111111 ;"
b11111111111111111111111111111111 n
0m
b0 *
b0 ?
b0 4
b0 3
b0 J"
b100000000000000000000000000000011000000000000000000000000000000000000000000000000000000000000000000000000000 W"
b110000 >
b110000 @
b100001000000000000000000000000000000011010000000000000000000000000000000000000000000000000000000000000000000000000000000000000000000000000000000000000000000000000000000000000000000000000000000 F"
b110100 T
b1101 #"
b11100000000000000000000000000000000000 ("
b111000 X
b1111111111111111111111111111111100100 a"
b100000000000000000000000000000100110000000000000000000000000000000000000000000000000000000000000000000000000 Z"
b100001000000000000000000000000000000011000000000000000000000000000000000000000000000000000000000000000000000000000000000000000000000000000000000000000000000000000000000000000000000000000000000 I"
b11010000000000000000000000000000000000 +"
b110100 !"
b110100 h
b110100 ""
1!
1%
#120
0!
0%
#125
b111100 f
b111100 }
b111100 g
b110000 b
b1110 #"
b11110000000000000000000000000000000000 ("
b111100 X
b100001000000000000000000000000000000011100000000000000000000000000000000000000000000000000000000000000000000000000000000000000000000000000000000000000000000000000000000000000000000000000000000 F"
b111000 T
b100000000000000000000000000000011010000000000000000000000000000000000000000000000000000000000000000000000000 W"
b110100 >
b110100 @
b0 o
b0 z
b0 <"
b0 C"
b0 @"
b0 ;"
b0 n
1m
b111000 !"
b111000 h
b111000 ""
b11100000000000000000000000000000000000 +"
b100001000000000000000000000000000000011010000000000000000000000000000000000000000000000000000000000000000000000000000000000000000000000000000000000000000000000000000000000000000000000000000000 I"
b100000000000000000000000000000011000000000000000000000000000000000000000000000000000000000000000000000000000 Z"
b10000000000000000000000000000000000000 a"
1!
1%
#130
0!
0%
#135
b1000000 f
b1000000 }
b110100 b
b1000000 g
b100000000000000000000000000000011100000000000000000000000000000000000000000000000000000000000000000000000000 W"
b111000 >
b111000 @
b100001000000000000000000000000000000011110000000000000000000000000000000000000000000000000000000000000000000000000000000000000000000000000000000000000000000000000000000000000000000000000000000 F"
b111100 T
b1111 #"
b100000000000000000000000000000000000000 ("
b1000000 X
b100000000000000000000000000000011010000000000000000000000000000000000000000000000000000000000000000000000000 Z"
b100001000000000000000000000000000000011100000000000000000000000000000000000000000000000000000000000000000000000000000000000000000000000000000000000000000000000000000000000000000000000000000000 I"
b11110000000000000000000000000000000000 +"
b111100 !"
b111100 h
b111100 ""
1!
1%
#140
0!
0%
#145
b1000100 f
b1000100 }
b1000100 g
b111000 b
b10000 #"
b100010000000000000000000000000000000000 ("
b1000100 X
b100001000000000000000000000000000000100000000000000000000000000000000000000000000000000000000000000000000000000000000000000000000000000000000000000000000000000000000000000000000000000000000000 F"
b1000000 T
b100000000000000000000000000000011110000000000000000000000000000000000000000000000000000000000000000000000000 W"
b111100 >
b111100 @
b1000000 !"
b1000000 h
b1000000 ""
b100000000000000000000000000000000000000 +"
b100001000000000000000000000000000000011110000000000000000000000000000000000000000000000000000000000000000000000000000000000000000000000000000000000000000000000000000000000000000000000000000000 I"
b100000000000000000000000000000011100000000000000000000000000000000000000000000000000000000000000000000000000 Z"
1!
1%
#150
0!
0%
#155
b1001000 f
b1001000 }
b111100 b
b1001000 g
b100000000000000000000000000000100000000000000000000000000000000000000000000000000000000000000000000000000000 W"
b1000000 >
b1000000 @
b100001000000000000000000000000000000100010000000000000000000000000000000000000000000000000000000000000000000000000000000000000000000000000000000000000000000000000000000000000000000000000000000 F"
b1000100 T
b10001 #"
b100100000000000000000000000000000000000 ("
b1001000 X
b100000000000000000000000000000011110000000000000000000000000000000000000000000000000000000000000000000000000 Z"
b100001000000000000000000000000000000100000000000000000000000000000000000000000000000000000000000000000000000000000000000000000000000000000000000000000000000000000000000000000000000000000000000 I"
b100010000000000000000000000000000000000 +"
b1000100 !"
b1000100 h
b1000100 ""
1!
1%
#160
0!
0%
#165
b1001100 f
b1001100 }
b1001100 g
b1000000 b
b10010 #"
b100110000000000000000000000000000000000 ("
b1001100 X
b100001000000000000000000000000000000100100000000000000000000000000000000000000000000000000000000000000000000000000000000000000000000000000000000000000000000000000000000000000000000000000000000 F"
b1001000 T
b100000000000000000000000000000100010000000000000000000000000000000000000000000000000000000000000000000000000 W"
b1000100 >
b1000100 @
b1001000 !"
b1001000 h
b1001000 ""
b100100000000000000000000000000000000000 +"
b100001000000000000000000000000000000100010000000000000000000000000000000000000000000000000000000000000000000000000000000000000000000000000000000000000000000000000000000000000000000000000000000 I"
b100000000000000000000000000000100000000000000000000000000000000000000000000000000000000000000000000000000000 Z"
1!
1%
#170
0!
0%
#175
b1010000 f
b1010000 }
b1000100 b
b1010000 g
b100000000000000000000000000000100100000000000000000000000000000000000000000000000000000000000000000000000000 W"
b1001000 >
b1001000 @
b100001000000000000000000000000000000100110000000000000000000000000000000000000000000000000000000000000000000000000000000000000000000000000000000000000000000000000000000000000000000000000000000 F"
b1001100 T
b10011 #"
b101000000000000000000000000000000000000 ("
b1010000 X
b100000000000000000000000000000100010000000000000000000000000000000000000000000000000000000000000000000000000 Z"
b100001000000000000000000000000000000100100000000000000000000000000000000000000000000000000000000000000000000000000000000000000000000000000000000000000000000000000000000000000000000000000000000 I"
b100110000000000000000000000000000000000 +"
b1001100 !"
b1001100 h
b1001100 ""
1!
1%
#180
0!
0%
#185
b1010100 f
b1010100 }
b1010100 g
b1001000 b
b10100 #"
b101010000000000000000000000000000000000 ("
b1010100 X
b100001000000000000000000000000000000101000000000000000000000000000000000000000000000000000000000000000000000000000000000000000000000000000000000000000000000000000000000000000000000000000000000 F"
b1010000 T
b100000000000000000000000000000100110000000000000000000000000000000000000000000000000000000000000000000000000 W"
b1001100 >
b1001100 @
b1010000 !"
b1010000 h
b1010000 ""
b101000000000000000000000000000000000000 +"
b100001000000000000000000000000000000100110000000000000000000000000000000000000000000000000000000000000000000000000000000000000000000000000000000000000000000000000000000000000000000000000000000 I"
b100000000000000000000000000000100100000000000000000000000000000000000000000000000000000000000000000000000000 Z"
1!
1%
#190
0!
0%
#195
b1011000 f
b1011000 }
b1001100 b
b1011000 g
b100000000000000000000000000000101000000000000000000000000000000000000000000000000000000000000000000000000000 W"
b1010000 >
b1010000 @
b100001000000000000000000000000000000101010000000000000000000000000000000000000000000000000000000000000000000000000000000000000000000000000000000000000000000000000000000000000000000000000000000 F"
b1010100 T
b10101 #"
b101100000000000000000000000000000000000 ("
b1011000 X
b100000000000000000000000000000100110000000000000000000000000000000000000000000000000000000000000000000000000 Z"
b100001000000000000000000000000000000101000000000000000000000000000000000000000000000000000000000000000000000000000000000000000000000000000000000000000000000000000000000000000000000000000000000 I"
b101010000000000000000000000000000000000 +"
b1010100 !"
b1010100 h
b1010100 ""
1!
1%
#200
0!
0%
#205
b1011100 f
b1011100 }
b1011100 g
b1010000 b
b10110 #"
b101110000000000000000000000000000000000 ("
b1011100 X
b100001000000000000000000000000000000101100000000000000000000000000000000000000000000000000000000000000000000000000000000000000000000000000000000000000000000000000000000000000000000000000000000 F"
b1011000 T
b100000000000000000000000000000101010000000000000000000000000000000000000000000000000000000000000000000000000 W"
b1010100 >
b1010100 @
b1011000 !"
b1011000 h
b1011000 ""
b101100000000000000000000000000000000000 +"
b100001000000000000000000000000000000101010000000000000000000000000000000000000000000000000000000000000000000000000000000000000000000000000000000000000000000000000000000000000000000000000000000 I"
b100000000000000000000000000000101000000000000000000000000000000000000000000000000000000000000000000000000000 Z"
1!
1%
#210
0!
0%
