traces/jump.vcd
$date
	Tue Nov 17 13:10:53 2015
$end
$version
	Icarus Verilog
$end
$timescale
	1s
$end
$scope module cpu_tb $end
$var reg 1 ! clk $end
$var reg 1 " reset $end
$scope module cpu $end
$var wire 4 # aluop [3:0] $end
$var wire 1 $ clk $end
$var wire 32 % data_rt [31:0] $end
$var wire 5 & dst_rd [4:0] $end
$var wire 5 ' dst_rs [4:0] $end
$var wire 5 ( dst_rt [4:0] $end
$var wire 1 ) ex_aluop $end
$var wire 1 * ex_aluovf $end
$var wire 32 + ex_alures [31:0] $end
$var wire 1 , ex_alusrc $end
$var wire 1 - ex_aluz $end
$var wire 32 . ex_data_rs [31:0] $end
$var wire 32 / ex_data_rt [31:0] $end
$var wire 6 0 ex_funct [5:0] $end
$var wire 32 1 ex_imm [31:0] $end
$var wire 26 2 ex_imm_top [25:0] $end
$var wire 1 3 ex_isbranch $end
$var wire 1 4 ex_isjump $end
$var wire 1 5 ex_memread $end
$var wire 1 6 ex_memtoreg $end
$var wire 1 7 ex_memwrite $end
$var wire 6 8 ex_opcode [5:0] $end
$var wire 32 9 ex_pc_branch [31:0] $end
$var wire 32 : ex_pc_jump [31:0] $end
$var wire 32 ; ex_pc_next [31:0] $end
$var wire 1 < ex_regdst $end
$var wire 1 = ex_regwrite $end
$var wire 5 > ex_wreg [4:0] $end
$var wire 2 ? fwdctrl_rs [1:0] $end
$var wire 2 @ fwdctrl_rt [1:0] $end
$var wire 1 A id_aluop $end
$var wire 1 B id_alusrc $end
$var wire 32 C id_data_rs [31:0] $end
$var wire 32 D id_data_rt [31:0] $end
$var wire 32 E id_imm [31:0] $end
$var wire 32 F id_instr [31:0] $end
$var wire 1 G id_isbranch $end
$var wire 1 H id_isjump $end
$var wire 1 I id_memread $end
$var wire 1 J id_memtoreg $end
$var wire 1 K id_memwrite $end
$var wire 32 L id_pc_jump [31:0] $end
$var wire 32 M id_pc_next [31:0] $end
$var wire 1 N id_regdst $end
$var wire 1 O id_regwrite $end
$var wire 32 P if_instr [31:0] $end
$var wire 32 Q if_pc_next [31:0] $end
$var wire 1 R mem_aluovf $end
$var wire 32 S mem_alures [31:0] $end
$var wire 1 T mem_aluz $end
$var wire 32 U mem_data_rt [31:0] $end
$var wire 1 V mem_isbranch $end
$var wire 32 W mem_memout [31:0] $end
$var wire 1 X mem_memread $end
$var wire 1 Y mem_memtoreg $end
$var wire 1 Z mem_memwrite $end
$var wire 32 [ mem_pc_branch [31:0] $end
$var wire 1 \ mem_regwrite $end
$var wire 32 ] mem_wdata [31:0] $end
$var wire 5 ^ mem_wreg [4:0] $end
$var wire 32 _ pc_in [31:0] $end
$var wire 32 ` pc_interm [31:0] $end
$var wire 32 a pc_out [31:0] $end
$var wire 1 b pc_take_branch $end
$var wire 32 c reg_rs [31:0] $end
$var wire 32 d reg_rt [31:0] $end
$var wire 1 e reset $end
$var wire 1 f wb_regwrite $end
$var wire 32 g wb_wdata [31:0] $end
$var wire 5 h wb_wreg [4:0] $end
$var reg 1 i ex_mem_we $end
$var reg 1 j id_ex_we $end
$var reg 1 k if_id_we $end
$var reg 1 l mem_wb_we $end
$var reg 1 m pc_we $end
$scope module fwdcontrol $end
$var wire 5 n ex_dst [4:0] $end
$var wire 1 o ex_rw $end
$var wire 5 p mem_dst [4:0] $end
$var wire 1 \ mem_rw $end
$var wire 5 q rs [4:0] $end
$var wire 5 r rt [4:0] $end
$var wire 5 s wb_dst [4:0] $end
$var wire 1 f wb_rw $end
$var reg 2 t ctrl_rs [1:0] $end
$var reg 2 u ctrl_rt [1:0] $end
$upscope $end
$scope module pc_jmux $end
$var wire 64 v in_data [63:0] $end
$var wire 1 4 select $end
$var reg 32 w out_data [31:0] $end
$upscope $end
$scope module pc_bmux $end
$var wire 64 x in_data [63:0] $end
$var wire 1 b select $end
$var reg 32 y out_data [31:0] $end
$upscope $end
$scope module pc $end
$var wire 1 $ clk $end
$var wire 32 z in [31:0] $end
$var wire 1 e reset $end
$var wire 1 { we $end
$var reg 32 | out [31:0] $end
$upscope $end
$scope module imem $end
$var wire 32 } addr [31:0] $end
$var wire 1 $ clk $end
$var wire 5 ~ index [4:0] $end
$var wire 1 !" memread $end
$var wire 1 "" memwrite $end
$var wire 1 e reset $end
$var wire 32 #" wdata [31:0] $end
$var reg 32 $" rdata [31:0] $end
$upscope $end
$scope module if_id $end
$var wire 1 $ clk $end
$var wire 64 %" in [63:0] $end
$var wire 1 &" reset $end
$var wire 1 '" we $end
$var reg 64 (" out [63:0] $end
$upscope $end
$scope module control $end
$var wire 6 )" funct [5:0] $end
$var wire 6 *" opcode [5:0] $end
$var reg 1 +" aluop $end
$var reg 1 ," alusrc $end
$var reg 1 -" isbranch $end
$var reg 1 ." isjump $end
$var reg 1 /" memread $end
$var reg 1 0" memtoreg $end
$var reg 1 1" memwrite $end
$var reg 1 2" regdst $end
$var reg 1 3" regwrite $end
$upscope $end
$scope module regfile $end
$var wire 1 $ clk $end
$var wire 1 f regwrite $end
$var wire 1 e reset $end
$var wire 5 4" rreg1 [4:0] $end
$var wire 5 5" rreg2 [4:0] $end
$var wire 33 6" wdata [32:0] $end
$var wire 5 7" wreg [4:0] $end
$var integer 32 8" i [31:0] $end
$var reg 32 9" rdata1 [31:0] $end
$var reg 32 :" rdata2 [31:0] $end
$upscope $end
$scope module data_rs_mux $end
$var wire 128 ;" in_data [127:0] $end
$var wire 2 <" select [1:0] $end
$var reg 32 =" out_data [31:0] $end
$upscope $end
$scope module data_rt_mux $end
$var wire 128 >" in_data [127:0] $end
$var wire 2 ?" select [1:0] $end
$var reg 32 @" out_data [31:0] $end
$upscope $end
$scope module id_ex $end
$var wire 1 $ clk $end
$var wire 190 A" in [189:0] $end
$var wire 1 B" reset $end
$var wire 1 C" we $end
$var reg 190 D" out [189:0] $end
$upscope $end
$scope module alucontrol $end
$var wire 1 ) aluop_in $end
$var wire 6 E" funct [5:0] $end
$var wire 6 F" opcode [5:0] $end
$var reg 4 G" aluop_out [3:0] $end
$upscope $end
$scope module t_mux $end
$var wire 64 H" in_data [63:0] $end
$var wire 1 , select $end
$var reg 32 I" out_data [31:0] $end
$upscope $end
$scope module alu $end
$var wire 4 J" aluop [3:0] $end
$var wire 32 K" s [31:0] $end
$var wire 5 L" shamt [4:0] $end
$var wire 32 M" t [31:0] $end
$var reg 32 N" out [31:0] $end
$var reg 1 O" overflow $end
$var reg 64 P" tmp [63:0] $end
$var reg 1 Q" zero $end
$upscope $end
$scope module dst_mux $end
$var wire 10 R" in_data [9:0] $end
$var wire 1 < select $end
$var reg 5 S" out_data [4:0] $end
$upscope $end
$scope module ex_mem $end
$var wire 1 $ clk $end
$var wire 110 T" in [109:0] $end
$var wire 1 U" reset $end
$var wire 1 V" we $end
$var reg 110 W" out [109:0] $end
$upscope $end
$scope module dmem $end
$var wire 32 X" addr [31:0] $end
$var wire 1 $ clk $end
$var wire 5 Y" index [4:0] $end
$var wire 1 X memread $end
$var wire 1 Z memwrite $end
$var wire 1 e reset $end
$var wire 32 Z" wdata [31:0] $end
$var reg 32 [" rdata [31:0] $end
$upscope $end
$scope module mem_mux $end
$var wire 64 \" in_data [63:0] $end
$var wire 1 Y select $end
$var reg 32 ]" out_data [31:0] $end
$upscope $end
$scope module mem_wb $end
$var wire 1 $ clk $end
$var wire 38 ^" in [37:0] $end
$var wire 1 e reset $end
$var wire 1 _" we $end
$var reg 38 `" out [37:0] $end
$upscope $end
$upscope $end
$upscope $end
$enddefinitions $end
#0
$dumpvars
b0 `"
1_"
b0 ^"
b0 ]"
b0 \"
b0 ["
b0 Z"
b0 Y"
b0 X"
b0 W"
1V"
1U"
b0 T"
b0 S"
b0 R"
0Q"
b0 P"
0O"
b0 N"
b0 M"
b0 L"
b0 K"
b100 J"
b0 I"
b0 H"
b100 G"
b0 F"
b0 E"
b0 D"
1C"
1B"
b1000010000000000000000000000000000000000000000000000000000000000000000000000000000000000000000000000000000000000000000000000000000000000000000000000000000000000000000000000000000000000000000 A"
b0 @"
b0 ?"
b0 >"
b0 ="
b0 <"
b0 ;"
b0 :"
b0 9"
bx 8"
b0 7"
b0 6"
b0 5"
b0 4"
13"
12"
01"
00"
0/"
0."
0-"
0,"
0+"
b0 *"
b0 )"
b0 ("
1'"
1&"
b100xxxxxxxxxxxxxxxxxxxxxxxxxxxxxxxx %"
bx $"
b0 #"
0""
1!"
b0 ~
b0 }
b0 |
1{
b100 z
b100 y
b100 x
b100 w
b100 v
b0 u
b0 t
b0 s
b0 r
b0 q
b0 p
0o
b0 n
1m
1l
1k
1j
1i
b0 h
b0 g
0f
1e
b0 d
b0 c
0b
b0 a
b100 `
b100 _
b0 ^
b0 ]
0\
b0 [
0Z
0Y
0X
b0 W
0V
b0 U
0T
b0 S
0R
b100 Q
bx P
1O
1N
b0 M
b0 L
0K
0J
0I
0H
0G
b0 F
b0 E
b0 D
b0 C
0B
0A
b0 @
b0 ?
b0 >
0=
0<
b0 ;
b0 :
b0 9
b0 8
07
06
05
04
03
b0 2
b0 1
b0 0
b0 /
b0 .
0-
0,
b0 +
0*
0)
b0 (
b0 '
b0 &
b0 %
0$
b100 #
1"
0!
$end
#5
b100000 8"
1!
1$
#10
0!
0$
#15
b1000000000000000000000000000 $"
b10000001000000000000000000000000000 %"
b1000000000000000000000000000 P
0&"
0B"
0U"
0"
0e
b100000 8"
1!
1$
#20
0!
0$
#25
b1000 y
b1000 _
b1000 z
1."
1H
1+"
1A
02"
0N
03"
0O
b100000000010010000000000000001 $"
b100000000010010000000000000001 P
b1000 w
b1000 x
b1000 `
b10 *"
1o
b1 ~
b1000 v
b100000100000000010010000000000000001 %"
b1000 Q
b1000000000000000000000000000 F
b1010000000000000000000000000000010000000000000000000000000000000000000000000000000000000000000000000000000000000000000000000000000000001000000000000000000000000000000000000000000000000 A"
b100 M
1<
b100000000000000000000000000000000000000000000000000000000000000000000000000000000000000000000000000000000000 T"
1=
b100 |
b100 a
b100 }
b10000001000000000000000000000000000 ("
b1000010000000000000000000000000000000000000000000000000000000000000000000000000000000000000000000000000000000000000000000000000000000000000000000000000000000000000000000000000000000000000000 D"
1!
1$
#30
0!
0$
#35
b0 y
b0 _
b0 z
0."
0H
1,"
1B
13"
1O
b100000000010100000000000000010 $"
b100000000010100000000000000010 P
b0 w
b0 x
b0 `
1B"
1&"
b10000000000000000000000000000000000000 ^"
1\
0o
b1 E
b1001000000000000000100 L
b1000 *"
b1 )"
b1001 5"
b1001 r
b10 8
b10 F"
b100 9
b100 ;
14
1)
0<
b10000000000000000000000000000000000000000000000000000000000000000000000000 T"
0=
b100000000010010000000000000001 F
b1000001100000000000000000000000000000100000000000000000000000000000000000000000000000000000000000000000000000000000000000000000000000000100100000000000001001000000000000000100010010000000000 A"
b1000 M
b10 ~
b1100 v
b110000100000000010100000000000000010 %"
b1100 Q
b100000000000000000000000000000000000000000000000000000000000000000000000000000000000000000000000000000000000 W"
b1010000000000000000000000000000010000000000000000000000000000000000000000000000000000000000000000000000000000000000000000000000000000001000000000000000000000000000000000000000000000000 D"
b100000100000000010010000000000000001 ("
b1000 |
b1000 a
b1000 }
1!
1$
#40
0!
0$
#45
b100 y
b100 _
b100 z
0+"
0A
0,"
0B
12"
1N
b1000000000000000000000000000 $"
b1000000000000000000000000000 P
b100 w
b100 `
0B"
0&"
b0 E
b0 L
b0 *"
b0 )"
b0 5"
b0 r
b10000000000000000000000000000000100 x
b100 [
b0 ^"
0\
b0 ~
b100 v
b10000001000000000000000000000000000 %"
b100 Q
b0 F
b1000010000000000000000000000000000000000000000000000000000000000000000000000000000000000000000000000000000000000000000000000000000000000000000000000000000000000000000000000000000000000000000 A"
b0 M
b0 8
b0 F"
b0 T"
b0 9
b0 ;
04
0)
1f
b0 |
b0 a
b0 }
b0 ("
b0 D"
b10000000000000000000000000000000000000000000000000000000000000000000000000 W"
b10000000000000000000000000000000000000 `"
1!
1$
#50
0!
0$
#55
b1000 y
b1000 _
b1000 z
1."
1H
1+"
1A
02"
0N
03"
0O
b100000000010010000000000000001 $"
b100000000010010000000000000001 P
b1000 w
b1000 `
b1000 x
b0 [
1o
b10 *"
0f
1<
b100000000000000000000000000000000000000000000000000000000000000000000000000000000000000000000000000000000000 T"
1=
b1000000000000000000000000000 F
b1010000000000000000000000000000010000000000000000000000000000000000000000000000000000000000000000000000000000000000000000000000000000001000000000000000000000000000000000000000000000000 A"
b100 M
b1 ~
b1000 v
b100000100000000010010000000000000001 %"
b1000 Q
b0 `"
b0 W"
b1000010000000000000000000000000000000000000000000000000000000000000000000000000000000000000000000000000000000000000000000000000000000000000000000000000000000000000000000000000000000000000000 D"
b10000001000000000000000000000000000 ("
b100 |
b100 a
b100 }
1!
1$
#60
0!
0$
#65
b0 y
b0 _
b0 z
0."
0H
1,"
1B
13"
1O
b100000000010100000000000000010 $"
b100000000010100000000000000010 P
b0 w
b0 x
b0 `
1B"
1&"
b1 E
b1001000000000000000100 L
b1000 *"
b1 )"
b1001 5"
b1001 r
0o
b10000000000000000000000000000000000000 ^"
1\
b10 ~
b1100 v
b110000100000000010100000000000000010 %"
b1100 Q
b100000000010010000000000000001 F
b1000001100000000000000000000000000000100000000000000000000000000000000000000000000000000000000000000000000000000000000000000000000000000100100000000000001001000000000000000100010010000000000 A"
b1000 M
b10 8
b10 F"
b100 9
b100 ;
14
1)
0<
b10000000000000000000000000000000000000000000000000000000000000000000000000 T"
0=
b1000 |
b1000 a
b1000 }
b100000100000000010010000000000000001 ("
b1010000000000000000000000000000010000000000000000000000000000000000000000000000000000000000000000000000000000000000000000000000000000001000000000000000000000000000000000000000000000000 D"
b100000000000000000000000000000000000000000000000000000000000000000000000000000000000000000000000000000000000 W"
1!
1$
#70
0!
0$
#75
b100 y
b100 _
b100 z
0+"
0A
0,"
0B
12"
1N
b1000000000000000000000000000 $"
b1000000000000000000000000000 P
b100 w
b100 `
0B"
0&"
b10000000000000000000000000000000100 x
b100 [
b0 ^"
0\
b0 E
b0 L
b0 *"
b0 )"
b0 5"
b0 r
1f
b0 8
b0 F"
b0 T"
b0 9
b0 ;
04
0)
b0 F
b1000010000000000000000000000000000000000000000000000000000000000000000000000000000000000000000000000000000000000000000000000000000000000000000000000000000000000000000000000000000000000000000 A"
b0 M
b0 ~
b100 v
b10000001000000000000000000000000000 %"
b100 Q
b10000000000000000000000000000000000000 `"
b10000000000000000000000000000000000000000000000000000000000000000000000000 W"
b0 D"
b0 ("
b0 |
b0 a
b0 }
1!
1$
#80
0!
0$
#85
b1000 y
b1000 _
b1000 z
1."
1H
1+"
1A
02"
0N
03"
0O
b100000000010010000000000000001 $"
b100000000010010000000000000001 P
b1000 w
b1000 `
b10 *"
1o
b1000 x
b0 [
b1 ~
b1000 v
b100000100000000010010000000000000001 %"
b1000 Q
b1000000000000000000000000000 F
b1010000000000000000000000000000010000000000000000000000000000000000000000000000000000000000000000000000000000000000000000000000000000001000000000000000000000000000000000000000000000000 A"
b100 M
1<
b100000000000000000000000000000000000000000000000000000000000000000000000000000000000000000000000000000000000 T"
1=
0f
b100 |
b100 a
b100 }
b10000001000000000000000000000000000 ("
b1000010000000000000000000000000000000000000000000000000000000000000000000000000000000000000000000000000000000000000000000000000000000000000000000000000000000000000000000000000000000000000000 D"
b0 W"
b0 `"
1!
1$
#90
0!
0$
#95
b0 y
b0 _
b0 z
0."
0H
1,"
1B
13"
1O
b100000000010100000000000000010 $"
b100000000010100000000000000010 P
b0 w
b0 x
b0 `
1B"
1&"
b10000000000000000000000000000000000000 ^"
1\
0o
b1 E
b1001000000000000000100 L
b1000 *"
b1 )"
b1001 5"
b1001 r
b10 8
b10 F"
b100 9
b100 ;
14
1)
0<
b10000000000000000000000000000000000000000000000000000000000000000000000000 T"
0=
b100000000010010000000000000001 F
b1000001100000000000000000000000000000100000000000000000000000000000000000000000000000000000000000000000000000000000000000000000000000000100100000000000001001000000000000000100010010000000000 A"
b1000 M
b10 ~
b1100 v
b110000100000000010100000000000000010 %"
b1100 Q
b100000000000000000000000000000000000000000000000000000000000000000000000000000000000000000000000000000000000 W"
b1010000000000000000000000000000010000000000000000000000000000000000000000000000000000000000000000000000000000000000000000000000000000001000000000000000000000000000000000000000000000000 D"
b100000100000000010010000000000000001 ("
b1000 |
b1000 a
b1000 }
1!
1$
#100
0!
0$
#105
b100 y
b100 _
b100 z
0+"
0A
0,"
0B
12"
1N
b1000000000000000000000000000 $"
b1000000000000000000000000000 P
b100 w
b100 `
0B"
0&"
b0 E
b0 L
b0 *"
b0 )"
b0 5"
b0 r
b10000000000000000000000000000000100 x
b100 [
b0 ^"
0\
b0 ~
b100 v
b10000001000000000000000000000000000 %"
b100 Q
b0 F
b1000010000000000000000000000000000000000000000000000000000000000000000000000000000000000000000000000000000000000000000000000000000000000000000000000000000000000000000000000000000000000000000 A"
b0 M
b0 8
b0 F"
b0 T"
b0 9
b0 ;
04
0)
1f
b0 |
b0 a
b0 }
b0 ("
b0 D"
b10000000000000000000000000000000000000000000000000000000000000000000000000 W"
b10000000000000000000000000000000000000 `"
1!
1$
#110
0!
0$
#115
b1000 y
b1000 _
b1000 z
1."
1H
1+"
1A
02"
0N
03"
0O
b100000000010010000000000000001 $"
b100000000010010000000000000001 P
b1000 w
b1000 `
b1000 x
b0 [
1o
b10 *"
0f
1<
b100000000000000000000000000000000000000000000000000000000000000000000000000000000000000000000000000000000000 T"
1=
b1000000000000000000000000000 F
b1010000000000000000000000000000010000000000000000000000000000000000000000000000000000000000000000000000000000000000000000000000000000001000000000000000000000000000000000000000000000000 A"
b100 M
b1 ~
b1000 v
b100000100000000010010000000000000001 %"
b1000 Q
b0 `"
b0 W"
b1000010000000000000000000000000000000000000000000000000000000000000000000000000000000000000000000000000000000000000000000000000000000000000000000000000000000000000000000000000000000000000000 D"
b10000001000000000000000000000000000 ("
b100 |
b100 a
b100 }
1!
1$
#120
0!
0$
#125
b0 y
b0 _
b0 z
0."
0H
1,"
1B
13"
1O
b100000000010100000000000000010 $"
b100000000010100000000000000010 P
b0 w
b0 x
b0 `
1B"
1&"
b1 E
b1001000000000000000100 L
b1000 *"
b1 )"
b1001 5"
b1001 r
0o
b10000000000000000000000000000000000000 ^"
1\
b10 ~
b1100 v
b110000100000000010100000000000000010 %"
b1100 Q
b100000000010010000000000000001 F
b1000001100000000000000000000000000000100000000000000000000000000000000000000000000000000000000000000000000000000000000000000000000000000100100000000000001001000000000000000100010010000000000 A"
b1000 M
b10 8
b10 F"
b100 9
b100 ;
14
1)
0<
b10000000000000000000000000000000000000000000000000000000000000000000000000 T"
0=
b1000 |
b1000 a
b1000 }
b100000100000000010010000000000000001 ("
b1010000000000000000000000000000010000000000000000000000000000000000000000000000000000000000000000000000000000000000000000000000000000001000000000000000000000000000000000000000000000000 D"
b100000000000000000000000000000000000000000000000000000000000000000000000000000000000000000000000000000000000 W"
1!
1$
#130
0!
0$
#135
b100 y
b100 _
b100 z
0+"
0A
0,"
0B
12"
1N
b1000000000000000000000000000 $"
b1000000000000000000000000000 P
b100 w
b100 `
0B"
0&"
b10000000000000000000000000000000100 x
b100 [
b0 ^"
0\
b0 E
b0 L
b0 *"
b0 )"
b0 5"
b0 r
1f
b0 8
b0 F"
b0 T"
b0 9
b0 ;
04
0)
b0 F
b1000010000000000000000000000000000000000000000000000000000000000000000000000000000000000000000000000000000000000000000000000000000000000000000000000000000000000000000000000000000000000000000 A"
b0 M
b0 ~
b100 v
b10000001000000000000000000000000000 %"
b100 Q
b10000000000000000000000000000000000000 `"
b10000000000000000000000000000000000000000000000000000000000000000000000000 W"
b0 D"
b0 ("
b0 |
b0 a
b0 }
1!
1$
#140
0!
0$
#145
b1000 y
b1000 _
b1000 z
1."
1H
1+"
1A
02"
0N
03"
0O
b100000000010010000000000000001 $"
b100000000010010000000000000001 P
b1000 w
b1000 `
b10 *"
1o
b1000 x
b0 [
b1 ~
b1000 v
b100000100000000010010000000000000001 %"
b1000 Q
b1000000000000000000000000000 F
b1010000000000000000000000000000010000000000000000000000000000000000000000000000000000000000000000000000000000000000000000000000000000001000000000000000000000000000000000000000000000000 A"
b100 M
1<
b100000000000000000000000000000000000000000000000000000000000000000000000000000000000000000000000000000000000 T"
1=
0f
b100 |
b100 a
b100 }
b10000001000000000000000000000000000 ("
b1000010000000000000000000000000000000000000000000000000000000000000000000000000000000000000000000000000000000000000000000000000000000000000000000000000000000000000000000000000000000000000000 D"
b0 W"
b0 `"
1!
1$
#150
0!
0$
#155
b0 y
b0 _
b0 z
0."
0H
1,"
1B
13"
1O
b100000000010100000000000000010 $"
b100000000010100000000000000010 P
b0 w
b0 x
b0 `
1B"
1&"
b10000000000000000000000000000000000000 ^"
1\
0o
b1 E
b1001000000000000000100 L
b1000 *"
b1 )"
b1001 5"
b1001 r
b10 8
b10 F"
b100 9
b100 ;
14
1)
0<
b10000000000000000000000000000000000000000000000000000000000000000000000000 T"
0=
b100000000010010000000000000001 F
b1000001100000000000000000000000000000100000000000000000000000000000000000000000000000000000000000000000000000000000000000000000000000000100100000000000001001000000000000000100010010000000000 A"
b1000 M
b10 ~
b1100 v
b110000100000000010100000000000000010 %"
b1100 Q
b100000000000000000000000000000000000000000000000000000000000000000000000000000000000000000000000000000000000 W"
b1010000000000000000000000000000010000000000000000000000000000000000000000000000000000000000000000000000000000000000000000000000000000001000000000000000000000000000000000000000000000000 D"
b100000100000000010010000000000000001 ("
b1000 |
b1000 a
b1000 }
1!
1$
#160
0!
0$
#165
b100 y
b100 _
b100 z
0+"
0A
0,"
0B
12"
1N
b1000000000000000000000000000 $"
b1000000000000000000000000000 P
b100 w
b100 `
0B"
0&"
b0 E
b0 L
b0 *"
b0 )"
b0 5"
b0 r
b10000000000000000000000000000000100 x
b100 [
b0 ^"
0\
b0 ~
b100 v
b10000001000000000000000000000000000 %"
b100 Q
b0 F
b1000010000000000000000000000000000000000000000000000000000000000000000000000000000000000000000000000000000000000000000000000000000000000000000000000000000000000000000000000000000000000000000 A"
b0 M
b0 8
b0 F"
b0 T"
b0 9
b0 ;
04
0)
1f
b0 |
b0 a
b0 }
b0 ("
b0 D"
b10000000000000000000000000000000000000000000000000000000000000000000000000 W"
b10000000000000000000000000000000000000 `"
1!
1$
#170
0!
0$
#175
b1000 y
b1000 _
b1000 z
1."
1H
1+"
1A
02"
0N
03"
0O
b100000000010010000000000000001 $"
b100000000010010000000000000001 P
b1000 w
b1000 `
b1000 x
b0 [
1o
b10 *"
0f
1<
b100000000000000000000000000000000000000000000000000000000000000000000000000000000000000000000000000000000000 T"
1=
b1000000000000000000000000000 F
b1010000000000000000000000000000010000000000000000000000000000000000000000000000000000000000000000000000000000000000000000000000000000001000000000000000000000000000000000000000000000000 A"
b100 M
b1 ~
b1000 v
b100000100000000010010000000000000001 %"
b1000 Q
b0 `"
b0 W"
b1000010000000000000000000000000000000000000000000000000000000000000000000000000000000000000000000000000000000000000000000000000000000000000000000000000000000000000000000000000000000000000000 D"
b10000001000000000000000000000000000 ("
b100 |
b100 a
b100 }
1!
1$
#180
0!
0$
#185
b0 y
b0 _
b0 z
0."
0H
1,"
1B
13"
1O
b100000000010100000000000000010 $"
b100000000010100000000000000010 P
b0 w
b0 x
b0 `
1B"
1&"
b1 E
b1001000000000000000100 L
b1000 *"
b1 )"
b1001 5"
b1001 r
0o
b10000000000000000000000000000000000000 ^"
1\
b10 ~
b1100 v
b110000100000000010100000000000000010 %"
b1100 Q
b100000000010010000000000000001 F
b1000001100000000000000000000000000000100000000000000000000000000000000000000000000000000000000000000000000000000000000000000000000000000100100000000000001001000000000000000100010010000000000 A"
b1000 M
b10 8
b10 F"
b100 9
b100 ;
14
1)
0<
b10000000000000000000000000000000000000000000000000000000000000000000000000 T"
0=
b1000 |
b1000 a
b1000 }
b100000100000000010010000000000000001 ("
b1010000000000000000000000000000010000000000000000000000000000000000000000000000000000000000000000000000000000000000000000000000000000001000000000000000000000000000000000000000000000000 D"
b100000000000000000000000000000000000000000000000000000000000000000000000000000000000000000000000000000000000 W"
1!
1$
#190
0!
0$
#195
b100 y
b100 _
b100 z
0+"
0A
0,"
0B
12"
1N
b1000000000000000000000000000 $"
b1000000000000000000000000000 P
b100 w
b100 `
0B"
0&"
b10000000000000000000000000000000100 x
b100 [
b0 ^"
0\
b0 E
b0 L
b0 *"
b0 )"
b0 5"
b0 r
1f
b0 8
b0 F"
b0 T"
b0 9
b0 ;
04
0)
b0 F
b1000010000000000000000000000000000000000000000000000000000000000000000000000000000000000000000000000000000000000000000000000000000000000000000000000000000000000000000000000000000000000000000 A"
b0 M
b0 ~
b100 v
b10000001000000000000000000000000000 %"
b100 Q
b10000000000000000000000000000000000000 `"
b10000000000000000000000000000000000000000000000000000000000000000000000000 W"
b0 D"
b0 ("
b0 |
b0 a
b0 }
1!
1$
#200
0!
0$
#205
b1000 y
b1000 _
b1000 z
1."
1H
1+"
1A
02"
0N
03"
0O
b100000000010010000000000000001 $"
b100000000010010000000000000001 P
b1000 w
b1000 `
b10 *"
1o
b1000 x
b0 [
b1 ~
b1000 v
b100000100000000010010000000000000001 %"
b1000 Q
b1000000000000000000000000000 F
b1010000000000000000000000000000010000000000000000000000000000000000000000000000000000000000000000000000000000000000000000000000000000001000000000000000000000000000000000000000000000000 A"
b100 M
1<
b100000000000000000000000000000000000000000000000000000000000000000000000000000000000000000000000000000000000 T"
1=
0f
b100 |
b100 a
b100 }
b10000001000000000000000000000000000 ("
b1000010000000000000000000000000000000000000000000000000000000000000000000000000000000000000000000000000000000000000000000000000000000000000000000000000000000000000000000000000000000000000000 D"
b0 W"
b0 `"
1!
1$
#210
0!
0$
#215
b0 y
b0 _
b0 z
0."
0H
1,"
1B
13"
1O
b100000000010100000000000000010 $"
b100000000010100000000000000010 P
b0 w
b0 x
b0 `
1B"
1&"
b10000000000000000000000000000000000000 ^"
1\
0o
b1 E
b1001000000000000000100 L
b1000 *"
b1 )"
b1001 5"
b1001 r
b10 8
b10 F"
b100 9
b100 ;
14
1)
0<
b10000000000000000000000000000000000000000000000000000000000000000000000000 T"
0=
b100000000010010000000000000001 F
b1000001100000000000000000000000000000100000000000000000000000000000000000000000000000000000000000000000000000000000000000000000000000000100100000000000001001000000000000000100010010000000000 A"
b1000 M
b10 ~
b1100 v
b110000100000000010100000000000000010 %"
b1100 Q
b100000000000000000000000000000000000000000000000000000000000000000000000000000000000000000000000000000000000 W"
b1010000000000000000000000000000010000000000000000000000000000000000000000000000000000000000000000000000000000000000000000000000000000001000000000000000000000000000000000000000000000000 D"
b100000100000000010010000000000000001 ("
b1000 |
b1000 a
b1000 }
1!
1$
#220
0!
0$
#225
b100 y
b100 _
b100 z
0+"
0A
0,"
0B
12"
1N
b1000000000000000000000000000 $"
b1000000000000000000000000000 P
b100 w
b100 `
0B"
0&"
b0 E
b0 L
b0 *"
b0 )"
b0 5"
b0 r
b10000000000000000000000000000000100 x
b100 [
b0 ^"
0\
b0 ~
b100 v
b10000001000000000000000000000000000 %"
b100 Q
b0 F
b1000010000000000000000000000000000000000000000000000000000000000000000000000000000000000000000000000000000000000000000000000000000000000000000000000000000000000000000000000000000000000000000 A"
b0 M
b0 8
b0 F"
b0 T"
b0 9
b0 ;
04
0)
1f
b0 |
b0 a
b0 }
b0 ("
b0 D"
b10000000000000000000000000000000000000000000000000000000000000000000000000 W"
b10000000000000000000000000000000000000 `"
1!
1$
#230
0!
0$
#235
b1000 y
b1000 _
b1000 z
1."
1H
1+"
1A
02"
0N
03"
0O
b100000000010010000000000000001 $"
b100000000010010000000000000001 P
b1000 w
b1000 `
b1000 x
b0 [
1o
b10 *"
0f
1<
b100000000000000000000000000000000000000000000000000000000000000000000000000000000000000000000000000000000000 T"
1=
b1000000000000000000000000000 F
b1010000000000000000000000000000010000000000000000000000000000000000000000000000000000000000000000000000000000000000000000000000000000001000000000000000000000000000000000000000000000000 A"
b100 M
b1 ~
b1000 v
b100000100000000010010000000000000001 %"
b1000 Q
b0 `"
b0 W"
b1000010000000000000000000000000000000000000000000000000000000000000000000000000000000000000000000000000000000000000000000000000000000000000000000000000000000000000000000000000000000000000000 D"
b10000001000000000000000000000000000 ("
b100 |
b100 a
b100 }
1!
1$
#240
0!
0$
#245
b0 y
b0 _
b0 z
0."
0H
1,"
1B
13"
1O
b100000000010100000000000000010 $"
b100000000010100000000000000010 P
b0 w
b0 x
b0 `
1B"
1&"
b1 E
b1001000000000000000100 L
b1000 *"
b1 )"
b1001 5"
b1001 r
0o
b10000000000000000000000000000000000000 ^"
1\
b10 ~
b1100 v
b110000100000000010100000000000000010 %"
b1100 Q
b100000000010010000000000000001 F
b1000001100000000000000000000000000000100000000000000000000000000000000000000000000000000000000000000000000000000000000000000000000000000100100000000000001001000000000000000100010010000000000 A"
b1000 M
b10 8
b10 F"
b100 9
b100 ;
14
1)
0<
b10000000000000000000000000000000000000000000000000000000000000000000000000 T"
0=
b1000 |
b1000 a
b1000 }
b100000100000000010010000000000000001 ("
b1010000000000000000000000000000010000000000000000000000000000000000000000000000000000000000000000000000000000000000000000000000000000001000000000000000000000000000000000000000000000000 D"
b100000000000000000000000000000000000000000000000000000000000000000000000000000000000000000000000000000000000 W"
1!
1$
#250
0!
0$
