traces/jump.vcd
$date
	Fri Nov 13 15:07:12 2015
$end
$version
	Icarus Verilog
$end
$timescale
	1s
$end
$scope module cpu_tb $end
$var reg 1 ! clk $end
$var reg 1 " reset $end
$scope module cpu $end
$var wire 4 # aluop [3:0] $end
$var wire 1 $ clk $end
$var wire 32 % data_t [31:0] $end
$var wire 5 & dst_rd [4:0] $end
$var wire 5 ' dst_rt [4:0] $end
$var wire 2 ( ex_aluop [1:0] $end
$var wire 1 ) ex_aluovf $end
$var wire 32 * ex_alures [31:0] $end
$var wire 1 + ex_alusrc $end
$var wire 1 , ex_aluz $end
$var wire 32 - ex_data_rs [31:0] $end
$var wire 32 . ex_data_rt [31:0] $end
$var wire 32 / ex_imm [31:0] $end
$var wire 1 0 ex_isbranch $end
$var wire 1 1 ex_isjump $end
$var wire 1 2 ex_memread $end
$var wire 1 3 ex_memtoreg $end
$var wire 1 4 ex_memwrite $end
$var wire 32 5 ex_pc_branch [31:0] $end
$var wire 32 6 ex_pc_jump [31:0] $end
$var wire 32 7 ex_pc_next [31:0] $end
$var wire 1 8 ex_regdst $end
$var wire 1 9 ex_regwrite $end
$var wire 5 : ex_wreg [4:0] $end
$var wire 2 ; id_aluop [1:0] $end
$var wire 1 < id_alusrc $end
$var wire 32 = id_data_rs [31:0] $end
$var wire 32 > id_data_rt [31:0] $end
$var wire 32 ? id_imm [31:0] $end
$var wire 32 @ id_instr [31:0] $end
$var wire 1 A id_isbranch $end
$var wire 1 B id_isjump $end
$var wire 1 C id_memread $end
$var wire 1 D id_memtoreg $end
$var wire 1 E id_memwrite $end
$var wire 32 F id_pc_jump [31:0] $end
$var wire 32 G id_pc_next [31:0] $end
$var wire 1 H id_regdst $end
$var wire 1 I id_regwrite $end
$var wire 32 J if_instr [31:0] $end
$var wire 32 K if_pc_next [31:0] $end
$var wire 1 L mem_aluovf $end
$var wire 32 M mem_alures [31:0] $end
$var wire 1 N mem_aluz $end
$var wire 32 O mem_data_rt [31:0] $end
$var wire 1 P mem_isbranch $end
$var wire 32 Q mem_memout [31:0] $end
$var wire 1 R mem_memread $end
$var wire 1 S mem_memtoreg $end
$var wire 1 T mem_memwrite $end
$var wire 32 U mem_pc_branch [31:0] $end
$var wire 1 V mem_regwrite $end
$var wire 5 W mem_wreg [4:0] $end
$var wire 32 X pc_in [31:0] $end
$var wire 32 Y pc_interm [31:0] $end
$var wire 32 Z pc_out [31:0] $end
$var wire 1 [ pc_take_branch $end
$var wire 1 \ reset $end
$var wire 32 ] wb_alures [31:0] $end
$var wire 32 ^ wb_memout [31:0] $end
$var wire 1 _ wb_memtoreg $end
$var wire 1 ` wb_regwrite $end
$var wire 32 a wb_wdata [31:0] $end
$var wire 5 b wb_wreg [4:0] $end
$var reg 1 c ex_mem_we $end
$var reg 1 d id_ex_we $end
$var reg 1 e if_id_we $end
$var reg 1 f mem_wb_we $end
$var reg 1 g pc_we $end
$scope module pc_jmux $end
$var wire 64 h in_data [63:0] $end
$var wire 1 1 select $end
$var reg 32 i out_data [31:0] $end
$upscope $end
$scope module pc_bmux $end
$var wire 64 j in_data [63:0] $end
$var wire 1 [ select $end
$var reg 32 k out_data [31:0] $end
$upscope $end
$scope module pc $end
$var wire 1 $ clk $end
$var wire 32 l in [31:0] $end
$var wire 1 \ reset $end
$var wire 1 m we $end
$var reg 32 n out [31:0] $end
$upscope $end
$scope module imem $end
$var wire 32 o address [31:0] $end
$var wire 1 $ clk $end
$var wire 3 p index [2:0] $end
$var wire 1 q memread $end
$var wire 1 r memwrite $end
$var wire 1 \ reset $end
$var wire 32 s wdata [31:0] $end
$var reg 32 t rdata [31:0] $end
$upscope $end
$scope module if_id $end
$var wire 1 $ clk $end
$var wire 64 u in [63:0] $end
$var wire 1 v reset $end
$var wire 1 w we $end
$var reg 64 x out [63:0] $end
$upscope $end
$scope module control $end
$var wire 6 y funct [5:0] $end
$var wire 6 z opcode [5:0] $end
$var reg 2 { aluop [1:0] $end
$var reg 1 | alusrc $end
$var reg 1 } isbranch $end
$var reg 1 ~ isjump $end
$var reg 1 !" memread $end
$var reg 1 "" memtoreg $end
$var reg 1 #" memwrite $end
$var reg 1 $" regdst $end
$var reg 1 %" regwrite $end
$upscope $end
$scope module regfile $end
$var wire 1 $ clk $end
$var wire 1 ` regwrite $end
$var wire 1 \ reset $end
$var wire 5 &" rreg1 [4:0] $end
$var wire 5 '" rreg2 [4:0] $end
$var wire 32 (" wdata [31:0] $end
$var wire 5 )" wreg [4:0] $end
$var reg 32 *" rdata1 [31:0] $end
$var reg 32 +" rdata2 [31:0] $end
$upscope $end
$scope module id_ex $end
$var wire 1 $ clk $end
$var wire 180 ," in [179:0] $end
$var wire 1 -" reset $end
$var wire 1 ." we $end
$var reg 180 /" out [179:0] $end
$upscope $end
$scope module alucontrol $end
$var wire 2 0" alu_op_in [1:0] $end
$var wire 6 1" func [5:0] $end
$var reg 4 2" alu_op_out [3:0] $end
$upscope $end
$scope module t_mux $end
$var wire 64 3" in_data [63:0] $end
$var wire 1 + select $end
$var reg 32 4" out_data [31:0] $end
$upscope $end
$scope module alu $end
$var wire 4 5" alu_op [3:0] $end
$var wire 32 6" s [31:0] $end
$var wire 5 7" shamt [4:0] $end
$var wire 32 8" t [31:0] $end
$var reg 32 9" out [31:0] $end
$var reg 1 :" overflow $end
$var reg 1 ;" zero $end
$upscope $end
$scope module dst_mux $end
$var wire 10 <" in_data [9:0] $end
$var wire 1 8 select $end
$var reg 5 =" out_data [4:0] $end
$upscope $end
$scope module ex_mem $end
$var wire 1 $ clk $end
$var wire 108 >" in [107:0] $end
$var wire 1 ?" reset $end
$var wire 1 @" we $end
$var reg 108 A" out [107:0] $end
$upscope $end
$scope module dmem $end
$var wire 32 B" address [31:0] $end
$var wire 1 $ clk $end
$var wire 3 C" index [2:0] $end
$var wire 1 R memread $end
$var wire 1 T memwrite $end
$var wire 1 \ reset $end
$var wire 32 D" wdata [31:0] $end
$var reg 32 E" rdata [31:0] $end
$upscope $end
$scope module mem_wb $end
$var wire 1 $ clk $end
$var wire 71 F" in [70:0] $end
$var wire 1 \ reset $end
$var wire 1 G" we $end
$var reg 71 H" out [70:0] $end
$upscope $end
$scope module wb_mux $end
$var wire 64 I" in_data [63:0] $end
$var wire 1 _ select $end
$var reg 32 J" out_data [31:0] $end
$upscope $end
$upscope $end
$upscope $end
$enddefinitions $end
#0
$dumpvars
b0 J"
b0 I"
b0 H"
1G"
b0 F"
b0 E"
b0 D"
b0 C"
b0 B"
b0 A"
1@"
1?"
b1000000000000000000000000000000000000000000000000000000000000000000000 >"
b0 ="
b0 <"
1;"
0:"
b0 9"
b0 8"
b0 7"
b0 6"
b10 5"
b0 4"
b0 3"
b10 2"
b0 1"
b0 0"
b0 /"
1."
1-"
b100001100000000000000000000000000000000000000000000000000000000000000000000000000000000000000000000000000000000000000000000000000000000000000000000000000000000000000000000000000000 ,"
b0 +"
b0 *"
b0 )"
b0 ("
b0 '"
b0 &"
1%"
1$"
0#"
0""
0!"
0~
0}
0|
b10 {
b0 z
b0 y
b0 x
1w
1v
b100xxxxxxxxxxxxxxxxxxxxxxxxxxxxxxxx u
bx t
b0 s
0r
1q
b0 p
b0 o
b0 n
1m
b100 l
b100 k
b100 j
b100 i
b100 h
1g
1f
1e
1d
1c
b0 b
b0 a
0`
0_
b0 ^
b0 ]
1\
0[
b0 Z
b100 Y
b100 X
b0 W
0V
b0 U
0T
0S
0R
b0 Q
0P
b0 O
0N
b0 M
0L
b100 K
bx J
1I
1H
b0 G
b0 F
0E
0D
0C
0B
0A
b0 @
b0 ?
b0 >
b0 =
0<
b10 ;
b0 :
09
08
b0 7
b0 6
b0 5
04
03
02
01
00
b0 /
b0 .
b0 -
1,
0+
b0 *
0)
b0 (
b0 '
b0 &
b0 %
0$
b10 #
1"
0!
$end
#5
1!
1$
#10
b1000000000000000000000000000 t
b10000001000000000000000000000000000 u
b1000000000000000000000000000 J
0v
0-"
0?"
0"
0\
0!
0$
#15
b1000 k
b1000 X
b1000 l
1~
1B
b0 {
b0 ;
0$"
0H
0%"
0I
b100 2"
b100 #
b100 5"
b100000000010010000000000000001 t
b100000000010010000000000000001 J
b1000 i
b1000 j
b1000 Y
b10 z
1N
b10 (
b10 0"
18
b100000000000000000000000000000000000001000000000000000000000000000000000000000000000000000000000000000000000 >"
19
b1000000000000000000000000000 @
b100000000000000000000000000000100000000000000000000000000000000000000000000000000000000000000000000000000000000000000000000000000000000000000000000000000000000000000000000 ,"
b100 G
b1 p
b1000 h
b100000100000000010010000000000000001 u
b1000 K
b1000000000000000000000000000000000000000000000000000000000000000000000 A"
b100001100000000000000000000000000000000000000000000000000000000000000000000000000000000000000000000000000000000000000000000000000000000000000000000000000000000000000000000000000000 /"
b10000001000000000000000000000000000 x
b100 n
b100 Z
b100 o
1!
1$
#20
0!
0$
#25
b0 k
b0 X
b0 l
0~
0B
1|
1<
1%"
1I
b100000000010100000000000000010 t
b100000000010100000000000000010 J
b0 i
b0 j
b0 Y
b10 2"
b10 #
b10 5"
1-"
1v
b1 ?
b1001000000000000000100 F
b1000 z
b1 y
b1001 '"
b10 p
b1100 h
b110000100000000010100000000000000010 u
b1100 K
b100000000010010000000000000001 @
b100000001000000000000000000000000000001000000000000000000000000000000000000000000000000000000000000000000000000000000000000000000000000001000000000010010000000000000001000100100000 ,"
b1000 G
b100 5
b100 7
11
b0 (
b0 0"
08
b10001000000000000000000000000000000000000000000000000000000000000000000000 >"
09
b10000000000000000000000000000000000000000000000000000000000000000000000 F"
1V
b1000 n
b1000 Z
b1000 o
b100000100000000010010000000000000001 x
b100000000000000000000000000000100000000000000000000000000000000000000000000000000000000000000000000000000000000000000000000000000000000000000000000000000000000000000000000 /"
b100000000000000000000000000000000000001000000000000000000000000000000000000000000000000000000000000000000000 A"
1!
1$
#30
0!
0$
#35
b100 k
b100 X
b100 l
0|
0<
b10 {
b10 ;
1$"
1H
b1000000000000000000000000000 t
b1000000000000000000000000000 J
b100 i
b100 Y
0-"
0v
b0 ?
b0 F
b0 z
b0 y
b0 '"
1`
b10000000000000000000000000000000100 j
b100 U
b0 F"
0V
b1000000000000000000000000000000000000000000000000000000000000000000000 >"
b0 5
b0 7
01
b0 @
b100001100000000000000000000000000000000000000000000000000000000000000000000000000000000000000000000000000000000000000000000000000000000000000000000000000000000000000000000000000000 ,"
b0 G
b0 p
b100 h
b10000001000000000000000000000000000 u
b100 K
b10000000000000000000000000000000000000000000000000000000000000000000000 H"
b10001000000000000000000000000000000000000000000000000000000000000000000000 A"
b0 /"
b0 x
b0 n
b0 Z
b0 o
1!
1$
#40
0!
0$
#45
b1000 k
b1000 X
b1000 l
1~
1B
b0 {
b0 ;
0$"
0H
0%"
0I
b100000000010010000000000000001 t
b100000000010010000000000000001 J
b1000 i
b1000 Y
b100 2"
b100 #
b100 5"
b10 z
b1 p
b1000 h
b100000100000000010010000000000000001 u
b1000 K
b1000000000000000000000000000 @
b100000000000000000000000000000100000000000000000000000000000000000000000000000000000000000000000000000000000000000000000000000000000000000000000000000000000000000000000000 ,"
b100 G
b10 (
b10 0"
18
b100000000000000000000000000000000000001000000000000000000000000000000000000000000000000000000000000000000000 >"
19
b1000 j
b0 U
0`
b100 n
b100 Z
b100 o
b10000001000000000000000000000000000 x
b100001100000000000000000000000000000000000000000000000000000000000000000000000000000000000000000000000000000000000000000000000000000000000000000000000000000000000000000000000000000 /"
b1000000000000000000000000000000000000000000000000000000000000000000000 A"
b0 H"
1!
1$
#50
0!
0$
#55
b0 k
b0 X
b0 l
0~
0B
1|
1<
1%"
1I
b10 2"
b10 #
b10 5"
b100000000010100000000000000010 t
b100000000010100000000000000010 J
b0 i
b0 j
b0 Y
1-"
1v
b1 ?
b1001000000000000000100 F
b1000 z
b1 y
b1001 '"
b10000000000000000000000000000000000000000000000000000000000000000000000 F"
1V
b100 5
b100 7
11
b0 (
b0 0"
08
b10001000000000000000000000000000000000000000000000000000000000000000000000 >"
09
b100000000010010000000000000001 @
b100000001000000000000000000000000000001000000000000000000000000000000000000000000000000000000000000000000000000000000000000000000000000001000000000010010000000000000001000100100000 ,"
b1000 G
b10 p
b1100 h
b110000100000000010100000000000000010 u
b1100 K
b100000000000000000000000000000000000001000000000000000000000000000000000000000000000000000000000000000000000 A"
b100000000000000000000000000000100000000000000000000000000000000000000000000000000000000000000000000000000000000000000000000000000000000000000000000000000000000000000000000 /"
b100000100000000010010000000000000001 x
b1000 n
b1000 Z
b1000 o
1!
1$
#60
0!
0$
#65
b100 k
b100 X
b100 l
0|
0<
b10 {
b10 ;
1$"
1H
b1000000000000000000000000000 t
b1000000000000000000000000000 J
b100 i
b100 Y
0-"
0v
b0 ?
b0 F
b0 z
b0 y
b0 '"
b0 p
b100 h
b10000001000000000000000000000000000 u
b100 K
b0 @
b100001100000000000000000000000000000000000000000000000000000000000000000000000000000000000000000000000000000000000000000000000000000000000000000000000000000000000000000000000000000 ,"
b0 G
b1000000000000000000000000000000000000000000000000000000000000000000000 >"
b0 5
b0 7
01
b10000000000000000000000000000000100 j
b100 U
b0 F"
0V
1`
b0 n
b0 Z
b0 o
b0 x
b0 /"
b10001000000000000000000000000000000000000000000000000000000000000000000000 A"
b10000000000000000000000000000000000000000000000000000000000000000000000 H"
1!
1$
#70
0!
0$
#75
b1000 k
b1000 X
b1000 l
1~
1B
b0 {
b0 ;
0$"
0H
0%"
0I
b100 2"
b100 #
b100 5"
b100000000010010000000000000001 t
b100000000010010000000000000001 J
b1000 i
b1000 Y
b10 z
0`
b1000 j
b0 U
b10 (
b10 0"
18
b100000000000000000000000000000000000001000000000000000000000000000000000000000000000000000000000000000000000 >"
19
b1000000000000000000000000000 @
b100000000000000000000000000000100000000000000000000000000000000000000000000000000000000000000000000000000000000000000000000000000000000000000000000000000000000000000000000 ,"
b100 G
b1 p
b1000 h
b100000100000000010010000000000000001 u
b1000 K
b0 H"
b1000000000000000000000000000000000000000000000000000000000000000000000 A"
b100001100000000000000000000000000000000000000000000000000000000000000000000000000000000000000000000000000000000000000000000000000000000000000000000000000000000000000000000000000000 /"
b10000001000000000000000000000000000 x
b100 n
b100 Z
b100 o
1!
1$
#80
0!
0$
#85
b0 k
b0 X
b0 l
0~
0B
1|
1<
1%"
1I
b100000000010100000000000000010 t
b100000000010100000000000000010 J
b0 i
b0 j
b0 Y
b10 2"
b10 #
b10 5"
1-"
1v
b1 ?
b1001000000000000000100 F
b1000 z
b1 y
b1001 '"
b10 p
b1100 h
b110000100000000010100000000000000010 u
b1100 K
b100000000010010000000000000001 @
b100000001000000000000000000000000000001000000000000000000000000000000000000000000000000000000000000000000000000000000000000000000000000001000000000010010000000000000001000100100000 ,"
b1000 G
b100 5
b100 7
11
b0 (
b0 0"
08
b10001000000000000000000000000000000000000000000000000000000000000000000000 >"
09
b10000000000000000000000000000000000000000000000000000000000000000000000 F"
1V
b1000 n
b1000 Z
b1000 o
b100000100000000010010000000000000001 x
b100000000000000000000000000000100000000000000000000000000000000000000000000000000000000000000000000000000000000000000000000000000000000000000000000000000000000000000000000 /"
b100000000000000000000000000000000000001000000000000000000000000000000000000000000000000000000000000000000000 A"
1!
1$
#90
0!
0$
#95
b100 k
b100 X
b100 l
0|
0<
b10 {
b10 ;
1$"
1H
b1000000000000000000000000000 t
b1000000000000000000000000000 J
b100 i
b100 Y
0-"
0v
b0 ?
b0 F
b0 z
b0 y
b0 '"
1`
b10000000000000000000000000000000100 j
b100 U
b0 F"
0V
b1000000000000000000000000000000000000000000000000000000000000000000000 >"
b0 5
b0 7
01
b0 @
b100001100000000000000000000000000000000000000000000000000000000000000000000000000000000000000000000000000000000000000000000000000000000000000000000000000000000000000000000000000000 ,"
b0 G
b0 p
b100 h
b10000001000000000000000000000000000 u
b100 K
b10000000000000000000000000000000000000000000000000000000000000000000000 H"
b10001000000000000000000000000000000000000000000000000000000000000000000000 A"
b0 /"
b0 x
b0 n
b0 Z
b0 o
1!
1$
#100
0!
0$
#105
b1000 k
b1000 X
b1000 l
1~
1B
b0 {
b0 ;
0$"
0H
0%"
0I
b100000000010010000000000000001 t
b100000000010010000000000000001 J
b1000 i
b1000 Y
b100 2"
b100 #
b100 5"
b10 z
b1 p
b1000 h
b100000100000000010010000000000000001 u
b1000 K
b1000000000000000000000000000 @
b100000000000000000000000000000100000000000000000000000000000000000000000000000000000000000000000000000000000000000000000000000000000000000000000000000000000000000000000000 ,"
b100 G
b10 (
b10 0"
18
b100000000000000000000000000000000000001000000000000000000000000000000000000000000000000000000000000000000000 >"
19
b1000 j
b0 U
0`
b100 n
b100 Z
b100 o
b10000001000000000000000000000000000 x
b100001100000000000000000000000000000000000000000000000000000000000000000000000000000000000000000000000000000000000000000000000000000000000000000000000000000000000000000000000000000 /"
b1000000000000000000000000000000000000000000000000000000000000000000000 A"
b0 H"
1!
1$
#110
0!
0$
#115
b0 k
b0 X
b0 l
0~
0B
1|
1<
1%"
1I
b10 2"
b10 #
b10 5"
b100000000010100000000000000010 t
b100000000010100000000000000010 J
b0 i
b0 j
b0 Y
1-"
1v
b1 ?
b1001000000000000000100 F
b1000 z
b1 y
b1001 '"
b10000000000000000000000000000000000000000000000000000000000000000000000 F"
1V
b100 5
b100 7
11
b0 (
b0 0"
08
b10001000000000000000000000000000000000000000000000000000000000000000000000 >"
09
b100000000010010000000000000001 @
b100000001000000000000000000000000000001000000000000000000000000000000000000000000000000000000000000000000000000000000000000000000000000001000000000010010000000000000001000100100000 ,"
b1000 G
b10 p
b1100 h
b110000100000000010100000000000000010 u
b1100 K
b100000000000000000000000000000000000001000000000000000000000000000000000000000000000000000000000000000000000 A"
b100000000000000000000000000000100000000000000000000000000000000000000000000000000000000000000000000000000000000000000000000000000000000000000000000000000000000000000000000 /"
b100000100000000010010000000000000001 x
b1000 n
b1000 Z
b1000 o
1!
1$
#120
0!
0$
#125
b100 k
b100 X
b100 l
0|
0<
b10 {
b10 ;
1$"
1H
b1000000000000000000000000000 t
b1000000000000000000000000000 J
b100 i
b100 Y
0-"
0v
b0 ?
b0 F
b0 z
b0 y
b0 '"
b0 p
b100 h
b10000001000000000000000000000000000 u
b100 K
b0 @
b100001100000000000000000000000000000000000000000000000000000000000000000000000000000000000000000000000000000000000000000000000000000000000000000000000000000000000000000000000000000 ,"
b0 G
b1000000000000000000000000000000000000000000000000000000000000000000000 >"
b0 5
b0 7
01
b10000000000000000000000000000000100 j
b100 U
b0 F"
0V
1`
b0 n
b0 Z
b0 o
b0 x
b0 /"
b10001000000000000000000000000000000000000000000000000000000000000000000000 A"
b10000000000000000000000000000000000000000000000000000000000000000000000 H"
1!
1$
#130
0!
0$
#135
b1000 k
b1000 X
b1000 l
1~
1B
b0 {
b0 ;
0$"
0H
0%"
0I
b100 2"
b100 #
b100 5"
b100000000010010000000000000001 t
b100000000010010000000000000001 J
b1000 i
b1000 Y
b10 z
0`
b1000 j
b0 U
b10 (
b10 0"
18
b100000000000000000000000000000000000001000000000000000000000000000000000000000000000000000000000000000000000 >"
19
b1000000000000000000000000000 @
b100000000000000000000000000000100000000000000000000000000000000000000000000000000000000000000000000000000000000000000000000000000000000000000000000000000000000000000000000 ,"
b100 G
b1 p
b1000 h
b100000100000000010010000000000000001 u
b1000 K
b0 H"
b1000000000000000000000000000000000000000000000000000000000000000000000 A"
b100001100000000000000000000000000000000000000000000000000000000000000000000000000000000000000000000000000000000000000000000000000000000000000000000000000000000000000000000000000000 /"
b10000001000000000000000000000000000 x
b100 n
b100 Z
b100 o
1!
1$
#140
0!
0$
#145
b0 k
b0 X
b0 l
0~
0B
1|
1<
1%"
1I
b100000000010100000000000000010 t
b100000000010100000000000000010 J
b0 i
b0 j
b0 Y
b10 2"
b10 #
b10 5"
1-"
1v
b1 ?
b1001000000000000000100 F
b1000 z
b1 y
b1001 '"
b10 p
b1100 h
b110000100000000010100000000000000010 u
b1100 K
b100000000010010000000000000001 @
b100000001000000000000000000000000000001000000000000000000000000000000000000000000000000000000000000000000000000000000000000000000000000001000000000010010000000000000001000100100000 ,"
b1000 G
b100 5
b100 7
11
b0 (
b0 0"
08
b10001000000000000000000000000000000000000000000000000000000000000000000000 >"
09
b10000000000000000000000000000000000000000000000000000000000000000000000 F"
1V
b1000 n
b1000 Z
b1000 o
b100000100000000010010000000000000001 x
b100000000000000000000000000000100000000000000000000000000000000000000000000000000000000000000000000000000000000000000000000000000000000000000000000000000000000000000000000 /"
b100000000000000000000000000000000000001000000000000000000000000000000000000000000000000000000000000000000000 A"
1!
1$
#150
0!
0$
#155
b100 k
b100 X
b100 l
0|
0<
b10 {
b10 ;
1$"
1H
b1000000000000000000000000000 t
b1000000000000000000000000000 J
b100 i
b100 Y
0-"
0v
b0 ?
b0 F
b0 z
b0 y
b0 '"
1`
b10000000000000000000000000000000100 j
b100 U
b0 F"
0V
b1000000000000000000000000000000000000000000000000000000000000000000000 >"
b0 5
b0 7
01
b0 @
b100001100000000000000000000000000000000000000000000000000000000000000000000000000000000000000000000000000000000000000000000000000000000000000000000000000000000000000000000000000000 ,"
b0 G
b0 p
b100 h
b10000001000000000000000000000000000 u
b100 K
b10000000000000000000000000000000000000000000000000000000000000000000000 H"
b10001000000000000000000000000000000000000000000000000000000000000000000000 A"
b0 /"
b0 x
b0 n
b0 Z
b0 o
1!
1$
#160
0!
0$
#165
b1000 k
b1000 X
b1000 l
1~
1B
b0 {
b0 ;
0$"
0H
0%"
0I
b100000000010010000000000000001 t
b100000000010010000000000000001 J
b1000 i
b1000 Y
b100 2"
b100 #
b100 5"
b10 z
b1 p
b1000 h
b100000100000000010010000000000000001 u
b1000 K
b1000000000000000000000000000 @
b100000000000000000000000000000100000000000000000000000000000000000000000000000000000000000000000000000000000000000000000000000000000000000000000000000000000000000000000000 ,"
b100 G
b10 (
b10 0"
18
b100000000000000000000000000000000000001000000000000000000000000000000000000000000000000000000000000000000000 >"
19
b1000 j
b0 U
0`
b100 n
b100 Z
b100 o
b10000001000000000000000000000000000 x
b100001100000000000000000000000000000000000000000000000000000000000000000000000000000000000000000000000000000000000000000000000000000000000000000000000000000000000000000000000000000 /"
b1000000000000000000000000000000000000000000000000000000000000000000000 A"
b0 H"
1!
1$
#170
0!
0$
#175
b0 k
b0 X
b0 l
0~
0B
1|
1<
1%"
1I
b10 2"
b10 #
b10 5"
b100000000010100000000000000010 t
b100000000010100000000000000010 J
b0 i
b0 j
b0 Y
1-"
1v
b1 ?
b1001000000000000000100 F
b1000 z
b1 y
b1001 '"
b10000000000000000000000000000000000000000000000000000000000000000000000 F"
1V
b100 5
b100 7
11
b0 (
b0 0"
08
b10001000000000000000000000000000000000000000000000000000000000000000000000 >"
09
b100000000010010000000000000001 @
b100000001000000000000000000000000000001000000000000000000000000000000000000000000000000000000000000000000000000000000000000000000000000001000000000010010000000000000001000100100000 ,"
b1000 G
b10 p
b1100 h
b110000100000000010100000000000000010 u
b1100 K
b100000000000000000000000000000000000001000000000000000000000000000000000000000000000000000000000000000000000 A"
b100000000000000000000000000000100000000000000000000000000000000000000000000000000000000000000000000000000000000000000000000000000000000000000000000000000000000000000000000 /"
b100000100000000010010000000000000001 x
b1000 n
b1000 Z
b1000 o
1!
1$
#180
0!
0$
#185
b100 k
b100 X
b100 l
0|
0<
b10 {
b10 ;
1$"
1H
b1000000000000000000000000000 t
b1000000000000000000000000000 J
b100 i
b100 Y
0-"
0v
b0 ?
b0 F
b0 z
b0 y
b0 '"
b0 p
b100 h
b10000001000000000000000000000000000 u
b100 K
b0 @
b100001100000000000000000000000000000000000000000000000000000000000000000000000000000000000000000000000000000000000000000000000000000000000000000000000000000000000000000000000000000 ,"
b0 G
b1000000000000000000000000000000000000000000000000000000000000000000000 >"
b0 5
b0 7
01
b10000000000000000000000000000000100 j
b100 U
b0 F"
0V
1`
b0 n
b0 Z
b0 o
b0 x
b0 /"
b10001000000000000000000000000000000000000000000000000000000000000000000000 A"
b10000000000000000000000000000000000000000000000000000000000000000000000 H"
1!
1$
#190
0!
0$
#195
b1000 k
b1000 X
b1000 l
1~
1B
b0 {
b0 ;
0$"
0H
0%"
0I
b100 2"
b100 #
b100 5"
b100000000010010000000000000001 t
b100000000010010000000000000001 J
b1000 i
b1000 Y
b10 z
0`
b1000 j
b0 U
b10 (
b10 0"
18
b100000000000000000000000000000000000001000000000000000000000000000000000000000000000000000000000000000000000 >"
19
b1000000000000000000000000000 @
b100000000000000000000000000000100000000000000000000000000000000000000000000000000000000000000000000000000000000000000000000000000000000000000000000000000000000000000000000 ,"
b100 G
b1 p
b1000 h
b100000100000000010010000000000000001 u
b1000 K
b0 H"
b1000000000000000000000000000000000000000000000000000000000000000000000 A"
b100001100000000000000000000000000000000000000000000000000000000000000000000000000000000000000000000000000000000000000000000000000000000000000000000000000000000000000000000000000000 /"
b10000001000000000000000000000000000 x
b100 n
b100 Z
b100 o
1!
1$
#200
0!
0$
#205
b0 k
b0 X
b0 l
0~
0B
1|
1<
1%"
1I
b100000000010100000000000000010 t
b100000000010100000000000000010 J
b0 i
b0 j
b0 Y
b10 2"
b10 #
b10 5"
1-"
1v
b1 ?
b1001000000000000000100 F
b1000 z
b1 y
b1001 '"
b10 p
b1100 h
b110000100000000010100000000000000010 u
b1100 K
b100000000010010000000000000001 @
b100000001000000000000000000000000000001000000000000000000000000000000000000000000000000000000000000000000000000000000000000000000000000001000000000010010000000000000001000100100000 ,"
b1000 G
b100 5
b100 7
11
b0 (
b0 0"
08
b10001000000000000000000000000000000000000000000000000000000000000000000000 >"
09
b10000000000000000000000000000000000000000000000000000000000000000000000 F"
1V
b1000 n
b1000 Z
b1000 o
b100000100000000010010000000000000001 x
b100000000000000000000000000000100000000000000000000000000000000000000000000000000000000000000000000000000000000000000000000000000000000000000000000000000000000000000000000 /"
b100000000000000000000000000000000000001000000000000000000000000000000000000000000000000000000000000000000000 A"
1!
1$
#210
0!
0$
#215
b100 k
b100 X
b100 l
0|
0<
b10 {
b10 ;
1$"
1H
b1000000000000000000000000000 t
b1000000000000000000000000000 J
b100 i
b100 Y
0-"
0v
b0 ?
b0 F
b0 z
b0 y
b0 '"
1`
b10000000000000000000000000000000100 j
b100 U
b0 F"
0V
b1000000000000000000000000000000000000000000000000000000000000000000000 >"
b0 5
b0 7
01
b0 @
b100001100000000000000000000000000000000000000000000000000000000000000000000000000000000000000000000000000000000000000000000000000000000000000000000000000000000000000000000000000000 ,"
b0 G
b0 p
b100 h
b10000001000000000000000000000000000 u
b100 K
b10000000000000000000000000000000000000000000000000000000000000000000000 H"
b10001000000000000000000000000000000000000000000000000000000000000000000000 A"
b0 /"
b0 x
b0 n
b0 Z
b0 o
1!
1$
#220
0!
0$
#225
b1000 k
b1000 X
b1000 l
1~
1B
b0 {
b0 ;
0$"
0H
0%"
0I
b100000000010010000000000000001 t
b100000000010010000000000000001 J
b1000 i
b1000 Y
b100 2"
b100 #
b100 5"
b10 z
b1 p
b1000 h
b100000100000000010010000000000000001 u
b1000 K
b1000000000000000000000000000 @
b100000000000000000000000000000100000000000000000000000000000000000000000000000000000000000000000000000000000000000000000000000000000000000000000000000000000000000000000000 ,"
b100 G
b10 (
b10 0"
18
b100000000000000000000000000000000000001000000000000000000000000000000000000000000000000000000000000000000000 >"
19
b1000 j
b0 U
0`
b100 n
b100 Z
b100 o
b10000001000000000000000000000000000 x
b100001100000000000000000000000000000000000000000000000000000000000000000000000000000000000000000000000000000000000000000000000000000000000000000000000000000000000000000000000000000 /"
b1000000000000000000000000000000000000000000000000000000000000000000000 A"
b0 H"
1!
1$
#230
0!
0$
#235
b0 k
b0 X
b0 l
0~
0B
1|
1<
1%"
1I
b10 2"
b10 #
b10 5"
b100000000010100000000000000010 t
b100000000010100000000000000010 J
b0 i
b0 j
b0 Y
1-"
1v
b1 ?
b1001000000000000000100 F
b1000 z
b1 y
b1001 '"
b10000000000000000000000000000000000000000000000000000000000000000000000 F"
1V
b100 5
b100 7
11
b0 (
b0 0"
08
b10001000000000000000000000000000000000000000000000000000000000000000000000 >"
09
b100000000010010000000000000001 @
b100000001000000000000000000000000000001000000000000000000000000000000000000000000000000000000000000000000000000000000000000000000000000001000000000010010000000000000001000100100000 ,"
b1000 G
b10 p
b1100 h
b110000100000000010100000000000000010 u
b1100 K
b100000000000000000000000000000000000001000000000000000000000000000000000000000000000000000000000000000000000 A"
b100000000000000000000000000000100000000000000000000000000000000000000000000000000000000000000000000000000000000000000000000000000000000000000000000000000000000000000000000 /"
b100000100000000010010000000000000001 x
b1000 n
b1000 Z
b1000 o
1!
1$
#240
0!
0$
#245
b100 k
b100 X
b100 l
0|
0<
b10 {
b10 ;
1$"
1H
b1000000000000000000000000000 t
b1000000000000000000000000000 J
b100 i
b100 Y
0-"
0v
b0 ?
b0 F
b0 z
b0 y
b0 '"
b0 p
b100 h
b10000001000000000000000000000000000 u
b100 K
b0 @
b100001100000000000000000000000000000000000000000000000000000000000000000000000000000000000000000000000000000000000000000000000000000000000000000000000000000000000000000000000000000 ,"
b0 G
b1000000000000000000000000000000000000000000000000000000000000000000000 >"
b0 5
b0 7
01
b10000000000000000000000000000000100 j
b100 U
b0 F"
0V
1`
b0 n
b0 Z
b0 o
b0 x
b0 /"
b10001000000000000000000000000000000000000000000000000000000000000000000000 A"
b10000000000000000000000000000000000000000000000000000000000000000000000 H"
1!
1$
#250
0!
0$
