traces/kernel.vcd
$date
	Wed Nov 18 10:03:25 2015
$end
$version
	Icarus Verilog
$end
$timescale
	1s
$end
$scope module cpu_tb $end
$var reg 1 ! clk $end
$var reg 1 " reset $end
$scope module cpu $end
$var wire 4 # aluop [3:0] $end
$var wire 1 $ clk $end
$var wire 32 % data_rt [31:0] $end
$var wire 5 & dst_rd [4:0] $end
$var wire 5 ' dst_rs [4:0] $end
$var wire 5 ( dst_rt [4:0] $end
$var wire 1 ) ex_aluop $end
$var wire 1 * ex_aluovf $end
$var wire 32 + ex_alures [31:0] $end
$var wire 1 , ex_alusrc $end
$var wire 1 - ex_aluz $end
$var wire 32 . ex_data_rs [31:0] $end
$var wire 32 / ex_data_rt [31:0] $end
$var wire 6 0 ex_funct [5:0] $end
$var wire 32 1 ex_imm [31:0] $end
$var wire 26 2 ex_imm_top [25:0] $end
$var wire 1 3 ex_isbranch $end
$var wire 1 4 ex_isjump $end
$var wire 1 5 ex_memread $end
$var wire 1 6 ex_memtoreg $end
$var wire 1 7 ex_memwrite $end
$var wire 6 8 ex_opcode [5:0] $end
$var wire 32 9 ex_pc_branch [31:0] $end
$var wire 32 : ex_pc_jump [31:0] $end
$var wire 32 ; ex_pc_next [31:0] $end
$var wire 1 < ex_regdst $end
$var wire 1 = ex_regwrite $end
$var wire 5 > ex_wreg [4:0] $end
$var wire 2 ? fwdctrl_rs [1:0] $end
$var wire 2 @ fwdctrl_rt [1:0] $end
$var wire 1 A id_aluop $end
$var wire 1 B id_alusrc $end
$var wire 32 C id_data_rs [31:0] $end
$var wire 32 D id_data_rt [31:0] $end
$var wire 32 E id_imm [31:0] $end
$var wire 32 F id_instr [31:0] $end
$var wire 1 G id_isbranch $end
$var wire 1 H id_isjump $end
$var wire 1 I id_memread $end
$var wire 1 J id_memtoreg $end
$var wire 1 K id_memwrite $end
$var wire 32 L id_pc_jump [31:0] $end
$var wire 32 M id_pc_next [31:0] $end
$var wire 1 N id_regdst $end
$var wire 1 O id_regwrite $end
$var wire 32 P if_instr [31:0] $end
$var wire 32 Q if_pc_next [31:0] $end
$var wire 1 R mem_aluovf $end
$var wire 32 S mem_alures [31:0] $end
$var wire 1 T mem_aluz $end
$var wire 32 U mem_data_rt [31:0] $end
$var wire 1 V mem_isbranch $end
$var wire 32 W mem_memout [31:0] $end
$var wire 1 X mem_memread $end
$var wire 1 Y mem_memtoreg $end
$var wire 1 Z mem_memwrite $end
$var wire 32 [ mem_pc_branch [31:0] $end
$var wire 1 \ mem_regwrite $end
$var wire 32 ] mem_wdata [31:0] $end
$var wire 5 ^ mem_wreg [4:0] $end
$var wire 32 _ pc_in [31:0] $end
$var wire 32 ` pc_interm [31:0] $end
$var wire 32 a pc_out [31:0] $end
$var wire 1 b pc_take_branch $end
$var wire 32 c reg_rs [31:0] $end
$var wire 32 d reg_rt [31:0] $end
$var wire 1 e reset $end
$var wire 1 f wb_regwrite $end
$var wire 32 g wb_wdata [31:0] $end
$var wire 5 h wb_wreg [4:0] $end
$var reg 1 i ex_mem_we $end
$var reg 1 j id_ex_we $end
$var reg 1 k if_id_we $end
$var reg 1 l mem_wb_we $end
$var reg 1 m pc_we $end
$scope module fwdcontrol $end
$var wire 5 n ex_dst [4:0] $end
$var wire 1 o ex_rw $end
$var wire 5 p mem_dst [4:0] $end
$var wire 1 \ mem_rw $end
$var wire 5 q rs [4:0] $end
$var wire 5 r rt [4:0] $end
$var wire 5 s wb_dst [4:0] $end
$var wire 1 f wb_rw $end
$var reg 2 t ctrl_rs [1:0] $end
$var reg 2 u ctrl_rt [1:0] $end
$upscope $end
$scope module pc_jmux $end
$var wire 64 v in_data [63:0] $end
$var wire 1 4 select $end
$var reg 32 w out_data [31:0] $end
$upscope $end
$scope module pc_bmux $end
$var wire 64 x in_data [63:0] $end
$var wire 1 b select $end
$var reg 32 y out_data [31:0] $end
$upscope $end
$scope module pc $end
$var wire 1 $ clk $end
$var wire 32 z in [31:0] $end
$var wire 1 e reset $end
$var wire 1 { we $end
$var reg 32 | out [31:0] $end
$upscope $end
$scope module imem $end
$var wire 32 } addr [31:0] $end
$var wire 1 $ clk $end
$var wire 5 ~ index [4:0] $end
$var wire 1 !" memread $end
$var wire 1 "" memwrite $end
$var wire 1 e reset $end
$var wire 32 #" wdata [31:0] $end
$var reg 32 $" rdata [31:0] $end
$upscope $end
$scope module if_id $end
$var wire 1 $ clk $end
$var wire 64 %" in [63:0] $end
$var wire 1 &" reset $end
$var wire 1 '" we $end
$var reg 64 (" out [63:0] $end
$upscope $end
$scope module control $end
$var wire 6 )" funct [5:0] $end
$var wire 6 *" opcode [5:0] $end
$var reg 1 +" aluop $end
$var reg 1 ," alusrc $end
$var reg 1 -" isbranch $end
$var reg 1 ." isjump $end
$var reg 1 /" memread $end
$var reg 1 0" memtoreg $end
$var reg 1 1" memwrite $end
$var reg 1 2" regdst $end
$var reg 1 3" regwrite $end
$upscope $end
$scope module regfile $end
$var wire 1 $ clk $end
$var wire 1 f regwrite $end
$var wire 1 e reset $end
$var wire 5 4" rreg1 [4:0] $end
$var wire 5 5" rreg2 [4:0] $end
$var wire 33 6" wdata [32:0] $end
$var wire 5 7" wreg [4:0] $end
$var integer 32 8" i [31:0] $end
$var reg 32 9" rdata1 [31:0] $end
$var reg 32 :" rdata2 [31:0] $end
$upscope $end
$scope module data_rs_mux $end
$var wire 128 ;" in_data [127:0] $end
$var wire 2 <" select [1:0] $end
$var reg 32 =" out_data [31:0] $end
$upscope $end
$scope module data_rt_mux $end
$var wire 128 >" in_data [127:0] $end
$var wire 2 ?" select [1:0] $end
$var reg 32 @" out_data [31:0] $end
$upscope $end
$scope module id_ex $end
$var wire 1 $ clk $end
$var wire 190 A" in [189:0] $end
$var wire 1 B" reset $end
$var wire 1 C" we $end
$var reg 190 D" out [189:0] $end
$upscope $end
$scope module alucontrol $end
$var wire 1 ) aluop_in $end
$var wire 6 E" funct [5:0] $end
$var wire 6 F" opcode [5:0] $end
$var reg 4 G" aluop_out [3:0] $end
$upscope $end
$scope module t_mux $end
$var wire 64 H" in_data [63:0] $end
$var wire 1 , select $end
$var reg 32 I" out_data [31:0] $end
$upscope $end
$scope module alu $end
$var wire 4 J" aluop [3:0] $end
$var wire 32 K" s [31:0] $end
$var wire 5 L" shamt [4:0] $end
$var wire 32 M" t [31:0] $end
$var reg 32 N" out [31:0] $end
$var reg 1 O" overflow $end
$var reg 64 P" tmp [63:0] $end
$var reg 1 Q" zero $end
$upscope $end
$scope module dst_mux $end
$var wire 10 R" in_data [9:0] $end
$var wire 1 < select $end
$var reg 5 S" out_data [4:0] $end
$upscope $end
$scope module ex_mem $end
$var wire 1 $ clk $end
$var wire 110 T" in [109:0] $end
$var wire 1 U" reset $end
$var wire 1 V" we $end
$var reg 110 W" out [109:0] $end
$upscope $end
$scope module dmem $end
$var wire 32 X" addr [31:0] $end
$var wire 1 $ clk $end
$var wire 5 Y" index [4:0] $end
$var wire 1 X memread $end
$var wire 1 Z memwrite $end
$var wire 1 e reset $end
$var wire 32 Z" wdata [31:0] $end
$var reg 32 [" rdata [31:0] $end
$upscope $end
$scope module mem_mux $end
$var wire 64 \" in_data [63:0] $end
$var wire 1 Y select $end
$var reg 32 ]" out_data [31:0] $end
$upscope $end
$scope module mem_wb $end
$var wire 1 $ clk $end
$var wire 38 ^" in [37:0] $end
$var wire 1 e reset $end
$var wire 1 _" we $end
$var reg 38 `" out [37:0] $end
$upscope $end
$upscope $end
$upscope $end
$enddefinitions $end
#0
$dumpvars
b0 `"
1_"
b0 ^"
b0 ]"
b0 \"
b0 ["
b0 Z"
b0 Y"
b0 X"
b0 W"
1V"
1U"
b0 T"
b0 S"
b0 R"
0Q"
b0 P"
0O"
b0 N"
b0 M"
b0 L"
b0 K"
b100 J"
b0 I"
b0 H"
b100 G"
b0 F"
b0 E"
b0 D"
1C"
1B"
b1000010000000000000000000000000000000000000000000000000000000000000000000000000000000000000000000000000000000000000000000000000000000000000000000000000000000000000000000000000000000000000000 A"
b0 @"
b0 ?"
b0 >"
b0 ="
b0 <"
b0 ;"
b0 :"
b0 9"
bx 8"
b0 7"
b0 6"
b0 5"
b0 4"
13"
12"
01"
00"
0/"
0."
0-"
0,"
0+"
b0 *"
b0 )"
b0 ("
1'"
1&"
b100xxxxxxxxxxxxxxxxxxxxxxxxxxxxxxxx %"
bx $"
b0 #"
0""
1!"
b0 ~
b0 }
b0 |
1{
b100 z
b100 y
b100 x
b100 w
b100 v
b0 u
b0 t
b0 s
b0 r
b0 q
b0 p
0o
b0 n
1m
1l
1k
1j
1i
b0 h
b0 g
0f
1e
b0 d
b0 c
0b
b0 a
b100 `
b100 _
b0 ^
b0 ]
0\
b0 [
0Z
0Y
0X
b0 W
0V
b0 U
0T
b0 S
0R
b100 Q
bx P
1O
1N
b0 M
b0 L
0K
0J
0I
0H
0G
b0 F
b0 E
b0 D
b0 C
0B
0A
b0 @
b0 ?
b0 >
0=
0<
b0 ;
b0 :
b0 9
b0 8
07
06
05
04
03
b0 2
b0 1
b0 0
b0 /
b0 .
0-
0,
b0 +
0*
0)
b0 (
b0 '
b0 &
b0 %
0$
b100 #
1"
0!
$end
#5
b100000 8"
1!
1$
#10
0!
0$
#15
b100000000100001111111111111111 $"
b10000100000000100001111111111111111 %"
b100000000100001111111111111111 P
0&"
0B"
0U"
0"
0e
b100000 8"
1!
1$
#20
0!
0$
#25
b1000 y
b1000 _
b1000 z
1+"
1A
1,"
1B
02"
0N
b100000000100011111111111111110 $"
b100000000100011111111111111110 P
b1000 w
b1000 x
b1000 `
b11111111111111111111111111111111 E
b10000111111111111111100 L
b1000 *"
b111111 )"
b10000 5"
b10000 r
1o
b1 ~
b1000 v
b100000100000000100011111111111111110 %"
b1000 Q
b100000000100001111111111111111 F
b1000001100000000000000000000000000000010000000000000000000000000000000000000000000000000000000000000000001111111111111111111111111111111100100000000000010000111111111111111100100001111100000 A"
b100 M
1<
b100000000000000000000000000000000000000000000000000000000000000000000000000000000000000000000000000000000000 T"
1=
b100 |
b100 a
b100 }
b10000100000000100001111111111111111 ("
b1000010000000000000000000000000000000000000000000000000000000000000000000000000000000000000000000000000000000000000000000000000000000000000000000000000000000000000000000000000000000000000000 D"
1!
1$
#30
0!
0$
#35
b11111111111111111111111111111111 N"
b1111111111111111111111111111111100000000000000000000000000000000 >"
b1111111111111111111111111111111100000000000000000000000000000000 ;"
b11111111111111111111111111111111 +
b1100 y
b1100 _
b1100 z
b11111111111111111111111111111111 I"
b11111111111111111111111111111111 %
b11111111111111111111111111111111 M"
b10 G"
b10 #
b10 J"
b10000 S"
b10000 >
b10000 n
b100000000100100000000001101100 $"
b100000000100100000000001101100 P
b1100 w
b1100 x
b1100 `
b10000000000000000000000000000000000000 ^"
1\
b11111 L"
b11111111111111111111111111111110 E
b10001111111111111111000 L
b111110 )"
b10001 5"
b10001 r
b11111 &
b1111110000 R"
b10000 (
b10000111111111111111100 :
b1000 8
b1000 F"
b111111 0
b111111 E"
b1111111111111111111111111111111100000000000000000000000000000000 H"
b11111111111111111111111111111111 1
b11111111111111111111111111 2
b100000000000000000000000000000000000000111111111111111111111111111111110000000000000000000000000000000010000 T"
b0 9
b100 ;
1,
1)
0<
b100000000100011111111111111110 F
b1000001100000000000000000000000000000100000000000000000000000000000000000000000000000000000000000000000001111111111111111111111111111111000100000000000010001111111111111111000100011111100000 A"
b1000 M
b10 ~
b1000011111111111111110000000000000000000000000000001100 v
b110000100000000100100000000001101100 %"
b1100 Q
b100000000000000000000000000000000000000000000000000000000000000000000000000000000000000000000000000000000000 W"
b1000001100000000000000000000000000000010000000000000000000000000000000000000000000000000000000000000000001111111111111111111111111111111100100000000000010000111111111111111100100001111100000 D"
b100000100000000100011111111111111110 ("
b1000 |
b1000 a
b1000 }
1!
1$
#40
0!
0$
#45
b10000 y
b10000 _
b10000 z
b11111111111111111111111111111110 N"
b11111111111111111111111111111110 +
b11111111111111111111111111111111 ]"
b111111111111111111111111111111111111111111111111111111111111111000000000000000000000000000000000 >"
b111111111111111111111111111111111111111111111111111111111111111000000000000000000000000000000000 ;"
b11111111111111111111111111111111 ]
b10001110010010000000000000000000 $"
b10001110010010000000000000000000 P
b10001 S"
b10001 >
b10001 n
b10000 w
b10000 x
b10000 `
b11111111111111111111111111111110 I"
b11111111111111111111111111111110 %
b11111111111111111111111111111110 M"
b11111 Y"
b1101100 E
b10010000000000110110000 L
b101100 )"
b10010 5"
b10010 r
b11111111111111111111111111111111110000 ^"
b10000 ^
b10000 p
b11111111111111111111111111111111 \"
b11111111111111111111111111111111 S
b11111111111111111111111111111111 X"
b11 ~
b1000010001110010010000000000000000000 %"
b10000 Q
b100000000100100000000001101100 F
b1000001100000000000000000000000000000110000000000000000000000000000000000000000000000000000000000000000000000000000000000000000000110110000100000000000010010000000000110110000100100000000000 A"
b1100 M
b1111110001 R"
b10001 (
b1000111111111111111100000000000000000000000000000010000 v
b10001111111111111111000 :
b1111111111111111111111111111111000000000000000000000000000000000 H"
b11111111111111111111111111111110 1
b111110 0
b111110 E"
b100000000000000000000000000000000000000111111111111111111111111111111100000000000000000000000000000000010001 T"
b0 9
b1000 ;
1f
b1100 |
b1100 a
b1100 }
b110000100000000100100000000001101100 ("
b1000001100000000000000000000000000000100000000000000000000000000000000000000000000000000000000000000000001111111111111111111111111111111000100000000000010001111111111111111000100011111100000 D"
b100000000000000000000000000000000000000111111111111111111111111111111110000000000000000000000000000000010000 W"
b10000000000000000000000000000000000000 `"
1!
1$
#50
0!
0$
#55
b1101100 ="
b1101100 C
0O"
0*
b1101100 N"
b1101100 +
b10100 y
b10100 _
b10100 z
b1 t
b1 ?
b1 <"
b11111111111111111111111111111110 ]"
b11111111111111111111111111111110 ]
1/"
1I
10"
1J
b10010 S"
b10010 >
b10010 n
b1101100 I"
b1101100 %
b1101100 M"
b0 $"
b0 P
b10100 w
b10100 x
b10100 `
b11111111111111111111111111111111010001 ^"
b10001 ^
b10001 p
b11111111111111111111111111111110 \"
b11111111111111111111111111111110 S
b11111111111111111111111111111110 X"
b1 L"
b0 E
b1001001000000000000000000000 L
b100011 *"
b0 )"
b10010 4"
b1000 5"
b1000 r
b10010 q
b10000 h
b10000 s
b10000 7"
b11111111111111111111111111111111111111111111111111111111111111100000000000000000000000000110110000000000000000000000000000000000 >"
b11111111111111111111111111111111111111111111111111111111111111100000000000000000000000000110110000000000000000000000000000000000 ;"
b11111111111111111111111111111111 6"
b11111111111111111111111111111111 g
b0 &
b10010 R"
b10010 (
b10010000000000110110000 :
b101100 0
b101100 E"
b110110000000000000000000000000000000000 H"
b1101100 1
b1 2
b100000000000000000000000000011011110000000000000000000000000000011011000000000000000000000000000000000010010 T"
b110111100 9
b1100 ;
b10001110010010000000000000000000 F
b1110001100000000000000000000000000001000000000000000000000000000001101100000000000000000000000000000000000000000000000000000000000000000010001100001001001000000000000000000000010000000010010 A"
b10000 M
b100 ~
b1001000000000011011000000000000000000000000000000010100 v
b1010000000000000000000000000000000000 %"
b10100 Q
b11111111111111111111111111111111110000 `"
b100000000000000000000000000000000000000111111111111111111111111111111100000000000000000000000000000000010001 W"
b1000001100000000000000000000000000000110000000000000000000000000000000000000000000000000000000000000000000000000000000000000000000110110000100000000000010010000000000110110000100100000000000 D"
b1000010001110010010000000000000000000 ("
b10000 |
b10000 a
b10000 }
1!
1$
#60
0!
0$
#65
b11000 y
b11000 _
b11000 z
b0 ="
b0 C
0+"
0A
0,"
0B
12"
1N
0/"
0I
00"
0J
b1101100 ]"
b1101100 ]
b1000 S"
b1000 >
b1000 n
b11000 w
b11000 `
b0 I"
b0 %
b0 M"
b1101100 N"
b1101100 +
b11011 Y"
b0 L
b0 *"
b0 4"
b0 5"
b0 r
b0 q
b0 L"
0o
b10000000000000000000000000110110010010 ^"
b10010 ^
b10010 p
b1101100 \"
b1101100 S
b1101100 X"
b11011110000000000000000000000000000011000 x
b110111100 [
b0 t
b0 ?
b0 <"
b101 ~
b1100000000000000000000000000000000000 %"
b11000 Q
b0 F
b1000010000000000000000000000000000001010000000000000000000000000000000000000000000000000000000000000000000000000000000000000000000000000000000000000000000000000000000000000000000000000000000 A"
b10100 M
b10010 '
b1000 R"
b1000 (
b100100100000000000000000000000000000000000000000000000011000 v
b1001001000000000000000000000 :
b100011 8
b100011 F"
b0 0
b0 E"
b0 H"
b0 1
b0 2
b1101100 .
b1101100 K"
b10000 9
b10000 ;
15
b111000000000000000000000000000001000000000000000000000000000000011011000000000000000000000000000000000001000 T"
16
b10001 h
b10001 s
b10001 7"
b11111111111111111111111111111110000000000000000000000000011011000000000000000000000000000110110000000000000000000000000000000000 >"
b11111111111111111111111111111110000000000000000000000000011011000000000000000000000000000110110000000000000000000000000000000000 ;"
b11111111111111111111111111111110 6"
b11111111111111111111111111111110 g
b10100 |
b10100 a
b10100 }
b1010000000000000000000000000000000000 ("
b1110001100000000000000000000000000001000000000000000000000000000001101100000000000000000000000000000000000000000000000000000000000000000010001100001001001000000000000000000000010000000010010 D"
b100000000000000000000000000011011110000000000000000000000000000011011000000000000000000000000000000000010010 W"
b11111111111111111111111111111111010001 `"
1!
1$
#70
0!
0$
#75
b11100 y
b11100 _
b11100 z
b100000010001010100001101000001 ["
b10000001000101010000110100000100000000000000000000000001101100 \"
b100000010001010100001101000001 W
b100000010001010100001101000001 ]"
b100000010001010100001101000001 ]
b0 N"
b0 +
b100 G"
b100 #
b100 J"
b0 S"
b0 >
b0 n
b11100 w
b11100 `
b10010000001000101010000110100000101000 ^"
b1000 ^
b1000 p
b1000000000000000000000000000000011100 x
b10000 [
1X
1Y
1o
b10010 h
b10010 s
b10010 7"
b1101100001000000100010101000011010000010000000000000000000000000000000000000000000000000000000000000000 >"
b1101100001000000100010101000011010000010000000000000000000000000000000000000000000000000000000000000000 ;"
b1101100 6"
b1101100 g
b0 '
b0 R"
b0 (
b0 :
b0 8
b0 F"
b0 .
b0 K"
b10100 9
b10100 ;
0,
0)
1<
05
b100000000000000000000000000000001010000000000000000000000000000000000000000000000000000000000000000000000000 T"
06
b1000010000000000000000000000000000001100000000000000000000000000000000000000000000000000000000000000000000000000000000000000000000000000000000000000000000000000000000000000000000000000000000 A"
b11000 M
b110 ~
b11100 v
b1110000000000000000000000000000000000 %"
b11100 Q
b10000000000000000000000000110110010010 `"
b111000000000000000000000000000001000000000000000000000000000000011011000000000000000000000000000000000001000 W"
b1000010000000000000000000000000000001010000000000000000000000000000000000000000000000000000000000000000000000000000000000000000000000000000000000000000000000000000000000000000000000000000000 D"
b1100000000000000000000000000000000000 ("
b11000 |
b11000 a
b11000 }
1!
1$
#80
0!
0$
#85
b100000 y
b100000 _
b100000 z
b0 ]"
b0 ]
b100000 w
b100000 `
b0 Y"
b10000000000000000000000000000000000000 ^"
b0 ^
b0 p
b10000001000101010000110100000100000000000000000000000000000000 \"
b0 S
b0 X"
b1010000000000000000000000000000100000 x
b10100 [
0X
0Y
b111 ~
b100000 v
b10000000000000000000000000000000000000 %"
b100000 Q
b1000010000000000000000000000000000001110000000000000000000000000000000000000000000000000000000000000000000000000000000000000000000000000000000000000000000000000000000000000000000000000000000 A"
b11100 M
b100000000000000000000000000000001100000000000000000000000000000000000000000000000000000000000000000000000000 T"
b11000 9
b11000 ;
b1000 h
b1000 s
b1000 7"
b100000010001010100001101000001000000000000000000000000000000000000000000000000000000000000000000000000000000000000000000000000 >"
b100000010001010100001101000001000000000000000000000000000000000000000000000000000000000000000000000000000000000000000000000000 ;"
b100000010001010100001101000001 6"
b100000010001010100001101000001 g
b11100 |
b11100 a
b11100 }
b1110000000000000000000000000000000000 ("
b1000010000000000000000000000000000001100000000000000000000000000000000000000000000000000000000000000000000000000000000000000000000000000000000000000000000000000000000000000000000000000000000 D"
b100000000000000000000000000000001010000000000000000000000000000000000000000000000000000000000000000000000000 W"
b10010000001000101010000110100000101000 `"
1!
1$
#90
0!
0$
#95
b100100 y
b100100 _
b100100 z
b10001000000001111111111111011 $"
b10001000000001111111111111011 P
b100100 w
b100100 `
b1100000000000000000000000000000100100 x
b11000 [
b0 h
b0 s
b0 7"
b0 >"
b0 ;"
b0 6"
b0 g
b100000000000000000000000000000001110000000000000000000000000000000000000000000000000000000000000000000000000 T"
b11100 9
b11100 ;
b1000010000000000000000000000000000010000000000000000000000000000000000000000000000000000000000000000000000000000000000000000000000000000000000000000000000000000000000000000000000000000000000 A"
b100000 M
b1000 ~
b100100 v
b10010000010001000000001111111111111011 %"
b100100 Q
b10000000000000000000000000000000000000 `"
b100000000000000000000000000000001100000000000000000000000000000000000000000000000000000000000000000000000000 W"
b1000010000000000000000000000000000001110000000000000000000000000000000000000000000000000000000000000000000000000000000000000000000000000000000000000000000000000000000000000000000000000000000 D"
b10000000000000000000000000000000000000 ("
b100000 |
b100000 a
b100000 }
1!
1$
#100
0!
0$
#105
b100000010001010100001101000001 ="
b100000010001010100001101000001 C
b101000 y
b101000 _
b101000 z
1+"
1A
02"
0N
1-"
1G
03"
0O
b100000010001010100001101000001 9"
b100000010001010100001101000001 ;"
b100000010001010100001101000001 c
b100010010100100000000000000100 $"
b100010010100100000000000000100 P
b101000 w
b101000 `
b11111111111111111111111111111011 E
b100000000111111111111101100 L
b100 *"
b111011 )"
b1000 4"
b1000 q
b1110000000000000000000000000000101000 x
b11100 [
b1001 ~
b101000 v
b10100000100010010100100000000000000100 %"
b101000 Q
b10001000000001111111111111011 F
b101000000000000000000000000000010010000100000010001010100001101000001000000000000000000000000000000001111111111111111111111111111101100010000000100000000111111111111101100000001111101000 A"
b100100 M
b100000000000000000000000000000010000000000000000000000000000000000000000000000000000000000000000000000000000 T"
b100000 9
b100000 ;
b100100 |
b100100 a
b100100 }
b10010000010001000000001111111111111011 ("
b1000010000000000000000000000000000010000000000000000000000000000000000000000000000000000000000000000000000000000000000000000000000000000000000000000000000000000000000000000000000000000000000 D"
b100000000000000000000000000000001110000000000000000000000000000000000000000000000000000000000000000000000000 W"
1!
1$
#110
0!
0$
#115
b1101100 ="
b1101100 C
b1101100 @"
b1101100 D
b101100 y
b101100 _
b101100 z
1,"
1B
0-"
0G
13"
1O
b1101100 9"
b1101100 ;"
b1101100 c
b1101100 :"
b1101100 >"
b1101100 d
b1011 G"
b1011 #
b1011 J"
b110001000010010000000011111111 $"
b110001000010010000000011111111 P
b101100 w
b101100 `
b10000000000000000000000000000000101100 x
b100000 [
b11111 L"
0o
b100 E
b1001010010000000000000010000 L
b1000 *"
b100 )"
b10010 4"
b10010 5"
b10010 r
b10010 q
b1000 '
b1111100000 R"
b11111 &
b100000000111111111111101100 :
b100 8
b100 F"
b111011 0
b111011 E"
b1111111111111111111111111111101100000000000000000000000000000000 H"
b11111111111111111111111111111011 1
b11111111111111111111111111 2
b100000010001010100001101000001 .
b100000010001010100001101000001 K"
b10000 9
b100100 ;
1)
0<
13
b10000000000000000000000000001000000000000000000000000000000000000000000000000000000000000000000000000000 T"
0=
b100010010100100000000000000100 F
b1000001100000000000000000000000000010100000000000000000000000000001101100000000000000000000000000011011000000000000000000000000000000010000100000001001010010000000000000010000100100000010010 A"
b101000 M
b1010 ~
b10000000011111111111110110000000000000000000000000000101100 v
b10110000110001000010010000000011111111 %"
b101100 Q
b100000000000000000000000000000010000000000000000000000000000000000000000000000000000000000000000000000000000 W"
b101000000000000000000000000000010010000100000010001010100001101000001000000000000000000000000000000001111111111111111111111111111101100010000000100000000111111111111101100000001111101000 D"
b10100000100010010100100000000000000100 ("
b101000 |
b101000 a
b101000 }
1!
1$
#120
0!
0$
#125
b100000010001010100001101000001 ="
b100000010001010100001101000001 C
b0 @"
b0 D
b110000 y
b110000 _
b110000 z
b1110000 N"
b1110000 +
b100000010001010100001101000001 9"
b111000000100000010001010100001101000001 ;"
b100000010001010100001101000001 c
b0 :"
b111000000000000000000000000000000000000 >"
b0 d
b10101110001010010000000000000000 $"
b10101110001010010000000000000000 P
b10010 S"
b10010 >
b10010 n
b110000 w
b110000 `
b10 G"
b10 #
b10 J"
b100 I"
b100 %
b100 M"
b11111111 E
b100001001000000001111111100 L
b1100 *"
b111111 )"
b1000 4"
b1001 5"
b1001 r
b1000 q
b0 L"
1o
b1000000000000000000000000000000110000 x
b10000 [
1V
b0 ^"
0\
b1011 ~
b11000010101110001010010000000000000000 %"
b110000 Q
b110001000010010000000011111111 F
b1000001100000000000000000000000000010110000100000010001010100001101000001000000000000000000000000000000000000000000000000000000001111111100110000000100001001000000001111111100010010000001000 A"
b101100 M
b10010 '
b0 &
b10010 R"
b10010 (
b100101001000000000000001000000000000000000000000000000110000 v
b1001010010000000000000010000 :
b1000 8
b1000 F"
b100 0
b100 E"
b100 1
b0 2
b10000000000000000000000000001101100 H"
b1101100 /
b1101100 .
b1101100 K"
b111000 9
b101000 ;
1,
03
b100000000000000000000000000000011100000000000000000000000000000011100000000000000000000000000000110110010010 T"
1=
b101100 |
b101100 a
b101100 }
b10110000110001000010010000000011111111 ("
b1000001100000000000000000000000000010100000000000000000000000000001101100000000000000000000000000011011000000000000000000000000000000010000100000001001010010000000000000010000100100000010010 D"
b10000000000000000000000000001000000000000000000000000000000000000000000000000000000000000000000000000000 W"
1!
1$
#130
0!
0$
#135
b1000001 @"
b1000001 D
b11111111111111111111111111111110 ="
b11111111111111111111111111111110 C
b110100 y
b110100 _
b110100 z
b1 u
b1 @
b1 ?"
b1110000 ]"
b1110000 ]
11"
1K
03"
0O
b11111111111111111111111111111110 9"
b11111111111111111111111111111110 c
b1001 S"
b1001 >
b1001 n
b0 G"
b0 #
b0 J"
b11111111 I"
b11111111 %
b11111111 M"
b1000001 N"
b11100000000000000000000000000000100000100000000000000000000000000000000 >"
b11100000000000000000000000000000100000111111111111111111111111111111110 ;"
b1000001 +
b10000100001000000010 $"
b10000100001000000010 P
b110100 w
b110100 `
b11100 Y"
b10010 ^
b10010 p
b1101100 U
b1101100 Z"
b10000001000101010000110100000100000000000000000000000001110000 \"
b1110000 S
b1110000 X"
b11100000000000000000000000000000110100 x
b111000 [
0V
b10000000000000000000000000111000010010 ^"
1\
b11 L"
b0 E
b1000101001000000000000000000 L
b101011 *"
b0 )"
b10001 4"
b10001 q
0f
b1000 '
b1001 R"
b1001 (
b100001001000000001111111100 :
b1100 8
b1100 F"
b111111 0
b111111 E"
b11111111 1
b11 2
b1111111100000000000000000000000000000000 H"
b0 /
b100000010001010100001101000001 .
b100000010001010100001101000001 K"
b100000000000000000000000001000010100000000000000000000000000000010000010000000000000000000000000000000001001 T"
b10000101000 9
b101100 ;
b10101110001010010000000000000000 F
b1001100000000000000000000000000011000011111111111111111111111111111110000000000000000000000000010000010000000000000000000000000000000010101100001000101001000000000000000000010010000010001 A"
b110000 M
b1100 ~
b10000100100000000111111110000000000000000000000000000110100 v
b11010000000000000010000100001000000010 %"
b110100 Q
b0 `"
b100000000000000000000000000000011100000000000000000000000000000011100000000000000000000000000000110110010010 W"
b1000001100000000000000000000000000010110000100000010001010100001101000001000000000000000000000000000000000000000000000000000000001111111100110000000100001001000000001111111100010010000001000 D"
b11000010101110001010010000000000000000 ("
b110000 |
b110000 a
b110000 }
1!
1$
#140
0!
0$
#145
b111000 y
b111000 _
b111000 z
b0 ="
b0 C
b100000010001010100001101000001 @"
b100000010001010100001101000001 D
0+"
0A
0,"
0B
12"
1N
01"
0K
13"
1O
b0 9"
b0 c
b100000010001010100001101000001 :"
b100000010001010100001101000001 d
b1000001 ]"
b1000001 ]
b110001000010010000000011111111 $"
b110001000010010000000011111111 P
b111000 w
b111000 `
b10 G"
b10 #
b10 J"
b0 I"
b0 %
b0 M"
b11111111111111111111111111111110 N"
b11111111111111111111111111111110 +
b10000 Y"
b100001000000010 E
b1000010000100000001000 L
b0 *"
b10 )"
b0 4"
b1000 5"
b1000 r
b0 q
b0 L"
0o
b10000000000000000000000000100000101001 ^"
b1001 ^
b1001 p
b0 U
b0 Z"
b10000001000101010000110100000100000000000000000000000001000001 \"
b1000001 S
b1000001 X"
b1000010100000000000000000000000000000111000 x
b10000101000 [
b0 u
b0 @
b0 ?"
b1101 ~
b11100000110001000010010000000011111111 %"
b111000 Q
b10000100001000000010 F
b1000010000000000000000000000000000011010000000000000000000000000000000000001000000100010101000011010000010000000000000000010000100000001000000000000000001000010000100000001000010000100000000 A"
b110100 M
b10001 '
b100010100100000000000000000000000000000000000000000000111000 v
b1000101001000000000000000000 :
b101011 8
b101011 F"
b0 0
b0 E"
b0 1
b0 2
b1000001 H"
b1000001 /
b11111111111111111111111111111110 .
b11111111111111111111111111111110 K"
b110000 9
b110000 ;
17
b100000000000000000000000000011000000111111111111111111111111111111100000000000000000000000000100000101001 T"
0=
b10010 h
b10010 s
b10010 7"
b1110000000000000000000000000000010000011111111111111111111111111111111000100000010001010100001101000001 >"
b1110000000000000000000000000000010000011111111111111111111111111111111000000000000000000000000000000000 ;"
b1110000 6"
b1110000 g
1f
b110100 |
b110100 a
b110100 }
b11010000000000000010000100001000000010 ("
b1001100000000000000000000000000011000011111111111111111111111111111110000000000000000000000000010000010000000000000000000000000000000010101100001000101001000000000000000000010010000010001 D"
b100000000000000000000000001000010100000000000000000000000000000010000010000000000000000000000000000000001001 W"
b10000000000000000000000000111000010010 `"
1!
1$
#150
0!
0$
