traces/load.vcd
$date
	Thu Nov 12 18:33:29 2015
$end
$version
	Icarus Verilog
$end
$timescale
	1s
$end
$scope module cpu_tb $end
$var reg 1 ! clk $end
$var reg 1 " reset $end
$scope module cpu $end
$var wire 4 # aluop [3:0] $end
$var wire 1 $ clk $end
$var wire 32 % data_t [31:0] $end
$var wire 5 & dst_rd [4:0] $end
$var wire 5 ' dst_rt [4:0] $end
$var wire 2 ( ex_aluop [1:0] $end
$var wire 1 ) ex_aluovf $end
$var wire 32 * ex_alures [31:0] $end
$var wire 1 + ex_alusrc $end
$var wire 1 , ex_aluz $end
$var wire 32 - ex_data_rs [31:0] $end
$var wire 32 . ex_data_rt [31:0] $end
$var wire 32 / ex_imm [31:0] $end
$var wire 1 0 ex_isbranch $end
$var wire 1 1 ex_isjump $end
$var wire 1 2 ex_memread $end
$var wire 1 3 ex_memtoreg $end
$var wire 1 4 ex_memwrite $end
$var wire 32 5 ex_pc_branch [31:0] $end
$var wire 32 6 ex_pc_jump [31:0] $end
$var wire 32 7 ex_pc_next [31:0] $end
$var wire 1 8 ex_regdst $end
$var wire 1 9 ex_regwrite $end
$var wire 5 : ex_wreg [4:0] $end
$var wire 2 ; id_aluop [1:0] $end
$var wire 1 < id_alusrc $end
$var wire 32 = id_data_rs [31:0] $end
$var wire 32 > id_data_rt [31:0] $end
$var wire 32 ? id_imm [31:0] $end
$var wire 32 @ id_instr [31:0] $end
$var wire 1 A id_isbranch $end
$var wire 1 B id_isjump $end
$var wire 1 C id_memread $end
$var wire 1 D id_memtoreg $end
$var wire 1 E id_memwrite $end
$var wire 32 F id_pc_jump [31:0] $end
$var wire 32 G id_pc_next [31:0] $end
$var wire 1 H id_regdst $end
$var wire 1 I id_regwrite $end
$var wire 32 J if_instr [31:0] $end
$var wire 32 K if_pc_next [31:0] $end
$var wire 1 L mem_aluovf $end
$var wire 32 M mem_alures [31:0] $end
$var wire 1 N mem_aluz $end
$var wire 32 O mem_data_rt [31:0] $end
$var wire 1 P mem_isbranch $end
$var wire 1 Q mem_isjump $end
$var wire 32 R mem_memout [31:0] $end
$var wire 1 S mem_memread $end
$var wire 1 T mem_memtoreg $end
$var wire 1 U mem_memwrite $end
$var wire 32 V mem_pc_branch [31:0] $end
$var wire 32 W mem_pc_jump [31:0] $end
$var wire 1 X mem_regwrite $end
$var wire 5 Y mem_wreg [4:0] $end
$var wire 32 Z pc_in [31:0] $end
$var wire 32 [ pc_interm [31:0] $end
$var wire 32 \ pc_out [31:0] $end
$var wire 1 ] pc_take_branch $end
$var wire 1 ^ reset $end
$var wire 32 _ wb_alures [31:0] $end
$var wire 32 ` wb_memout [31:0] $end
$var wire 1 a wb_memtoreg $end
$var wire 1 b wb_regwrite $end
$var wire 32 c wb_wdata [31:0] $end
$var wire 5 d wb_wreg [4:0] $end
$var reg 1 e ex_mem_we $end
$var reg 1 f id_ex_we $end
$var reg 1 g if_id_we $end
$var reg 1 h mem_wb_we $end
$var reg 1 i pc_we $end
$scope module pc_bmux $end
$var wire 64 j in_data [63:0] $end
$var wire 1 ] select $end
$var reg 32 k out_data [31:0] $end
$upscope $end
$scope module pc_jmux $end
$var wire 64 l in_data [63:0] $end
$var wire 1 Q select $end
$var reg 32 m out_data [31:0] $end
$upscope $end
$scope module pc $end
$var wire 1 $ clk $end
$var wire 32 n in [31:0] $end
$var wire 1 ^ reset $end
$var wire 1 o we $end
$var reg 32 p out [31:0] $end
$upscope $end
$scope module imem $end
$var wire 32 q address [31:0] $end
$var wire 1 $ clk $end
$var wire 3 r index [2:0] $end
$var wire 1 s memread $end
$var wire 1 t memwrite $end
$var wire 1 ^ reset $end
$var wire 32 u wdata [31:0] $end
$var reg 32 v rdata [31:0] $end
$upscope $end
$scope module if_id $end
$var wire 1 $ clk $end
$var wire 64 w in [63:0] $end
$var wire 1 ^ reset $end
$var wire 1 x we $end
$var reg 64 y out [63:0] $end
$upscope $end
$scope module control $end
$var wire 6 z funct [5:0] $end
$var wire 6 { opcode [5:0] $end
$var reg 2 | aluop [1:0] $end
$var reg 1 } alusrc $end
$var reg 1 ~ isbranch $end
$var reg 1 !" jump $end
$var reg 1 "" memread $end
$var reg 1 #" memtoreg $end
$var reg 1 $" memwrite $end
$var reg 1 %" regdst $end
$var reg 1 &" regwrite $end
$upscope $end
$scope module regfile $end
$var wire 1 $ clk $end
$var wire 1 b regwrite $end
$var wire 1 ^ reset $end
$var wire 5 '" rreg1 [4:0] $end
$var wire 5 (" rreg2 [4:0] $end
$var wire 32 )" wdata [31:0] $end
$var wire 5 *" wreg [4:0] $end
$var reg 32 +" rdata1 [31:0] $end
$var reg 32 ," rdata2 [31:0] $end
$upscope $end
$scope module id_ex $end
$var wire 1 $ clk $end
$var wire 180 -" in [179:0] $end
$var wire 1 ^ reset $end
$var wire 1 ." we $end
$var reg 180 /" out [179:0] $end
$upscope $end
$scope module alucontrol $end
$var wire 2 0" alu_op_in [1:0] $end
$var wire 6 1" func [5:0] $end
$var reg 4 2" alu_op_out [3:0] $end
$upscope $end
$scope module t_mux $end
$var wire 64 3" in_data [63:0] $end
$var wire 1 + select $end
$var reg 32 4" out_data [31:0] $end
$upscope $end
$scope module alu $end
$var wire 4 5" alu_op [3:0] $end
$var wire 32 6" s [31:0] $end
$var wire 5 7" shamt [4:0] $end
$var wire 32 8" t [31:0] $end
$var reg 32 9" out [31:0] $end
$var reg 1 :" overflow $end
$var reg 1 ;" zero $end
$upscope $end
$scope module dst_mux $end
$var wire 10 <" in_data [9:0] $end
$var wire 1 8 select $end
$var reg 5 =" out_data [4:0] $end
$upscope $end
$scope module ex_mem $end
$var wire 1 $ clk $end
$var wire 141 >" in [140:0] $end
$var wire 1 ^ reset $end
$var wire 1 ?" we $end
$var reg 141 @" out [140:0] $end
$upscope $end
$scope module dmem $end
$var wire 32 A" address [31:0] $end
$var wire 1 $ clk $end
$var wire 3 B" index [2:0] $end
$var wire 1 S memread $end
$var wire 1 U memwrite $end
$var wire 1 ^ reset $end
$var wire 32 C" wdata [31:0] $end
$var reg 32 D" rdata [31:0] $end
$upscope $end
$scope module mem_wb $end
$var wire 1 $ clk $end
$var wire 71 E" in [70:0] $end
$var wire 1 ^ reset $end
$var wire 1 F" we $end
$var reg 71 G" out [70:0] $end
$upscope $end
$scope module wb_mux $end
$var wire 64 H" in_data [63:0] $end
$var wire 1 a select $end
$var reg 32 I" out_data [31:0] $end
$upscope $end
$upscope $end
$upscope $end
$enddefinitions $end
#0
$dumpvars
b0 I"
b0 H"
b0 G"
1F"
b0 E"
b0 D"
b0 C"
b0 B"
b0 A"
b0 @"
1?"
b1000000000000000000000000000000000000000000000000000000000000000000000 >"
b0 ="
b0 <"
1;"
0:"
b0 9"
b0 8"
b0 7"
b0 6"
b10 5"
b0 4"
b0 3"
b10 2"
b0 1"
b0 0"
b0 /"
1."
b100000000000000000000000000000000000000000000000000000000000000000000000000000000000000000000000000000000000000000000000000000000000000000000000000000000000000000000000000000 -"
b0 ,"
b0 +"
b0 *"
b0 )"
b0 ("
b0 '"
0&"
0%"
0$"
0#"
0""
0!"
0~
0}
b10 |
b0 {
b0 z
b0 y
1x
b100xxxxxxxxxxxxxxxxxxxxxxxxxxxxxxxx w
bx v
b0 u
0t
1s
b0 r
b0 q
b0 p
1o
b100 n
b100 m
b100 l
b100 k
b100 j
1i
1h
1g
1f
1e
b0 d
b0 c
0b
0a
b0 `
b0 _
1^
0]
b0 \
b100 [
b100 Z
b0 Y
0X
b0 W
b0 V
0U
0T
0S
b0 R
0Q
0P
b0 O
0N
b0 M
0L
b100 K
bx J
0I
0H
b0 G
b0 F
0E
0D
0C
0B
0A
b0 @
b0 ?
b0 >
b0 =
0<
b10 ;
b0 :
09
08
b0 7
b0 6
b0 5
04
03
02
01
00
b0 /
b0 .
b0 -
1,
0+
b0 *
0)
b0 (
b0 '
b0 &
b0 %
0$
b10 #
1"
0!
$end
#5
1!
1$
#10
0!
0$
#12
b10001100000010000000000000000000 v
b10010001100000010000000000000000000 w
b10001100000010000000000000000000 J
0"
0^
#15
b1000 m
b1000 Z
b1000 n
1}
1<
b0 |
b0 ;
1""
1C
1#"
1D
1&"
1I
b100 2"
b100 #
b100 5"
b10001100000010000000000000000100 v
b10001100000010000000000000000100 J
b1000 k
b1000 l
b1000 [
b1000000000000000000000 F
b100011 {
b1000 ("
1N
b10 (
b10 0"
b10001100000010000000000000000000 @
b111000001000000000000000000000000000000100000000000000000000000000000000000000000000000000000000000000000000000000000000000000000000000000000000000010000000000000000000000100000000 -"
b100 G
b1 r
b1000 j
b100010001100000010000000000000000100 w
b1000 K
b1000000000000000000000000000000000000000000000000000000000000000000000 @"
b100000000000000000000000000000000000000000000000000000000000000000000000000000000000000000000000000000000000000000000000000000000000000000000000000000000000000000000000000000 /"
b10010001100000010000000000000000000 y
b100 p
b100 \
b100 q
1!
1$
#20
0!
0$
#25
b1100 m
b1100 Z
b1100 n
b0 v
b0 J
b1100 k
b1100 [
b1000 ="
b1000 :
b10 2"
b10 #
b10 5"
b100 ?
b1000000000000000010000 F
b100 z
b10 r
b1100 j
b110000000000000000000000000000000000 w
b1100 K
b10001100000010000000000000000100 @
b111000001000000000000000000000000000001000000000000000000000000000000000000000000000000000000000000000000000000000000000000000000000000100000000000010000000000000000100000100000000 -"
b1000 G
b1000 <"
b1000 '
b100000000000000000000000000000000000000000000000001100 l
b1000000000000000000000 6
b100 5
b100 7
1+
b0 (
b0 0"
12
13
b111000000000000000000000000000000001000000000000100000000000000000000001000000000000000000000000000000000000000000000000000000000000000001000 >"
19
b1000 p
b1000 \
b1000 q
b100010001100000010000000000000000100 y
b111000001000000000000000000000000000000100000000000000000000000000000000000000000000000000000000000000000000000000000000000000000000000000000000000010000000000000000000000100000000 /"
1!
1$
#30
0!
0$
#35
0;"
0,
b100 9"
b100 *
b10000 m
b10000 Z
b10000 n
0}
0<
b10 |
b10 ;
0""
0C
0#"
0D
0&"
0I
b10001100000010000000000000000000 D"
b10001100000010000000000000000000 R
b100 4"
b100 %
b100 8"
b10000 k
b10000 [
b100 1"
b0 ?
b0 F
b0 {
b0 z
b0 ("
b1000 Y
b1000000000000000000000 W
b100 V
1S
1T
b11100011000000100000000000000000000000000000000000000000000000000001000 E"
1X
b100000000000000001000000000000000000000000000000010000 l
b1000000000000000010000 6
b10000000000000000000000000000000000 3"
b100 /
b111000000000000000000000000000000110000000000000100000000000000001000000000000000000000000000000000001000000000000000000000000000000000001000 >"
b11000 5
b1000 7
b0 @
b100000000000000000000000000000001100000000000000000000000000000000000000000000000000000000000000000000000000000000000000000000000000000000000000000000000000000000000000000000 -"
b1100 G
b11 r
b10000000000000000000000000000010000 j
b1000000000000000000000000000000000000 w
b10000 K
b111000000000000000000000000000000001000000000000100000000000000000000001000000000000000000000000000000000000000000000000000000000000000001000 @"
b111000001000000000000000000000000000001000000000000000000000000000000000000000000000000000000000000000000000000000000000000000000000000100000000000010000000000000000100000100000000 /"
b110000000000000000000000000000000000 y
b1100 p
b1100 \
b1100 q
1!
1$
#40
0!
0$
#45
1;"
1,
b0 9"
b0 *
b10100 m
b10100 Z
b10100 n
b100 2"
b100 #
b100 5"
b10001100000010000000000000000100 D"
b10001100000010000000000000000100 R
b1000000000000000000000000000 v
b1000000000000000000000000000 J
b0 ="
b0 :
b0 4"
b0 %
b0 8"
b10100 k
b10100 [
b10001100000010000000000000000000 I"
b10001100000010000000000000000000 c
b10001100000010000000000000000000 )"
b0 1"
b1 B"
b100 r
b1010000001000000000000000000000000000 w
b10100 K
b100000000000000000000000000000010000000000000000000000000000000000000000000000000000000000000000000000000000000000000000000000000000000000000000000000000000000000000000000000 -"
b10000 G
b0 <"
b0 '
b10100 l
b0 6
b0 3"
b0 /
b1100 5
b1100 7
0+
b10 (
b10 0"
02
03
b11000000000000000000000000000000000001000000000000000000000000000000000000000000000000000000000000000000000 >"
09
b11100011000000100000000000000001000000000000000000000000000000010001000 E"
b100 M
b100 A"
0N
b1000000000000000010000 W
b1100000000000000000000000000000010100 j
b11000 V
b1000 d
b1000 *"
b1000110000001000000000000000000000000000000000000000000000000000 H"
b10001100000010000000000000000000 `
1a
1b
b10000 p
b10000 \
b10000 q
b1000000000000000000000000000000000000 y
b100000000000000000000000000000001100000000000000000000000000000000000000000000000000000000000000000000000000000000000000000000000000000000000000000000000000000000000000000000 /"
b111000000000000000000000000000000110000000000000100000000000000001000000000000000000000000000000000001000000000000000000000000000000000001000 @"
b11100011000000100000000000000000000000000000000000000000000000000001000 G"
1!
1$
#50
0!
0$
#55
b11000 m
b11000 Z
b11000 n
1!"
1B
b0 |
b0 ;
b10001100000010000000000000000100 I"
b10001100000010000000000000000100 c
b10001100000010000000000000000100 )"
b0 v
b0 J
b11000 k
b11000 l
b11000 [
b0 B"
b10 {
b100 _
b1000110000001000000000000000010000000000000000000000000000000100 H"
b10001100000010000000000000000100 `
b0 Y
b0 M
b0 A"
1N
b0 W
b1100 V
0S
0T
b100011000000100000000000000001000000000000000000000000000000000000000 E"
0X
b100000000000000000000000000000000000001000000000000000000000000000000000000000000000000000000000000000000000 >"
b10000 5
b10000 7
b1000000000000000000000000000 @
b100000000000000000000000000010100000000000000000000000000000000000000000000000000000000000000000000000000000000000000000000000000000000000000000000000000000000000000000000 -"
b10100 G
b101 r
b110000000000000000000000000000011000 j
b1100000000000000000000000000000000000 w
b11000 K
b11100011000000100000000000000001000000000000000000000000000000010001000 G"
b11000000000000000000000000000000000001000000000000000000000000000000000000000000000000000000000000000000000 @"
b100000000000000000000000000000010000000000000000000000000000000000000000000000000000000000000000000000000000000000000000000000000000000000000000000000000000000000000000000000 /"
b1010000001000000000000000000000000000 y
b10100 p
b10100 \
b10100 q
1!
1$
#60
0!
0$
#65
b11100 m
b11100 Z
b11100 n
0!"
0B
b10 |
b10 ;
b10 2"
b10 #
b10 5"
b11100 k
b11100 l
b11100 [
b0 I"
b0 c
b0 )"
b0 {
b110 r
b1110000000000000000000000000000000000 w
b11100 K
b0 @
b100000000000000000000000000000011000000000000000000000000000000000000000000000000000000000000000000000000000000000000000000000000000000000000000000000000000000000000000000000 -"
b11000 G
b10100 5
b10100 7
b1000000000000000000000000000101000000000000000000000000000000000001000000000000000000000000000000000000000000000000000000000000000000000 >"
11
b0 (
b0 0"
b1000000000000000000000000000000011100 j
b10000 V
b0 d
b0 *"
b1000110000001000000000000000010000000000000000000000000000000000 H"
b0 _
0a
0b
b11000 p
b11000 \
b11000 q
b1100000000000000000000000000000000000 y
b100000000000000000000000000010100000000000000000000000000000000000000000000000000000000000000000000000000000000000000000000000000000000000000000000000000000000000000000000 /"
b100000000000000000000000000000000000001000000000000000000000000000000000000000000000000000000000000000000000 @"
b100011000000100000000000000001000000000000000000000000000000000000000 G"
1!
1$
#70
0!
0$
#75
b0 m
b0 Z
b0 n
b100 2"
b100 #
b100 5"
b100000 k
b100000 l
b100000 [
b10100 V
1Q
b11000 5
b11000 7
b110000000000000000000000000000000000001000000000000000000000000000000000000000000000000000000000000000000000 >"
01
b10 (
b10 0"
b100000000000000000000000000000011100000000000000000000000000000000000000000000000000000000000000000000000000000000000000000000000000000000000000000000000000000000000000000000 -"
b11100 G
b111 r
b1010000000000000000000000000000100000 j
b10000000000000000000000000000000000000 w
b100000 K
b1000000000000000000000000000101000000000000000000000000000000000001000000000000000000000000000000000000000000000000000000000000000000000 @"
b100000000000000000000000000000011000000000000000000000000000000000000000000000000000000000000000000000000000000000000000000000000000000000000000000000000000000000000000000000 /"
b1110000000000000000000000000000000000 y
b11100 p
b11100 \
b11100 q
1!
1$
#80
0!
0$
#85
b10001100000010000000000000000000 v
b10001100000010000000000000000000 J
b100 k
b100 l
b100 [
b100 m
b100 Z
b100 n
b0 r
b10010001100000010000000000000000000 w
b100 K
b100000000000000000000000000000100000000000000000000000000000000000000000000000000000000000000000000000000000000000000000000000000000000000000000000000000000000000000000000000 -"
b100000 G
b111000000000000000000000000000000000001000000000000000000000000000000000000000000000000000000000000000000000 >"
b11100 5
b11100 7
b1100000000000000000000000000000000100 j
b11000 V
0Q
b0 p
b0 \
b0 q
b10000000000000000000000000000000000000 y
b100000000000000000000000000000011100000000000000000000000000000000000000000000000000000000000000000000000000000000000000000000000000000000000000000000000000000000000000000000 /"
b110000000000000000000000000000000000001000000000000000000000000000000000000000000000000000000000000000000000 @"
1!
1$
#90
0!
0$
#95
b1000 m
b1000 Z
b1000 n
1}
1<
b0 |
b0 ;
1""
1C
1#"
1D
1&"
1I
b10001100000010000000000000000100 ,"
b10001100000010000000000000000100 >
b10001100000010000000000000000100 v
b10001100000010000000000000000100 J
b1000 k
b1000 l
b1000 [
b1000000000000000000000 F
b100011 {
b1000 ("
b11100 V
b1000000000000000000000000000000000000001000000000000000000000000000000000000000000000000000000000000000000000 >"
b100000 5
b100000 7
b10001100000010000000000000000000 @
b111000001000000000000000000000000000000100000000000000000000000000000000001000110000001000000000000000010000000000000000000000000000000000000000000010000000000000000000000100000000 -"
b100 G
b1 r
b1110000000000000000000000000000001000 j
b100010001100000010000000000000000100 w
b1000 K
b111000000000000000000000000000000000001000000000000000000000000000000000000000000000000000000000000000000000 @"
b100000000000000000000000000000100000000000000000000000000000000000000000000000000000000000000000000000000000000000000000000000000000000000000000000000000000000000000000000000 /"
b10010001100000010000000000000000000 y
b100 p
b100 \
b100 q
1!
1$
#100
0!
0$
#105
b1100 m
b1100 Z
b1100 n
b0 v
b0 J
b1000 ="
b1000 :
b10 2"
b10 #
b10 5"
b1100 k
b1100 [
b100 ?
b1000000000000000010000 F
b100 z
b10 r
b110000000000000000000000000000000000 w
b1100 K
b10001100000010000000000000000100 @
b111000001000000000000000000000000000001000000000000000000000000000000000001000110000001000000000000000010000000000000000000000000000000100000000000010000000000000000100000100000000 -"
b1000 G
b1000 <"
b1000 '
b100000000000000000000000000000000000000000000000001100 l
b1000000000000000000000 6
b10001100000010000000000000000100 3"
b10001100000010000000000000000100 .
b100 5
b100 7
1+
b0 (
b0 0"
12
13
b111000000000000000000000000000000001000000000000100000000000000000000001000000000000000000000000000000001000110000001000000000000000010001000 >"
19
b10000000000000000000000000000000001100 j
b100000 V
b1000 p
b1000 \
b1000 q
b100010001100000010000000000000000100 y
b111000001000000000000000000000000000000100000000000000000000000000000000001000110000001000000000000000010000000000000000000000000000000000000000000010000000000000000000000100000000 /"
b1000000000000000000000000000000000000001000000000000000000000000000000000000000000000000000000000000000000000 @"
1!
1$
#110
0!
0$
#115
0;"
0,
b100 9"
b100 *
b10000 m
b10000 Z
b10000 n
0}
0<
b10 |
b10 ;
0""
0C
0#"
0D
0&"
0I
b0 ,"
b0 >
b10001100000010000000000000000000 D"
b10001100000010000000000000000000 R
b100 4"
b100 %
b100 8"
b10000 k
b10000 [
b100 1"
b0 ?
b0 F
b0 {
b0 z
b0 ("
b1000 Y
b10001100000010000000000000000100 O
b10001100000010000000000000000100 C"
b1000000000000000000000 W
b100 V
1S
1T
b11100011000000100000000000000000000000000000000000000000000000000001000 E"
1X
b100000000000000001000000000000000000000000000000010000 l
b1000000000000000010000 6
b10010001100000010000000000000000100 3"
b100 /
b111000000000000000000000000000000110000000000000100000000000000001000000000000000000000000000000000001001000110000001000000000000000010001000 >"
b11000 5
b1000 7
b0 @
b100000000000000000000000000000001100000000000000000000000000000000000000000000000000000000000000000000000000000000000000000000000000000000000000000000000000000000000000000000 -"
b1100 G
b11 r
b10000000000000000000000000000010000 j
b1000000000000000000000000000000000000 w
b10000 K
b111000000000000000000000000000000001000000000000100000000000000000000001000000000000000000000000000000001000110000001000000000000000010001000 @"
b111000001000000000000000000000000000001000000000000000000000000000000000001000110000001000000000000000010000000000000000000000000000000100000000000010000000000000000100000100000000 /"
b110000000000000000000000000000000000 y
b1100 p
b1100 \
b1100 q
1!
1$
#120
0!
0$
#125
1;"
1,
b0 9"
b0 *
b10100 m
b10100 Z
b10100 n
b100 2"
b100 #
b100 5"
b10001100000010000000000000000100 D"
b10001100000010000000000000000100 R
b1000000000000000000000000000 v
b1000000000000000000000000000 J
b0 ="
b0 :
b0 4"
b0 %
b0 8"
b10100 k
b10100 [
b10001100000010000000000000000000 I"
b10001100000010000000000000000000 c
b10001100000010000000000000000000 )"
b0 1"
b1 B"
b100 r
b1010000001000000000000000000000000000 w
b10100 K
b100000000000000000000000000000010000000000000000000000000000000000000000000000000000000000000000000000000000000000000000000000000000000000000000000000000000000000000000000000 -"
b10000 G
b0 <"
b0 '
b10100 l
b0 6
b0 /
b0 3"
b0 .
b1100 5
b1100 7
0+
b10 (
b10 0"
02
03
b11000000000000000000000000000000000001000000000000000000000000000000000000000000000000000000000000000000000 >"
09
b11100011000000100000000000000001000000000000000000000000000000010001000 E"
b100 M
b100 A"
0N
b1000000000000000010000 W
b1100000000000000000000000000000010100 j
b11000 V
b1000 d
b1000 *"
b1000110000001000000000000000000000000000000000000000000000000000 H"
b10001100000010000000000000000000 `
1a
1b
b10000 p
b10000 \
b10000 q
b1000000000000000000000000000000000000 y
b100000000000000000000000000000001100000000000000000000000000000000000000000000000000000000000000000000000000000000000000000000000000000000000000000000000000000000000000000000 /"
b111000000000000000000000000000000110000000000000100000000000000001000000000000000000000000000000000001001000110000001000000000000000010001000 @"
b11100011000000100000000000000000000000000000000000000000000000000001000 G"
1!
1$
#130
0!
0$
#135
b11000 m
b11000 Z
b11000 n
1!"
1B
b0 |
b0 ;
b10001100000010000000000000000100 I"
b10001100000010000000000000000100 c
b10001100000010000000000000000100 )"
b0 v
b0 J
b11000 k
b11000 l
b11000 [
b0 B"
b10 {
b100 _
b1000110000001000000000000000010000000000000000000000000000000100 H"
b10001100000010000000000000000100 `
b0 Y
b0 O
b0 C"
b0 M
b0 A"
1N
b0 W
b1100 V
0S
0T
b100011000000100000000000000001000000000000000000000000000000000000000 E"
0X
b100000000000000000000000000000000000001000000000000000000000000000000000000000000000000000000000000000000000 >"
b10000 5
b10000 7
b1000000000000000000000000000 @
b100000000000000000000000000010100000000000000000000000000000000000000000000000000000000000000000000000000000000000000000000000000000000000000000000000000000000000000000000 -"
b10100 G
b101 r
b110000000000000000000000000000011000 j
b1100000000000000000000000000000000000 w
b11000 K
b11100011000000100000000000000001000000000000000000000000000000010001000 G"
b11000000000000000000000000000000000001000000000000000000000000000000000000000000000000000000000000000000000 @"
b100000000000000000000000000000010000000000000000000000000000000000000000000000000000000000000000000000000000000000000000000000000000000000000000000000000000000000000000000000 /"
b1010000001000000000000000000000000000 y
b10100 p
b10100 \
b10100 q
1!
1$
#140
0!
0$
#145
b11100 m
b11100 Z
b11100 n
0!"
0B
b10 |
b10 ;
b10 2"
b10 #
b10 5"
b11100 k
b11100 l
b11100 [
b0 I"
b0 c
b0 )"
b0 {
b110 r
b1110000000000000000000000000000000000 w
b11100 K
b0 @
b100000000000000000000000000000011000000000000000000000000000000000000000000000000000000000000000000000000000000000000000000000000000000000000000000000000000000000000000000000 -"
b11000 G
b10100 5
b10100 7
b1000000000000000000000000000101000000000000000000000000000000000001000000000000000000000000000000000000000000000000000000000000000000000 >"
11
b0 (
b0 0"
b1000000000000000000000000000000011100 j
b10000 V
b0 d
b0 *"
b1000110000001000000000000000010000000000000000000000000000000000 H"
b0 _
0a
0b
b11000 p
b11000 \
b11000 q
b1100000000000000000000000000000000000 y
b100000000000000000000000000010100000000000000000000000000000000000000000000000000000000000000000000000000000000000000000000000000000000000000000000000000000000000000000000 /"
b100000000000000000000000000000000000001000000000000000000000000000000000000000000000000000000000000000000000 @"
b100011000000100000000000000001000000000000000000000000000000000000000 G"
1!
1$
#150
0!
0$
#155
b0 m
b0 Z
b0 n
b100 2"
b100 #
b100 5"
b100000 k
b100000 l
b100000 [
b10100 V
1Q
b11000 5
b11000 7
b110000000000000000000000000000000000001000000000000000000000000000000000000000000000000000000000000000000000 >"
01
b10 (
b10 0"
b100000000000000000000000000000011100000000000000000000000000000000000000000000000000000000000000000000000000000000000000000000000000000000000000000000000000000000000000000000 -"
b11100 G
b111 r
b1010000000000000000000000000000100000 j
b10000000000000000000000000000000000000 w
b100000 K
b1000000000000000000000000000101000000000000000000000000000000000001000000000000000000000000000000000000000000000000000000000000000000000 @"
b100000000000000000000000000000011000000000000000000000000000000000000000000000000000000000000000000000000000000000000000000000000000000000000000000000000000000000000000000000 /"
b1110000000000000000000000000000000000 y
b11100 p
b11100 \
b11100 q
1!
1$
#160
0!
0$
#165
b10001100000010000000000000000000 v
b10001100000010000000000000000000 J
b100 k
b100 l
b100 [
b100 m
b100 Z
b100 n
b0 r
b10010001100000010000000000000000000 w
b100 K
b100000000000000000000000000000100000000000000000000000000000000000000000000000000000000000000000000000000000000000000000000000000000000000000000000000000000000000000000000000 -"
b100000 G
b111000000000000000000000000000000000001000000000000000000000000000000000000000000000000000000000000000000000 >"
b11100 5
b11100 7
b1100000000000000000000000000000000100 j
b11000 V
0Q
b0 p
b0 \
b0 q
b10000000000000000000000000000000000000 y
b100000000000000000000000000000011100000000000000000000000000000000000000000000000000000000000000000000000000000000000000000000000000000000000000000000000000000000000000000000 /"
b110000000000000000000000000000000000001000000000000000000000000000000000000000000000000000000000000000000000 @"
1!
1$
#170
0!
0$
#175
b1000 m
b1000 Z
b1000 n
1}
1<
b0 |
b0 ;
1""
1C
1#"
1D
1&"
1I
b10001100000010000000000000000100 ,"
b10001100000010000000000000000100 >
b10001100000010000000000000000100 v
b10001100000010000000000000000100 J
b1000 k
b1000 l
b1000 [
b1000000000000000000000 F
b100011 {
b1000 ("
b11100 V
b1000000000000000000000000000000000000001000000000000000000000000000000000000000000000000000000000000000000000 >"
b100000 5
b100000 7
b10001100000010000000000000000000 @
b111000001000000000000000000000000000000100000000000000000000000000000000001000110000001000000000000000010000000000000000000000000000000000000000000010000000000000000000000100000000 -"
b100 G
b1 r
b1110000000000000000000000000000001000 j
b100010001100000010000000000000000100 w
b1000 K
b111000000000000000000000000000000000001000000000000000000000000000000000000000000000000000000000000000000000 @"
b100000000000000000000000000000100000000000000000000000000000000000000000000000000000000000000000000000000000000000000000000000000000000000000000000000000000000000000000000000 /"
b10010001100000010000000000000000000 y
b100 p
b100 \
b100 q
1!
1$
#180
0!
0$
#185
b1100 m
b1100 Z
b1100 n
b0 v
b0 J
b1000 ="
b1000 :
b10 2"
b10 #
b10 5"
b1100 k
b1100 [
b100 ?
b1000000000000000010000 F
b100 z
b10 r
b110000000000000000000000000000000000 w
b1100 K
b10001100000010000000000000000100 @
b111000001000000000000000000000000000001000000000000000000000000000000000001000110000001000000000000000010000000000000000000000000000000100000000000010000000000000000100000100000000 -"
b1000 G
b1000 <"
b1000 '
b100000000000000000000000000000000000000000000000001100 l
b1000000000000000000000 6
b10001100000010000000000000000100 3"
b10001100000010000000000000000100 .
b100 5
b100 7
1+
b0 (
b0 0"
12
13
b111000000000000000000000000000000001000000000000100000000000000000000001000000000000000000000000000000001000110000001000000000000000010001000 >"
19
b10000000000000000000000000000000001100 j
b100000 V
b1000 p
b1000 \
b1000 q
b100010001100000010000000000000000100 y
b111000001000000000000000000000000000000100000000000000000000000000000000001000110000001000000000000000010000000000000000000000000000000000000000000010000000000000000000000100000000 /"
b1000000000000000000000000000000000000001000000000000000000000000000000000000000000000000000000000000000000000 @"
1!
1$
#190
0!
0$
#195
0;"
0,
b100 9"
b100 *
b10000 m
b10000 Z
b10000 n
0}
0<
b10 |
b10 ;
0""
0C
0#"
0D
0&"
0I
b0 ,"
b0 >
b10001100000010000000000000000000 D"
b10001100000010000000000000000000 R
b100 4"
b100 %
b100 8"
b10000 k
b10000 [
b100 1"
b0 ?
b0 F
b0 {
b0 z
b0 ("
b1000 Y
b10001100000010000000000000000100 O
b10001100000010000000000000000100 C"
b1000000000000000000000 W
b100 V
1S
1T
b11100011000000100000000000000000000000000000000000000000000000000001000 E"
1X
b100000000000000001000000000000000000000000000000010000 l
b1000000000000000010000 6
b10010001100000010000000000000000100 3"
b100 /
b111000000000000000000000000000000110000000000000100000000000000001000000000000000000000000000000000001001000110000001000000000000000010001000 >"
b11000 5
b1000 7
b0 @
b100000000000000000000000000000001100000000000000000000000000000000000000000000000000000000000000000000000000000000000000000000000000000000000000000000000000000000000000000000 -"
b1100 G
b11 r
b10000000000000000000000000000010000 j
b1000000000000000000000000000000000000 w
b10000 K
b111000000000000000000000000000000001000000000000100000000000000000000001000000000000000000000000000000001000110000001000000000000000010001000 @"
b111000001000000000000000000000000000001000000000000000000000000000000000001000110000001000000000000000010000000000000000000000000000000100000000000010000000000000000100000100000000 /"
b110000000000000000000000000000000000 y
b1100 p
b1100 \
b1100 q
1!
1$
#200
0!
0$
