traces/verbose_adds.vcd
$date
	Fri Nov 13 22:03:30 2015
$end
$version
	Icarus Verilog
$end
$timescale
	1s
$end
$scope module cpu_tb $end
$var reg 1 ! clk $end
$var reg 1 " reset $end
$scope module cpu $end
$var wire 4 # aluop [3:0] $end
$var wire 1 $ clk $end
$var wire 32 % data_t [31:0] $end
$var wire 5 & dst_rd [4:0] $end
$var wire 5 ' dst_rt [4:0] $end
$var wire 2 ( ex_aluop [1:0] $end
$var wire 1 ) ex_aluovf $end
$var wire 32 * ex_alures [31:0] $end
$var wire 1 + ex_alusrc $end
$var wire 1 , ex_aluz $end
$var wire 32 - ex_data_rs [31:0] $end
$var wire 32 . ex_data_rt [31:0] $end
$var wire 32 / ex_imm [31:0] $end
$var wire 1 0 ex_isbranch $end
$var wire 1 1 ex_isjump $end
$var wire 1 2 ex_memread $end
$var wire 1 3 ex_memtoreg $end
$var wire 1 4 ex_memwrite $end
$var wire 32 5 ex_pc_branch [31:0] $end
$var wire 32 6 ex_pc_jump [31:0] $end
$var wire 32 7 ex_pc_next [31:0] $end
$var wire 1 8 ex_regdst $end
$var wire 1 9 ex_regwrite $end
$var wire 5 : ex_wreg [4:0] $end
$var wire 2 ; id_aluop [1:0] $end
$var wire 1 < id_alusrc $end
$var wire 32 = id_data_rs [31:0] $end
$var wire 32 > id_data_rt [31:0] $end
$var wire 32 ? id_imm [31:0] $end
$var wire 32 @ id_instr [31:0] $end
$var wire 1 A id_isbranch $end
$var wire 1 B id_isjump $end
$var wire 1 C id_memread $end
$var wire 1 D id_memtoreg $end
$var wire 1 E id_memwrite $end
$var wire 32 F id_pc_jump [31:0] $end
$var wire 32 G id_pc_next [31:0] $end
$var wire 1 H id_regdst $end
$var wire 1 I id_regwrite $end
$var wire 32 J if_instr [31:0] $end
$var wire 32 K if_pc_next [31:0] $end
$var wire 1 L mem_aluovf $end
$var wire 32 M mem_alures [31:0] $end
$var wire 1 N mem_aluz $end
$var wire 32 O mem_data_rt [31:0] $end
$var wire 1 P mem_isbranch $end
$var wire 32 Q mem_memout [31:0] $end
$var wire 1 R mem_memread $end
$var wire 1 S mem_memtoreg $end
$var wire 1 T mem_memwrite $end
$var wire 32 U mem_pc_branch [31:0] $end
$var wire 1 V mem_regwrite $end
$var wire 5 W mem_wreg [4:0] $end
$var wire 32 X pc_in [31:0] $end
$var wire 32 Y pc_interm [31:0] $end
$var wire 32 Z pc_out [31:0] $end
$var wire 1 [ pc_take_branch $end
$var wire 1 \ reset $end
$var wire 32 ] wb_alures [31:0] $end
$var wire 32 ^ wb_memout [31:0] $end
$var wire 1 _ wb_memtoreg $end
$var wire 1 ` wb_regwrite $end
$var wire 32 a wb_wdata [31:0] $end
$var wire 5 b wb_wreg [4:0] $end
$var reg 1 c ex_mem_we $end
$var reg 1 d id_ex_we $end
$var reg 1 e if_id_we $end
$var reg 1 f mem_wb_we $end
$var reg 1 g pc_we $end
$scope module pc_jmux $end
$var wire 64 h in_data [63:0] $end
$var wire 1 1 select $end
$var reg 32 i out_data [31:0] $end
$upscope $end
$scope module pc_bmux $end
$var wire 64 j in_data [63:0] $end
$var wire 1 [ select $end
$var reg 32 k out_data [31:0] $end
$upscope $end
$scope module pc $end
$var wire 1 $ clk $end
$var wire 32 l in [31:0] $end
$var wire 1 \ reset $end
$var wire 1 m we $end
$var reg 32 n out [31:0] $end
$upscope $end
$scope module imem $end
$var wire 32 o addr [31:0] $end
$var wire 1 $ clk $end
$var wire 256 p dbg_mem [255:0] $end
$var wire 3 q index [2:0] $end
$var wire 1 r memread $end
$var wire 1 s memwrite $end
$var wire 1 \ reset $end
$var wire 32 t wdata [31:0] $end
$var reg 32 u rdata [31:0] $end
$scope begin genblk1 $end
$upscope $end
$scope begin genblk01 $end
$upscope $end
$scope begin genblk001 $end
$upscope $end
$scope begin genblk0001 $end
$upscope $end
$scope begin genblk00001 $end
$upscope $end
$scope begin genblk000001 $end
$upscope $end
$scope begin genblk0000001 $end
$upscope $end
$scope begin genblk00000001 $end
$upscope $end
$upscope $end
$scope module if_id $end
$var wire 1 $ clk $end
$var wire 64 v in [63:0] $end
$var wire 1 w reset $end
$var wire 1 x we $end
$var reg 64 y out [63:0] $end
$upscope $end
$scope module control $end
$var wire 6 z funct [5:0] $end
$var wire 6 { opcode [5:0] $end
$var reg 2 | aluop [1:0] $end
$var reg 1 } alusrc $end
$var reg 1 ~ isbranch $end
$var reg 1 !" isjump $end
$var reg 1 "" memread $end
$var reg 1 #" memtoreg $end
$var reg 1 $" memwrite $end
$var reg 1 %" regdst $end
$var reg 1 &" regwrite $end
$upscope $end
$scope module regfile $end
$var wire 1 $ clk $end
$var wire 1024 '" dbg_mem [1023:0] $end
$var wire 1 ` regwrite $end
$var wire 1 \ reset $end
$var wire 5 (" rreg1 [4:0] $end
$var wire 5 )" rreg2 [4:0] $end
$var wire 33 *" wdata [32:0] $end
$var wire 5 +" wreg [4:0] $end
$var integer 32 ," i [31:0] $end
$var reg 32 -" rdata1 [31:0] $end
$var reg 32 ." rdata2 [31:0] $end
$scope begin genblk1 $end
$upscope $end
$scope begin genblk01 $end
$upscope $end
$scope begin genblk001 $end
$upscope $end
$scope begin genblk0001 $end
$upscope $end
$scope begin genblk00001 $end
$upscope $end
$scope begin genblk000001 $end
$upscope $end
$scope begin genblk0000001 $end
$upscope $end
$scope begin genblk00000001 $end
$upscope $end
$scope begin genblk000000001 $end
$upscope $end
$scope begin genblk0000000001 $end
$upscope $end
$scope begin genblk00000000001 $end
$upscope $end
$scope begin genblk000000000001 $end
$upscope $end
$scope begin genblk0000000000001 $end
$upscope $end
$scope begin genblk00000000000001 $end
$upscope $end
$scope begin genblk000000000000001 $end
$upscope $end
$scope begin genblk0000000000000001 $end
$upscope $end
$scope begin genblk00000000000000001 $end
$upscope $end
$scope begin genblk000000000000000001 $end
$upscope $end
$scope begin genblk0000000000000000001 $end
$upscope $end
$scope begin genblk00000000000000000001 $end
$upscope $end
$scope begin genblk000000000000000000001 $end
$upscope $end
$scope begin genblk0000000000000000000001 $end
$upscope $end
$scope begin genblk00000000000000000000001 $end
$upscope $end
$scope begin genblk000000000000000000000001 $end
$upscope $end
$scope begin genblk0000000000000000000000001 $end
$upscope $end
$scope begin $gen1[25] $end
$upscope $end
$scope begin $gen1[26] $end
$upscope $end
$scope begin $gen1[27] $end
$upscope $end
$scope begin $gen1[28] $end
$upscope $end
$scope begin $gen1[29] $end
$upscope $end
$scope begin $gen1[30] $end
$upscope $end
$scope begin $gen1[31] $end
$upscope $end
$upscope $end
$scope module id_ex $end
$var wire 1 $ clk $end
$var wire 180 /" in [179:0] $end
$var wire 1 0" reset $end
$var wire 1 1" we $end
$var reg 180 2" out [179:0] $end
$upscope $end
$scope module alucontrol $end
$var wire 2 3" aluop_in [1:0] $end
$var wire 6 4" funct [5:0] $end
$var reg 4 5" aluop_out [3:0] $end
$upscope $end
$scope module t_mux $end
$var wire 64 6" in_data [63:0] $end
$var wire 1 + select $end
$var reg 32 7" out_data [31:0] $end
$upscope $end
$scope module alu $end
$var wire 4 8" aluop [3:0] $end
$var wire 32 9" s [31:0] $end
$var wire 5 :" shamt [4:0] $end
$var wire 32 ;" t [31:0] $end
$var reg 32 <" out [31:0] $end
$var reg 1 =" overflow $end
$var reg 1 >" zero $end
$upscope $end
$scope module dst_mux $end
$var wire 10 ?" in_data [9:0] $end
$var wire 1 8 select $end
$var reg 5 @" out_data [4:0] $end
$upscope $end
$scope module ex_mem $end
$var wire 1 $ clk $end
$var wire 108 A" in [107:0] $end
$var wire 1 B" reset $end
$var wire 1 C" we $end
$var reg 108 D" out [107:0] $end
$upscope $end
$scope module dmem $end
$var wire 32 E" addr [31:0] $end
$var wire 1 $ clk $end
$var wire 256 F" dbg_mem [255:0] $end
$var wire 3 G" index [2:0] $end
$var wire 1 R memread $end
$var wire 1 T memwrite $end
$var wire 1 \ reset $end
$var wire 32 H" wdata [31:0] $end
$var reg 32 I" rdata [31:0] $end
$scope begin genblk1 $end
$upscope $end
$scope begin genblk01 $end
$upscope $end
$scope begin genblk001 $end
$upscope $end
$scope begin genblk0001 $end
$upscope $end
$scope begin genblk00001 $end
$upscope $end
$scope begin genblk000001 $end
$upscope $end
$scope begin genblk0000001 $end
$upscope $end
$scope begin genblk00000001 $end
$upscope $end
$upscope $end
$scope module mem_wb $end
$var wire 1 $ clk $end
$var wire 71 J" in [70:0] $end
$var wire 1 \ reset $end
$var wire 1 K" we $end
$var reg 71 L" out [70:0] $end
$upscope $end
$scope module wb_mux $end
$var wire 64 M" in_data [63:0] $end
$var wire 1 _ select $end
$var reg 32 N" out_data [31:0] $end
$upscope $end
$upscope $end
$upscope $end
$enddefinitions $end
#0
$dumpvars
b0 N"
b0 M"
b0 L"
1K"
b0 J"
b0 I"
b0 H"
b0 G"
bz F"
b0 E"
b0 D"
1C"
1B"
b1000000000000000000000000000000000000000000000000000000000000000000000 A"
b0 @"
b0 ?"
1>"
0="
b0 <"
b0 ;"
b0 :"
b0 9"
b10 8"
b0 7"
b0 6"
b10 5"
b0 4"
b0 3"
b0 2"
11"
10"
b100001100000000000000000000000000000000000000000000000000000000000000000000000000000000000000000000000000000000000000000000000000000000000000000000000000000000000000000000000000000 /"
b0 ."
b0 -"
bx ,"
b0 +"
b0 *"
b0 )"
b0 ("
bz '"
1&"
1%"
0$"
0#"
0""
0!"
0~
0}
b10 |
b0 {
b0 z
b0 y
1x
1w
b100xxxxxxxxxxxxxxxxxxxxxxxxxxxxxxxx v
bx u
b0 t
0s
1r
b0 q
bz p
b0 o
b0 n
1m
b100 l
b100 k
b100 j
b100 i
b100 h
1g
1f
1e
1d
1c
b0 b
b0 a
0`
0_
b0 ^
b0 ]
1\
0[
b0 Z
b100 Y
b100 X
b0 W
0V
b0 U
0T
0S
0R
b0 Q
0P
b0 O
0N
b0 M
0L
b100 K
bx J
1I
1H
b0 G
b0 F
0E
0D
0C
0B
0A
b0 @
b0 ?
b0 >
b0 =
0<
b10 ;
b0 :
09
08
b0 7
b0 6
b0 5
04
03
02
01
00
b0 /
b0 .
b0 -
1,
0+
b0 *
0)
b0 (
b0 '
b0 &
b0 %
0$
b10 #
1"
0!
$end
#5
b0 '"
b10000000001001000000000000000100000000000000000000000000000000000000000000000000000000000000000000000000000000000000000000000000000001001000000101000000100000000000000000000000000000000000000000000000000000000000000000000000000000000000000000000000000000 p
b100000 ,"
b10000000001001000000000000000100000000000000000000000000000000000000000000000000000000000000000000000000000000000000000000000000000001001000000101000000100000000000000000000000000000000000000000000000000000000000000000000000000000000000000000000000000000 F"
1!
1$
#10
0!
0$
#15
b100000000010010000000000000001 u
b10000100000000010010000000000000001 v
b100000000010010000000000000001 J
0w
00"
0B"
0"
0\
b100000 ,"
1!
1$
#20
0!
0$
#25
b1000 k
b1000 X
b1000 l
1}
1<
b0 |
b0 ;
0%"
0H
b0 u
b0 J
b1000 i
b1000 j
b1000 Y
b100 5"
b100 #
b100 8"
b1 ?
b1001000000000000000100 F
b1000 {
b1 z
b1001 )"
b1 q
b1000 h
b100000000000000000000000000000000000 v
b1000 K
b100000000010010000000000000001 @
b100000001000000000000000000000000000000100000000000000000000000000000000000000000000000000000000000000000000000000000000000000000000000001000000000010010000000000000001000100100000 /"
b100 G
b10 (
b10 3"
18
b100000000000000000000000000000000000001000000000000000000000000000000000000000000000000000000000000000000000 A"
19
1N
b100 n
b100 Z
b100 o
b10000100000000010010000000000000001 y
b100001100000000000000000000000000000000000000000000000000000000000000000000000000000000000000000000000000000000000000000000000000000000000000000000000000000000000000000000000000000 2"
b1000000000000000000000000000000000000000000000000000000000000000000000 D"
1!
1$
#30
0!
0$
#35
0>"
0,
b1 <"
b1 *
b1100 k
b1100 X
b1100 l
0}
0<
b10 |
b10 ;
1%"
1H
b1 7"
b1 %
b1 ;"
b10 5"
b10 #
b10 8"
b1001 @"
b1001 :
b1100 i
b1100 j
b1100 Y
b1 4"
b0 ?
b0 F
b0 {
b0 z
b0 )"
b10000000000000000000000000000000000000000000000000000000000000000000000 J"
1V
b1001 ?"
b1001 '
b1001000000000000000100 6
b100000000000000000000000000000000 6"
b1 /
b100000000000000000000000000000000100000000000000000000000000000000000010000000000000000000000000000000001001 A"
b1000 5
b100 7
1+
b0 (
b0 3"
08
b0 @
b100001100000000000000000000000000000001000000000000000000000000000000000000000000000000000000000000000000000000000000000000000000000000000000000000000000000000000000000000000000000 /"
b1000 G
b10 q
b100100000000000000010000000000000000000000000000001100 h
b110000000000000000000000000000000000 v
b1100 K
b100000000000000000000000000000000000001000000000000000000000000000000000000000000000000000000000000000000000 D"
b100000001000000000000000000000000000000100000000000000000000000000000000000000000000000000000000000000000000000000000000000000000000000001000000000010010000000000000001000100100000 2"
b100000000000000000000000000000000000 y
b1000 n
b1000 Z
b1000 o
1!
1$
#40
0!
0$
#45
1>"
1,
b10000 k
b10000 X
b10000 l
b0 <"
b0 *
b100 5"
b100 #
b100 8"
b10000 i
b10000 Y
b0 7"
b0 %
b0 ;"
b0 @"
b0 :
b0 4"
b11 q
b1000000000000000000000000000000000000 v
b10000 K
b100001100000000000000000000000000000001100000000000000000000000000000000000000000000000000000000000000000000000000000000000000000000000000000000000000000000000000000000000000000000 /"
b1100 G
b0 ?"
b0 '
b10000 h
b0 6
b0 6"
b0 /
b100000000000000000000000000000000100001000000000000000000000000000000000000000000000000000000000000000000000 A"
b1000 5
b1000 7
0+
b10 (
b10 3"
18
b1001 W
b10000000000000000000000000000000000000000000000000000000000000000101001 J"
b1 M
b1 E"
0N
b100000000000000000000000000000010000 j
b1000 U
1`
b1100 n
b1100 Z
b1100 o
b110000000000000000000000000000000000 y
b100001100000000000000000000000000000001000000000000000000000000000000000000000000000000000000000000000000000000000000000000000000000000000000000000000000000000000000000000000000000 2"
b100000000000000000000000000000000100000000000000000000000000000000000010000000000000000000000000000000001001 D"
b10000000000000000000000000000000000000000000000000000000000000000000000 L"
1!
1$
#50
0!
0$
#55
b10100 k
b10100 X
b10100 l
b1 N"
b1 *"
b1 a
b1001000000101000000100000 u
b1001000000101000000100000 J
b10100 i
b100000000000000000000000000000010100 j
b10100 Y
b1001 b
b1001 +"
b1 M"
b1 ]
b0 W
b10000000000000000000000000000000000000000000000000000000000000000000000 J"
b0 M
b0 E"
1N
b100000000000000000000000000000000110001000000000000000000000000000000000000000000000000000000000000000000000 A"
b1100 5
b1100 7
b100001100000000000000000000000000000010000000000000000000000000000000000000000000000000000000000000000000000000000000000000000000000000000000000000000000000000000000000000000000000 /"
b10000 G
b100 q
b10100 h
b1010000000001001000000101000000100000 v
b10100 K
b10000000000000000000000000000000000000000000000000000000000000000101001 L"
b100000000000000000000000000000000100001000000000000000000000000000000000000000000000000000000000000000000000 D"
b100001100000000000000000000000000000001100000000000000000000000000000000000000000000000000000000000000000000000000000000000000000000000000000000000000000000000000000000000000000000 2"
b1000000000000000000000000000000000000 y
b10000 n
b10000 Z
b10000 o
1!
1$
#60
0!
0$
#65
b11000 k
b11000 X
b11000 l
b1 -"
b1 =
b0 u
b0 J
b11000 i
b11000 Y
b0 N"
b0 *"
b0 a
b101000000100000 ?
b100100000010100000010000000 F
b100000 z
b1001 ("
b101 q
b11000 h
b1100000000000000000000000000000000000 v
b11000 K
b1001000000101000000100000 @
b100001100000000000000000000000000000010100000000000000000000000000000000010000000000000000000000000000000000000000000000000101000000100000000001001000000101000000100000000000001010 /"
b10100 G
b100000000000000000000000000000001000001000000000000000000000000000000000000000000000000000000000000000000000 A"
b10000 5
b10000 7
b110000000000000000000000000000011000 j
b1100 U
b0 b
b0 +"
b0 M"
b0 ]
b10100 n
b10100 Z
b10100 o
b1010000000001001000000101000000100000 y
b100000000000000000000000000000000000000000000000000000000000000000000000000000000000000000000000000000000000000000000000000000000000000000000000000000000000000000000000000000000000000000000000000000000000000000000000000000000000000000000000000000000000000000000000000000000000000000000000000000000000000000000000000000000000000000000000000000000000000000000000000000000000000000000000000000000000000000000000000000000000000000000000000000000000000000000000000000000000000000000000000000000000000000000000000000000000000000000000000000000000000000000000000000000000000000000000000000000000000000000000000000000000000000000000000000000000000000000000000000000000000000000000000000000000000000000000000000000 '"
b100001100000000000000000000000000000010000000000000000000000000000000000000000000000000000000000000000000000000000000000000000000000000000000000000000000000000000000000000000000000 2"
b100000000000000000000000000000000110001000000000000000000000000000000000000000000000000000000000000000000000 D"
b10000000000000000000000000000000000000000000000000000000000000000000000 L"
1!
1$
#70
0!
0$
#75
0>"
0,
b1 <"
b1 *
b11100 k
b11100 X
b11100 l
b10 5"
b10 #
b10 8"
b0 -"
b0 =
b1010 @"
b1010 :
b11100 i
b11100 Y
b100000 4"
b0 ?
b0 F
b0 z
b0 ("
b1000000000000000000000000000000011100 j
b10000 U
b101000000 ?"
b1010 &
b100100000010100000010000000 6
b10100000010000000000000000000000000000000000000 6"
b101000000100000 /
b1 -
b1 9"
b100000000000000000001010000001001010000000000000000000000000000000000010000000000000000000000000000000001010 A"
b10100000010010100 5
b10100 7
b0 @
b100001100000000000000000000000000000011000000000000000000000000000000000000000000000000000000000000000000000000000000000000000000000000000000000000000000000000000000000000000000000 /"
b11000 G
b110 q
b10010000001010000001000000000000000000000000000000000011100 h
b1110000000000000000000000000000000000 v
b11100 K
b100000000000000000000000000000001000001000000000000000000000000000000000000000000000000000000000000000000000 D"
b100001100000000000000000000000000000010100000000000000000000000000000000010000000000000000000000000000000000000000000000000101000000100000000001001000000101000000100000000000001010 2"
b1100000000000000000000000000000000000 y
b11000 n
b11000 Z
b11000 o
1!
1$
#80
0!
0$
#85
b100000 k
b100000 X
b100000 l
1>"
1,
b100 5"
b100 #
b100 8"
b0 @"
b0 :
b100000 i
b100000 Y
b0 <"
b0 *
b0 4"
b111 q
b10000000000000000000000000000000000000 v
b100000 K
b100001100000000000000000000000000000011100000000000000000000000000000000000000000000000000000000000000000000000000000000000000000000000000000000000000000000000000000000000000000000 /"
b11100 G
b0 ?"
b0 &
b100000 h
b0 6
b0 6"
b0 /
b0 -
b0 9"
b100000000000000000000000000000001100001000000000000000000000000000000000000000000000000000000000000000000000 A"
b11000 5
b11000 7
b1010 W
b10000000000000000000000000000000000000000000000000000000000000000101010 J"
b1 M
b1 E"
0N
b1010000001001010000000000000000000000000000100000 j
b10100000010010100 U
b11100 n
b11100 Z
b11100 o
b1110000000000000000000000000000000000 y
b100001100000000000000000000000000000011000000000000000000000000000000000000000000000000000000000000000000000000000000000000000000000000000000000000000000000000000000000000000000000 2"
b100000000000000000001010000001001010000000000000000000000000000000000010000000000000000000000000000000001010 D"
1!
1$
#90
0!
0$
#95
b100100 k
b100100 X
b100100 l
b1 N"
b1 *"
b1 a
b100000000010010000000000000001 u
b100000000010010000000000000001 J
b100100 i
b100100 Y
b1010 b
b1010 +"
b1 M"
b1 ]
b0 W
b10000000000000000000000000000000000000000000000000000000000000000000000 J"
b0 M
b0 E"
1N
b1100000000000000000000000000000100100 j
b11000 U
b100000000000000000000000000000001110001000000000000000000000000000000000000000000000000000000000000000000000 A"
b11100 5
b11100 7
b100001100000000000000000000000000000100000000000000000000000000000000000000000000000000000000000000000000000000000000000000000000000000000000000000000000000000000000000000000000000 /"
b100000 G
b0 q
b100100 h
b10010000100000000010010000000000000001 v
b100100 K
b10000000000000000000000000000000000000000000000000000000000000000101010 L"
b100000000000000000000000000000001100001000000000000000000000000000000000000000000000000000000000000000000000 D"
b100001100000000000000000000000000000011100000000000000000000000000000000000000000000000000000000000000000000000000000000000000000000000000000000000000000000000000000000000000000000 2"
b10000000000000000000000000000000000000 y
b100000 n
b100000 Z
b100000 o
1!
1$
#100
0!
0$
#105
b101000 k
b101000 X
b101000 l
1}
1<
b0 |
b0 ;
0%"
0H
b1 ."
b1 >
b0 u
b0 J
b101000 i
b101000 Y
b0 N"
b0 *"
b0 a
b1 ?
b1001000000000000000100 F
b1000 {
b1 z
b1001 )"
b1 q
b101000 h
b10100000000000000000000000000000000000 v
b101000 K
b100000000010010000000000000001 @
b100000001000000000000000000000000000100100000000000000000000000000000000000000000000000000000000000000000100000000000000000000000000000001000000000010010000000000000001000100100000 /"
b100100 G
b100000000000000000000000000000010000001000000000000000000000000000000000000000000000000000000000000000000000 A"
b100000 5
b100000 7
b1110000000000000000000000000000101000 j
b11100 U
b0 b
b0 +"
b0 M"
b0 ]
b100100 n
b100100 Z
b100100 o
b10010000100000000010010000000000000001 y
b100000000000000000000000000000001000000000000000000000000000000000000000000000000000000000000000000000000000000000000000000000000000000000000000000000000000000000000000000000000000000000000000000000000000000000000000000000000000000000000000000000000000000000000000000000000000000000000000000000000000000000000000000000000000000000000000000000000000000000000000000000000000000000000000000000000000000000000000000000000000000000000000000000000000000000000000000000000000000000000000000000000000000000000000000000000000000000000000000000000000000000000000000000000000000000000000000000000000000000000000000000000000000000000000000000000000000000000000000000000000000000000000000000000000000000000000000000000 '"
b100001100000000000000000000000000000100000000000000000000000000000000000000000000000000000000000000000000000000000000000000000000000000000000000000000000000000000000000000000000000 2"
b100000000000000000000000000000001110001000000000000000000000000000000000000000000000000000000000000000000000 D"
b10000000000000000000000000000000000000000000000000000000000000000000000 L"
1!
1$
#110
0!
0$
#115
0>"
0,
b1 <"
b1 *
b101100 k
b101100 X
b101100 l
0}
0<
b10 |
b10 ;
1%"
1H
b0 ."
b0 >
b1 7"
b1 %
b1 ;"
b10 5"
b10 #
b10 8"
b1001 @"
b1001 :
b101100 i
b101100 Y
b1 4"
b0 ?
b0 F
b0 {
b0 z
b0 )"
b10000000000000000000000000000000101100 j
b100000 U
b1001 ?"
b1001 '
b1001000000000000000100 6
b1 /
b100000000000000000000000000000001 6"
b1 .
b100000000000000000000000000000010100000000000000000000000000000000000010000000000000000000000000000000101001 A"
b101000 5
b100100 7
1+
b0 (
b0 3"
08
b0 @
b100001100000000000000000000000000000101000000000000000000000000000000000000000000000000000000000000000000000000000000000000000000000000000000000000000000000000000000000000000000000 /"
b101000 G
b10 q
b100100000000000000010000000000000000000000000000101100 h
b10110000000000000000000000000000000000 v
b101100 K
b100000000000000000000000000000010000001000000000000000000000000000000000000000000000000000000000000000000000 D"
b100000001000000000000000000000000000100100000000000000000000000000000000000000000000000000000000000000000100000000000000000000000000000001000000000010010000000000000001000100100000 2"
b10100000000000000000000000000000000000 y
b101000 n
b101000 Z
b101000 o
1!
1$
#120
0!
0$
#125
1>"
1,
b110000 k
b110000 X
b110000 l
b0 <"
b0 *
b100 5"
b100 #
b100 8"
b110000 i
b110000 Y
b0 7"
b0 %
b0 ;"
b0 @"
b0 :
b0 4"
b11 q
b11000000000000000000000000000000000000 v
b110000 K
b100001100000000000000000000000000000101100000000000000000000000000000000000000000000000000000000000000000000000000000000000000000000000000000000000000000000000000000000000000000000 /"
b101100 G
b0 ?"
b0 '
b110000 h
b0 6
b0 /
b0 6"
b0 .
b100000000000000000000000000000010100001000000000000000000000000000000000000000000000000000000000000000000000 A"
b101000 5
b101000 7
0+
b10 (
b10 3"
18
b1001 W
b1 O
b1 H"
b10000000000000000000000000000000000000000000000000000000000000000101001 J"
b1 M
b1 E"
0N
b10100000000000000000000000000000110000 j
b101000 U
b101100 n
b101100 Z
b101100 o
b10110000000000000000000000000000000000 y
b100001100000000000000000000000000000101000000000000000000000000000000000000000000000000000000000000000000000000000000000000000000000000000000000000000000000000000000000000000000000 2"
b100000000000000000000000000000010100000000000000000000000000000000000010000000000000000000000000000000101001 D"
1!
1$
#130
0!
0$
#135
b110100 k
b110100 X
b110100 l
b1 N"
b1 *"
b1 a
b1001000000101000000100000 u
b1001000000101000000100000 J
b110100 i
b10100000000000000000000000000000110100 j
b110100 Y
b1001 b
b1001 +"
b1 M"
b1 ]
b0 W
b0 O
b0 H"
b10000000000000000000000000000000000000000000000000000000000000000000000 J"
b0 M
b0 E"
1N
b100000000000000000000000000000010110001000000000000000000000000000000000000000000000000000000000000000000000 A"
b101100 5
b101100 7
b100001100000000000000000000000000000110000000000000000000000000000000000000000000000000000000000000000000000000000000000000000000000000000000000000000000000000000000000000000000000 /"
b110000 G
b100 q
b110100 h
b11010000000001001000000101000000100000 v
b110100 K
b10000000000000000000000000000000000000000000000000000000000000000101001 L"
b100000000000000000000000000000010100001000000000000000000000000000000000000000000000000000000000000000000000 D"
b100001100000000000000000000000000000101100000000000000000000000000000000000000000000000000000000000000000000000000000000000000000000000000000000000000000000000000000000000000000000 2"
b11000000000000000000000000000000000000 y
b110000 n
b110000 Z
b110000 o
1!
1$
#140
0!
0$
#145
b111000 k
b111000 X
b111000 l
b1 -"
b1 =
b0 u
b0 J
b111000 i
b111000 Y
b0 N"
b0 *"
b0 a
b101000000100000 ?
b100100000010100000010000000 F
b100000 z
b1001 ("
b101 q
b111000 h
b11100000000000000000000000000000000000 v
b111000 K
b1001000000101000000100000 @
b100001100000000000000000000000000000110100000000000000000000000000000000010000000000000000000000000000000000000000000000000101000000100000000001001000000101000000100000000000001010 /"
b110100 G
b100000000000000000000000000000011000001000000000000000000000000000000000000000000000000000000000000000000000 A"
b110000 5
b110000 7
b10110000000000000000000000000000111000 j
b101100 U
b0 b
b0 +"
b0 M"
b0 ]
b110100 n
b110100 Z
b110100 o
b11010000000001001000000101000000100000 y
b100001100000000000000000000000000000110000000000000000000000000000000000000000000000000000000000000000000000000000000000000000000000000000000000000000000000000000000000000000000000 2"
b100000000000000000000000000000010110001000000000000000000000000000000000000000000000000000000000000000000000 D"
b10000000000000000000000000000000000000000000000000000000000000000000000 L"
1!
1$
#150
0!
0$
#155
0>"
0,
b1 <"
b1 *
b111100 k
b111100 X
b111100 l
b10 5"
b10 #
b10 8"
b0 -"
b0 =
b1010 @"
b1010 :
b111100 i
b111100 Y
b100000 4"
b0 ?
b0 F
b0 z
b0 ("
b11000000000000000000000000000000111100 j
b110000 U
b101000000 ?"
b1010 &
b100100000010100000010000000 6
b10100000010000000000000000000000000000000000000 6"
b101000000100000 /
b1 -
b1 9"
b100000000000000000001010000001011010000000000000000000000000000000000010000000000000000000000000000000001010 A"
b10100000010110100 5
b110100 7
b0 @
b100001100000000000000000000000000000111000000000000000000000000000000000000000000000000000000000000000000000000000000000000000000000000000000000000000000000000000000000000000000000 /"
b111000 G
b110 q
b10010000001010000001000000000000000000000000000000000111100 h
b11110000000000000000000000000000000000 v
b111100 K
b100000000000000000000000000000011000001000000000000000000000000000000000000000000000000000000000000000000000 D"
b100001100000000000000000000000000000110100000000000000000000000000000000010000000000000000000000000000000000000000000000000101000000100000000001001000000101000000100000000000001010 2"
b11100000000000000000000000000000000000 y
b111000 n
b111000 Z
b111000 o
1!
1$
#160
0!
0$
#165
b1000000 k
b1000000 X
b1000000 l
1>"
1,
b100 5"
b100 #
b100 8"
b0 @"
b0 :
b1000000 i
b1000000 Y
b0 <"
b0 *
b0 4"
b111 q
b100000000000000000000000000000000000000 v
b1000000 K
b100001100000000000000000000000000000111100000000000000000000000000000000000000000000000000000000000000000000000000000000000000000000000000000000000000000000000000000000000000000000 /"
b111100 G
b0 ?"
b0 &
b1000000 h
b0 6
b0 6"
b0 /
b0 -
b0 9"
b100000000000000000000000000000011100001000000000000000000000000000000000000000000000000000000000000000000000 A"
b111000 5
b111000 7
b1010 W
b10000000000000000000000000000000000000000000000000000000000000000101010 J"
b1 M
b1 E"
0N
b1010000001011010000000000000000000000000001000000 j
b10100000010110100 U
b111100 n
b111100 Z
b111100 o
b11110000000000000000000000000000000000 y
b100001100000000000000000000000000000111000000000000000000000000000000000000000000000000000000000000000000000000000000000000000000000000000000000000000000000000000000000000000000000 2"
b100000000000000000001010000001011010000000000000000000000000000000000010000000000000000000000000000000001010 D"
1!
1$
#170
0!
0$
#175
b1000100 k
b1000100 X
b1000100 l
b1 N"
b1 *"
b1 a
b100000000010010000000000000001 u
b100000000010010000000000000001 J
b1000100 i
b1000100 Y
b1010 b
b1010 +"
b1 M"
b1 ]
b0 W
b10000000000000000000000000000000000000000000000000000000000000000000000 J"
b0 M
b0 E"
1N
b11100000000000000000000000000001000100 j
b111000 U
b100000000000000000000000000000011110001000000000000000000000000000000000000000000000000000000000000000000000 A"
b111100 5
b111100 7
b100001100000000000000000000000000001000000000000000000000000000000000000000000000000000000000000000000000000000000000000000000000000000000000000000000000000000000000000000000000000 /"
b1000000 G
b0 q
b1000100 h
b100010000100000000010010000000000000001 v
b1000100 K
b10000000000000000000000000000000000000000000000000000000000000000101010 L"
b100000000000000000000000000000011100001000000000000000000000000000000000000000000000000000000000000000000000 D"
b100001100000000000000000000000000000111100000000000000000000000000000000000000000000000000000000000000000000000000000000000000000000000000000000000000000000000000000000000000000000 2"
b100000000000000000000000000000000000000 y
b1000000 n
b1000000 Z
b1000000 o
1!
1$
#180
0!
0$
